<?xml version="1.0" standalone="no"?>
<!DOCTYPE svg PUBLIC "-//W3C//DTD SVG 20001102//EN"
"http://www.w3.org/TR/2000/CR-SVG-20001102/DTD/svg-20001102.dtd">
<svg width="768" height="490"
	xmlns:sodipodi="http://sodipodi.sourceforge.net/DTD/sodipodi-0.dtd">
<desc>wmf2svg</desc>
<text x="0" y="0" style="font-family:Times; font-style:normal; font-weight:normal; font-size:27.861557; fill:black" transform="matrix(1.000000 -0.000000 0.000000 1.000000 4.853824 149.604446)"
	>A</text>
<text x="0" y="0" style="font-family:Times; font-style:normal; font-weight:normal; font-size:27.861557; fill:black" transform="matrix(1.000000 -0.000000 0.000000 1.000000 20.181625 149.604446)"
	>l</text>
<text x="0" y="0" style="font-family:Times; font-style:normal; font-weight:normal; font-size:27.861557; fill:black" transform="matrix(1.000000 -0.000000 0.000000 1.000000 26.254906 149.604446)"
	>l</text>
<text x="0" y="0" style="font-family:Times; font-style:normal; font-weight:normal; font-size:27.861557; fill:black" transform="matrix(1.000000 -0.000000 0.000000 1.000000 298.974091 149.604446)"
	>1</text>
<text x="0" y="0" style="font-family:Times; font-style:normal; font-weight:normal; font-size:27.861557; fill:black" transform="matrix(1.000000 -0.000000 0.000000 1.000000 312.566681 149.604446)"
	>0</text>
<text x="0" y="0" style="font-family:Times; font-style:normal; font-weight:normal; font-size:27.861557; fill:black" transform="matrix(1.000000 -0.000000 0.000000 1.000000 326.159241 149.604446)"
	>0</text>
<text x="0" y="0" style="font-family:Times; font-style:normal; font-weight:normal; font-size:27.861557; fill:black" transform="matrix(1.000000 -0.000000 0.000000 1.000000 339.751831 149.604446)"
	>.</text>
<text x="0" y="0" style="font-family:Times; font-style:normal; font-weight:normal; font-size:27.861557; fill:black" transform="matrix(1.000000 -0.000000 0.000000 1.000000 346.403534 149.604446)"
	>0</text>
<text x="0" y="0" style="font-family:Times; font-style:normal; font-weight:normal; font-size:27.861557; fill:black" transform="matrix(1.000000 -0.000000 0.000000 1.000000 478.569672 149.301620)"
	>0</text>
<text x="0" y="0" style="font-family:Times; font-style:normal; font-weight:normal; font-size:27.861557; fill:black" transform="matrix(1.000000 -0.000000 0.000000 1.000000 492.162262 149.301620)"
	>.</text>
<text x="0" y="0" style="font-family:Times; font-style:normal; font-weight:normal; font-size:27.861557; fill:black" transform="matrix(1.000000 -0.000000 0.000000 1.000000 498.813934 149.301620)"
	>0</text>
<text x="0" y="0" style="font-family:Times; font-style:normal; font-weight:normal; font-size:27.861557; fill:black" transform="matrix(1.000000 -0.000000 0.000000 1.000000 512.406494 149.301620)"
	>8</text>
<text x="0" y="0" style="font-family:Times; font-style:normal; font-weight:normal; font-size:27.861557; fill:black" transform="matrix(1.000000 -0.000000 0.000000 1.000000 525.999084 149.301620)"
	>3</text>
<text x="0" y="0" style="font-family:Times; font-style:normal; font-weight:normal; font-size:27.861557; fill:black" transform="matrix(1.000000 -0.000000 0.000000 1.000000 651.513550 149.301620)"
	>1</text>
<text x="0" y="0" style="font-family:Times; font-style:normal; font-weight:normal; font-size:27.861557; fill:black" transform="matrix(1.000000 -0.000000 0.000000 1.000000 665.106140 149.301620)"
	>.</text>
<text x="0" y="0" style="font-family:Times; font-style:normal; font-weight:normal; font-size:27.861557; fill:black" transform="matrix(1.000000 -0.000000 0.000000 1.000000 671.757812 149.301620)"
	>2</text>
<text x="0" y="0" style="font-family:Times; font-style:normal; font-weight:normal; font-size:27.861557; fill:black" transform="matrix(1.000000 -0.000000 0.000000 1.000000 685.350403 149.301620)"
	>3</text>
<text x="0" y="0" style="font-family:Times; font-style:normal; font-weight:normal; font-size:27.861557; fill:black" transform="matrix(1.000000 -0.000000 0.000000 1.000000 698.942993 149.301620)"
	>8</text>
<text x="0" y="0" style="font-family:Times; font-style:normal; font-weight:normal; font-size:27.861557; fill:black" transform="matrix(1.000000 -0.000000 0.000000 1.000000 4.853824 200.784927)"
	>C</text>
<text x="0" y="0" style="font-family:Times; font-style:normal; font-weight:normal; font-size:27.861557; fill:black" transform="matrix(1.000000 -0.000000 0.000000 1.000000 19.024811 200.784927)"
	>h</text>
<text x="0" y="0" style="font-family:Times; font-style:normal; font-weight:normal; font-size:27.861557; fill:black" transform="matrix(1.000000 -0.000000 0.000000 1.000000 32.906590 200.784927)"
	>r</text>
<text x="0" y="0" style="font-family:Times; font-style:normal; font-weight:normal; font-size:27.861557; fill:black" transform="matrix(1.000000 -0.000000 0.000000 1.000000 42.161114 200.784927)"
	>o</text>
<text x="0" y="0" style="font-family:Times; font-style:normal; font-weight:normal; font-size:27.861557; fill:black" transform="matrix(1.000000 -0.000000 0.000000 1.000000 56.332104 200.784927)"
	>n</text>
<text x="0" y="0" style="font-family:Times; font-style:normal; font-weight:normal; font-size:27.861557; fill:black" transform="matrix(1.000000 -0.000000 0.000000 1.000000 70.213890 200.784927)"
	>i</text>
<text x="0" y="0" style="font-family:Times; font-style:normal; font-weight:normal; font-size:27.861557; fill:black" transform="matrix(1.000000 -0.000000 0.000000 1.000000 76.287163 200.784927)"
	>c</text>
<text x="0" y="0" style="font-family:Times; font-style:normal; font-weight:normal; font-size:27.861557; fill:black" transform="matrix(1.000000 -0.000000 0.000000 1.000000 305.625793 200.784927)"
	>7</text>
<text x="0" y="0" style="font-family:Times; font-style:normal; font-weight:normal; font-size:27.861557; fill:black" transform="matrix(1.000000 -0.000000 0.000000 1.000000 319.218353 200.784927)"
	>7</text>
<text x="0" y="0" style="font-family:Times; font-style:normal; font-weight:normal; font-size:27.861557; fill:black" transform="matrix(1.000000 -0.000000 0.000000 1.000000 332.810944 200.784927)"
	>.</text>
<text x="0" y="0" style="font-family:Times; font-style:normal; font-weight:normal; font-size:27.861557; fill:black" transform="matrix(1.000000 -0.000000 0.000000 1.000000 339.462646 200.784927)"
	>1</text>
<text x="0" y="0" style="font-family:Times; font-style:normal; font-weight:normal; font-size:27.861557; fill:black" transform="matrix(1.000000 -0.000000 0.000000 1.000000 478.569672 200.482071)"
	>0</text>
<text x="0" y="0" style="font-family:Times; font-style:normal; font-weight:normal; font-size:27.861557; fill:black" transform="matrix(1.000000 -0.000000 0.000000 1.000000 492.162262 200.482071)"
	>.</text>
<text x="0" y="0" style="font-family:Times; font-style:normal; font-weight:normal; font-size:27.861557; fill:black" transform="matrix(1.000000 -0.000000 0.000000 1.000000 498.813934 200.482071)"
	>1</text>
<text x="0" y="0" style="font-family:Times; font-style:normal; font-weight:normal; font-size:27.861557; fill:black" transform="matrix(1.000000 -0.000000 0.000000 1.000000 512.406494 200.482071)"
	>2</text>
<text x="0" y="0" style="font-family:Times; font-style:normal; font-weight:normal; font-size:27.861557; fill:black" transform="matrix(1.000000 -0.000000 0.000000 1.000000 525.999084 200.482071)"
	>1</text>
<text x="0" y="0" style="font-family:Times; font-style:normal; font-weight:normal; font-size:27.861557; fill:black" transform="matrix(1.000000 -0.000000 0.000000 1.000000 651.513550 200.482071)"
	>1</text>
<text x="0" y="0" style="font-family:Times; font-style:normal; font-weight:normal; font-size:27.861557; fill:black" transform="matrix(1.000000 -0.000000 0.000000 1.000000 665.106140 200.482071)"
	>.</text>
<text x="0" y="0" style="font-family:Times; font-style:normal; font-weight:normal; font-size:27.861557; fill:black" transform="matrix(1.000000 -0.000000 0.000000 1.000000 671.757812 200.482071)"
	>2</text>
<text x="0" y="0" style="font-family:Times; font-style:normal; font-weight:normal; font-size:27.861557; fill:black" transform="matrix(1.000000 -0.000000 0.000000 1.000000 685.350403 200.482071)"
	>5</text>
<text x="0" y="0" style="font-family:Times; font-style:normal; font-weight:normal; font-size:27.861557; fill:black" transform="matrix(1.000000 -0.000000 0.000000 1.000000 698.942993 200.482071)"
	>1</text>
<text x="0" y="0" style="font-family:Times; font-style:normal; font-weight:normal; font-size:27.861557; fill:black" transform="matrix(1.000000 -0.000000 0.000000 1.000000 4.853824 237.428940)"
	>A</text>
<text x="0" y="0" style="font-family:Times; font-style:normal; font-weight:normal; font-size:27.861557; fill:black" transform="matrix(1.000000 -0.000000 0.000000 1.000000 20.181625 237.428940)"
	>c</text>
<text x="0" y="0" style="font-family:Times; font-style:normal; font-weight:normal; font-size:27.861557; fill:black" transform="matrix(1.000000 -0.000000 0.000000 1.000000 31.460571 237.428940)"
	>u</text>
<text x="0" y="0" style="font-family:Times; font-style:normal; font-weight:normal; font-size:27.861557; fill:black" transform="matrix(1.000000 -0.000000 0.000000 1.000000 45.342354 237.428940)"
	>t</text>
<text x="0" y="0" style="font-family:Times; font-style:normal; font-weight:normal; font-size:27.861557; fill:black" transform="matrix(1.000000 -0.000000 0.000000 1.000000 54.307674 237.428940)"
	>e</text>
<text x="0" y="0" style="font-family:Times; font-style:normal; font-weight:normal; font-size:27.861557; fill:black" transform="matrix(1.000000 -0.000000 0.000000 1.000000 305.625793 237.428940)"
	>2</text>
<text x="0" y="0" style="font-family:Times; font-style:normal; font-weight:normal; font-size:27.861557; fill:black" transform="matrix(1.000000 -0.000000 0.000000 1.000000 319.218353 237.428940)"
	>2</text>
<text x="0" y="0" style="font-family:Times; font-style:normal; font-weight:normal; font-size:27.861557; fill:black" transform="matrix(1.000000 -0.000000 0.000000 1.000000 332.810944 237.428940)"
	>.</text>
<text x="0" y="0" style="font-family:Times; font-style:normal; font-weight:normal; font-size:27.861557; fill:black" transform="matrix(1.000000 -0.000000 0.000000 1.000000 339.462646 237.428940)"
	>9</text>
<text x="0" y="0" style="font-family:Times; font-style:normal; font-weight:normal; font-size:27.861557; fill:black" transform="matrix(1.000000 -0.000000 0.000000 1.000000 478.569672 237.126083)"
	>0</text>
<text x="0" y="0" style="font-family:Times; font-style:normal; font-weight:normal; font-size:27.861557; fill:black" transform="matrix(1.000000 -0.000000 0.000000 1.000000 492.162262 237.126083)"
	>.</text>
<text x="0" y="0" style="font-family:Times; font-style:normal; font-weight:normal; font-size:27.861557; fill:black" transform="matrix(1.000000 -0.000000 0.000000 1.000000 498.813934 237.126083)"
	>0</text>
<text x="0" y="0" style="font-family:Times; font-style:normal; font-weight:normal; font-size:27.861557; fill:black" transform="matrix(1.000000 -0.000000 0.000000 1.000000 512.406494 237.126083)"
	>9</text>
<text x="0" y="0" style="font-family:Times; font-style:normal; font-weight:normal; font-size:27.861557; fill:black" transform="matrix(1.000000 -0.000000 0.000000 1.000000 525.999084 237.126083)"
	>9</text>
<text x="0" y="0" style="font-family:Times; font-style:normal; font-weight:normal; font-size:27.861557; fill:black" transform="matrix(1.000000 -0.000000 0.000000 1.000000 651.513550 237.126083)"
	>1</text>
<text x="0" y="0" style="font-family:Times; font-style:normal; font-weight:normal; font-size:27.861557; fill:black" transform="matrix(1.000000 -0.000000 0.000000 1.000000 665.106140 237.126083)"
	>.</text>
<text x="0" y="0" style="font-family:Times; font-style:normal; font-weight:normal; font-size:27.861557; fill:black" transform="matrix(1.000000 -0.000000 0.000000 1.000000 671.757812 237.126083)"
	>2</text>
<text x="0" y="0" style="font-family:Times; font-style:normal; font-weight:normal; font-size:27.861557; fill:black" transform="matrix(1.000000 -0.000000 0.000000 1.000000 685.350403 237.126083)"
	>0</text>
<text x="0" y="0" style="font-family:Times; font-style:normal; font-weight:normal; font-size:27.861557; fill:black" transform="matrix(1.000000 -0.000000 0.000000 1.000000 698.942993 237.126083)"
	>6</text>
<text x="0" y="0" style="font-family:Times; font-style:normal; font-weight:normal; font-size:27.861557; fill:black" transform="matrix(1.000000 -0.000000 0.000000 1.000000 4.853824 288.609406)"
	>M</text>
<text x="0" y="0" style="font-family:Times; font-style:normal; font-weight:normal; font-size:27.861557; fill:black" transform="matrix(1.000000 -0.000000 0.000000 1.000000 27.700924 288.609406)"
	>a</text>
<text x="0" y="0" style="font-family:Times; font-style:normal; font-weight:normal; font-size:27.861557; fill:black" transform="matrix(1.000000 -0.000000 0.000000 1.000000 40.425892 288.609406)"
	>i</text>
<text x="0" y="0" style="font-family:Times; font-style:normal; font-weight:normal; font-size:27.861557; fill:black" transform="matrix(1.000000 -0.000000 0.000000 1.000000 46.499168 288.609406)"
	>n</text>
<text x="0" y="0" style="font-family:Times; font-style:normal; font-weight:normal; font-size:27.861557; fill:black" transform="matrix(1.000000 -0.000000 0.000000 1.000000 60.380955 288.609406)"
	>t</text>
<text x="0" y="0" style="font-family:Times; font-style:normal; font-weight:normal; font-size:27.861557; fill:black" transform="matrix(1.000000 -0.000000 0.000000 1.000000 69.346275 288.609406)"
	>e</text>
<text x="0" y="0" style="font-family:Times; font-style:normal; font-weight:normal; font-size:27.861557; fill:black" transform="matrix(1.000000 -0.000000 0.000000 1.000000 82.649643 288.609406)"
	>n</text>
<text x="0" y="0" style="font-family:Times; font-style:normal; font-weight:normal; font-size:27.861557; fill:black" transform="matrix(1.000000 -0.000000 0.000000 1.000000 96.531425 288.609406)"
	>a</text>
<text x="0" y="0" style="font-family:Times; font-style:normal; font-weight:normal; font-size:27.861557; fill:black" transform="matrix(1.000000 -0.000000 0.000000 1.000000 109.256401 288.609406)"
	>n</text>
<text x="0" y="0" style="font-family:Times; font-style:normal; font-weight:normal; font-size:27.861557; fill:black" transform="matrix(1.000000 -0.000000 0.000000 1.000000 123.138184 288.609406)"
	>c</text>
<text x="0" y="0" style="font-family:Times; font-style:normal; font-weight:normal; font-size:27.861557; fill:black" transform="matrix(1.000000 -0.000000 0.000000 1.000000 134.417130 288.609406)"
	>e</text>
<text x="0" y="0" style="font-family:Times; font-style:normal; font-weight:normal; font-size:27.861557; fill:black" transform="matrix(1.000000 -0.000000 0.000000 1.000000 305.625793 288.609406)"
	>9</text>
<text x="0" y="0" style="font-family:Times; font-style:normal; font-weight:normal; font-size:27.861557; fill:black" transform="matrix(1.000000 -0.000000 0.000000 1.000000 319.218353 288.609406)"
	>0</text>
<text x="0" y="0" style="font-family:Times; font-style:normal; font-weight:normal; font-size:27.861557; fill:black" transform="matrix(1.000000 -0.000000 0.000000 1.000000 332.810944 288.609406)"
	>.</text>
<text x="0" y="0" style="font-family:Times; font-style:normal; font-weight:normal; font-size:27.861557; fill:black" transform="matrix(1.000000 -0.000000 0.000000 1.000000 339.462646 288.609406)"
	>1</text>
<text x="0" y="0" style="font-family:Times; font-style:normal; font-weight:normal; font-size:27.861557; fill:black" transform="matrix(1.000000 -0.000000 0.000000 1.000000 478.569672 288.306549)"
	>0</text>
<text x="0" y="0" style="font-family:Times; font-style:normal; font-weight:normal; font-size:27.861557; fill:black" transform="matrix(1.000000 -0.000000 0.000000 1.000000 492.162262 288.306549)"
	>.</text>
<text x="0" y="0" style="font-family:Times; font-style:normal; font-weight:normal; font-size:27.861557; fill:black" transform="matrix(1.000000 -0.000000 0.000000 1.000000 498.813934 288.306549)"
	>1</text>
<text x="0" y="0" style="font-family:Times; font-style:normal; font-weight:normal; font-size:27.861557; fill:black" transform="matrix(1.000000 -0.000000 0.000000 1.000000 512.406494 288.306549)"
	>0</text>
<text x="0" y="0" style="font-family:Times; font-style:normal; font-weight:normal; font-size:27.861557; fill:black" transform="matrix(1.000000 -0.000000 0.000000 1.000000 525.999084 288.306549)"
	>3</text>
<text x="0" y="0" style="font-family:Times; font-style:normal; font-weight:normal; font-size:27.861557; fill:black" transform="matrix(1.000000 -0.000000 0.000000 1.000000 651.513550 288.306549)"
	>1</text>
<text x="0" y="0" style="font-family:Times; font-style:normal; font-weight:normal; font-size:27.861557; fill:black" transform="matrix(1.000000 -0.000000 0.000000 1.000000 665.106140 288.306549)"
	>.</text>
<text x="0" y="0" style="font-family:Times; font-style:normal; font-weight:normal; font-size:27.861557; fill:black" transform="matrix(1.000000 -0.000000 0.000000 1.000000 671.757812 288.306549)"
	>1</text>
<text x="0" y="0" style="font-family:Times; font-style:normal; font-weight:normal; font-size:27.861557; fill:black" transform="matrix(1.000000 -0.000000 0.000000 1.000000 685.350403 288.306549)"
	>4</text>
<text x="0" y="0" style="font-family:Times; font-style:normal; font-weight:normal; font-size:27.861557; fill:black" transform="matrix(1.000000 -0.000000 0.000000 1.000000 698.942993 288.306549)"
	>2</text>
<text x="0" y="0" style="font-family:Times; font-style:normal; font-weight:normal; font-size:27.861557; fill:black" transform="matrix(1.000000 -0.000000 0.000000 1.000000 4.853824 325.253387)"
	>N</text>
<text x="0" y="0" style="font-family:Times; font-style:normal; font-weight:normal; font-size:27.861557; fill:black" transform="matrix(1.000000 -0.000000 0.000000 1.000000 21.916847 325.253387)"
	>o</text>
<text x="0" y="0" style="font-family:Times; font-style:normal; font-weight:normal; font-size:27.861557; fill:black" transform="matrix(1.000000 -0.000000 0.000000 1.000000 36.087833 325.253387)"
	>n</text>
<text x="0" y="0" style="font-family:Times; font-style:normal; font-weight:normal; font-size:27.861557; fill:black" transform="matrix(1.000000 -0.000000 0.000000 1.000000 49.969616 325.253387)"
	>-</text>
<text x="0" y="0" style="font-family:Times; font-style:normal; font-weight:normal; font-size:27.861557; fill:black" transform="matrix(1.000000 -0.000000 0.000000 1.000000 58.067322 325.253387)"
	>M</text>
<text x="0" y="0" style="font-family:Times; font-style:normal; font-weight:normal; font-size:27.861557; fill:black" transform="matrix(1.000000 -0.000000 0.000000 1.000000 80.914429 325.253387)"
	>a</text>
<text x="0" y="0" style="font-family:Times; font-style:normal; font-weight:normal; font-size:27.861557; fill:black" transform="matrix(1.000000 -0.000000 0.000000 1.000000 93.639397 325.253387)"
	>i</text>
<text x="0" y="0" style="font-family:Times; font-style:normal; font-weight:normal; font-size:27.861557; fill:black" transform="matrix(1.000000 -0.000000 0.000000 1.000000 99.712677 325.253387)"
	>n</text>
<text x="0" y="0" style="font-family:Times; font-style:normal; font-weight:normal; font-size:27.861557; fill:black" transform="matrix(1.000000 -0.000000 0.000000 1.000000 113.594460 325.253387)"
	>t</text>
<text x="0" y="0" style="font-family:Times; font-style:normal; font-weight:normal; font-size:27.861557; fill:black" transform="matrix(1.000000 -0.000000 0.000000 1.000000 122.559769 325.253387)"
	>e</text>
<text x="0" y="0" style="font-family:Times; font-style:normal; font-weight:normal; font-size:27.861557; fill:black" transform="matrix(1.000000 -0.000000 0.000000 1.000000 135.863144 325.253387)"
	>n</text>
<text x="0" y="0" style="font-family:Times; font-style:normal; font-weight:normal; font-size:27.861557; fill:black" transform="matrix(1.000000 -0.000000 0.000000 1.000000 149.744934 325.253387)"
	>a</text>
<text x="0" y="0" style="font-family:Times; font-style:normal; font-weight:normal; font-size:27.861557; fill:black" transform="matrix(1.000000 -0.000000 0.000000 1.000000 162.469894 325.253387)"
	>n</text>
<text x="0" y="0" style="font-family:Times; font-style:normal; font-weight:normal; font-size:27.861557; fill:black" transform="matrix(1.000000 -0.000000 0.000000 1.000000 176.351685 325.253387)"
	>c</text>
<text x="0" y="0" style="font-family:Times; font-style:normal; font-weight:normal; font-size:27.861557; fill:black" transform="matrix(1.000000 -0.000000 0.000000 1.000000 187.630630 325.253387)"
	>e</text>
<text x="0" y="0" style="font-family:Times; font-style:normal; font-weight:normal; font-size:27.861557; fill:black" transform="matrix(1.000000 -0.000000 0.000000 1.000000 312.566650 325.253387)"
	>9</text>
<text x="0" y="0" style="font-family:Times; font-style:normal; font-weight:normal; font-size:27.861557; fill:black" transform="matrix(1.000000 -0.000000 0.000000 1.000000 326.159241 325.253387)"
	>.</text>
<text x="0" y="0" style="font-family:Times; font-style:normal; font-weight:normal; font-size:27.861557; fill:black" transform="matrix(1.000000 -0.000000 0.000000 1.000000 332.810944 325.253387)"
	>9</text>
<text x="0" y="0" style="font-family:Times; font-style:normal; font-weight:normal; font-size:27.861557; fill:black" transform="matrix(1.000000 -0.000000 0.000000 1.000000 478.569672 324.950562)"
	>0</text>
<text x="0" y="0" style="font-family:Times; font-style:normal; font-weight:normal; font-size:27.861557; fill:black" transform="matrix(1.000000 -0.000000 0.000000 1.000000 492.162262 324.950562)"
	>.</text>
<text x="0" y="0" style="font-family:Times; font-style:normal; font-weight:normal; font-size:27.861557; fill:black" transform="matrix(1.000000 -0.000000 0.000000 1.000000 498.813934 324.950562)"
	>0</text>
<text x="0" y="0" style="font-family:Times; font-style:normal; font-weight:normal; font-size:27.861557; fill:black" transform="matrix(1.000000 -0.000000 0.000000 1.000000 512.406494 324.950562)"
	>8</text>
<text x="0" y="0" style="font-family:Times; font-style:normal; font-weight:normal; font-size:27.861557; fill:black" transform="matrix(1.000000 -0.000000 0.000000 1.000000 525.999084 324.950562)"
	>0</text>
<text x="0" y="0" style="font-family:Times; font-style:normal; font-weight:normal; font-size:27.861557; fill:black" transform="matrix(1.000000 -0.000000 0.000000 1.000000 651.513550 324.950562)"
	>1</text>
<text x="0" y="0" style="font-family:Times; font-style:normal; font-weight:normal; font-size:27.861557; fill:black" transform="matrix(1.000000 -0.000000 0.000000 1.000000 665.106140 324.950562)"
	>.</text>
<text x="0" y="0" style="font-family:Times; font-style:normal; font-weight:normal; font-size:27.861557; fill:black" transform="matrix(1.000000 -0.000000 0.000000 1.000000 671.757812 324.950562)"
	>2</text>
<text x="0" y="0" style="font-family:Times; font-style:normal; font-weight:normal; font-size:27.861557; fill:black" transform="matrix(1.000000 -0.000000 0.000000 1.000000 685.350403 324.950562)"
	>7</text>
<text x="0" y="0" style="font-family:Times; font-style:normal; font-weight:normal; font-size:27.861557; fill:black" transform="matrix(1.000000 -0.000000 0.000000 1.000000 698.942993 324.950562)"
	>0</text>
<text x="0" y="0" style="font-family:Times; font-style:normal; font-weight:normal; font-size:27.861557; fill:black" transform="matrix(1.000000 -0.000000 0.000000 1.000000 4.853824 376.433868)"
	>B</text>
<text x="0" y="0" style="font-family:Times; font-style:normal; font-weight:normal; font-size:27.861557; fill:black" transform="matrix(1.000000 -0.000000 0.000000 1.000000 19.314014 376.433868)"
	>r</text>
<text x="0" y="0" style="font-family:Times; font-style:normal; font-weight:normal; font-size:27.861557; fill:black" transform="matrix(1.000000 -0.000000 0.000000 1.000000 28.568535 376.433868)"
	>a</text>
<text x="0" y="0" style="font-family:Times; font-style:normal; font-weight:normal; font-size:27.861557; fill:black" transform="matrix(1.000000 -0.000000 0.000000 1.000000 41.293499 376.433868)"
	>n</text>
<text x="0" y="0" style="font-family:Times; font-style:normal; font-weight:normal; font-size:27.861557; fill:black" transform="matrix(1.000000 -0.000000 0.000000 1.000000 55.175289 376.433868)"
	>d</text>
<text x="0" y="0" style="font-family:Times; font-style:normal; font-weight:normal; font-size:27.861557; fill:black" transform="matrix(1.000000 -0.000000 0.000000 1.000000 305.625793 376.433868)"
	>7</text>
<text x="0" y="0" style="font-family:Times; font-style:normal; font-weight:normal; font-size:27.861557; fill:black" transform="matrix(1.000000 -0.000000 0.000000 1.000000 319.218353 376.433868)"
	>4</text>
<text x="0" y="0" style="font-family:Times; font-style:normal; font-weight:normal; font-size:27.861557; fill:black" transform="matrix(1.000000 -0.000000 0.000000 1.000000 332.810944 376.433868)"
	>.</text>
<text x="0" y="0" style="font-family:Times; font-style:normal; font-weight:normal; font-size:27.861557; fill:black" transform="matrix(1.000000 -0.000000 0.000000 1.000000 339.462646 376.433868)"
	>8</text>
<text x="0" y="0" style="font-family:Times; font-style:normal; font-weight:normal; font-size:27.861557; fill:black" transform="matrix(1.000000 -0.000000 0.000000 1.000000 478.569672 376.131042)"
	>0</text>
<text x="0" y="0" style="font-family:Times; font-style:normal; font-weight:normal; font-size:27.861557; fill:black" transform="matrix(1.000000 -0.000000 0.000000 1.000000 492.162262 376.131042)"
	>.</text>
<text x="0" y="0" style="font-family:Times; font-style:normal; font-weight:normal; font-size:27.861557; fill:black" transform="matrix(1.000000 -0.000000 0.000000 1.000000 498.813934 376.131042)"
	>1</text>
<text x="0" y="0" style="font-family:Times; font-style:normal; font-weight:normal; font-size:27.861557; fill:black" transform="matrix(1.000000 -0.000000 0.000000 1.000000 512.406494 376.131042)"
	>9</text>
<text x="0" y="0" style="font-family:Times; font-style:normal; font-weight:normal; font-size:27.861557; fill:black" transform="matrix(1.000000 -0.000000 0.000000 1.000000 525.999084 376.131042)"
	>9</text>
<text x="0" y="0" style="font-family:Times; font-style:normal; font-weight:normal; font-size:27.861557; fill:black" transform="matrix(1.000000 -0.000000 0.000000 1.000000 651.513550 376.131042)"
	>1</text>
<text x="0" y="0" style="font-family:Times; font-style:normal; font-weight:normal; font-size:27.861557; fill:black" transform="matrix(1.000000 -0.000000 0.000000 1.000000 665.106140 376.131042)"
	>.</text>
<text x="0" y="0" style="font-family:Times; font-style:normal; font-weight:normal; font-size:27.861557; fill:black" transform="matrix(1.000000 -0.000000 0.000000 1.000000 671.757812 376.131042)"
	>2</text>
<text x="0" y="0" style="font-family:Times; font-style:normal; font-weight:normal; font-size:27.861557; fill:black" transform="matrix(1.000000 -0.000000 0.000000 1.000000 685.350403 376.131042)"
	>4</text>
<text x="0" y="0" style="font-family:Times; font-style:normal; font-weight:normal; font-size:27.861557; fill:black" transform="matrix(1.000000 -0.000000 0.000000 1.000000 698.942993 376.131042)"
	>7</text>
<text x="0" y="0" style="font-family:Times; font-style:normal; font-weight:normal; font-size:27.861557; fill:black" transform="matrix(1.000000 -0.000000 0.000000 1.000000 4.853824 413.077881)"
	>G</text>
<text x="0" y="0" style="font-family:Times; font-style:normal; font-weight:normal; font-size:27.861557; fill:black" transform="matrix(1.000000 -0.000000 0.000000 1.000000 21.627645 413.077881)"
	>e</text>
<text x="0" y="0" style="font-family:Times; font-style:normal; font-weight:normal; font-size:27.861557; fill:black" transform="matrix(1.000000 -0.000000 0.000000 1.000000 34.931019 413.077881)"
	>n</text>
<text x="0" y="0" style="font-family:Times; font-style:normal; font-weight:normal; font-size:27.861557; fill:black" transform="matrix(1.000000 -0.000000 0.000000 1.000000 48.812801 413.077881)"
	>e</text>
<text x="0" y="0" style="font-family:Times; font-style:normal; font-weight:normal; font-size:27.861557; fill:black" transform="matrix(1.000000 -0.000000 0.000000 1.000000 62.116180 413.077881)"
	>r</text>
<text x="0" y="0" style="font-family:Times; font-style:normal; font-weight:normal; font-size:27.861557; fill:black" transform="matrix(1.000000 -0.000000 0.000000 1.000000 71.370697 413.077881)"
	>i</text>
<text x="0" y="0" style="font-family:Times; font-style:normal; font-weight:normal; font-size:27.861557; fill:black" transform="matrix(1.000000 -0.000000 0.000000 1.000000 77.443985 413.077881)"
	>c</text>
<text x="0" y="0" style="font-family:Times; font-style:normal; font-weight:normal; font-size:27.861557; fill:black" transform="matrix(1.000000 -0.000000 0.000000 1.000000 305.625793 413.077881)"
	>2</text>
<text x="0" y="0" style="font-family:Times; font-style:normal; font-weight:normal; font-size:27.861557; fill:black" transform="matrix(1.000000 -0.000000 0.000000 1.000000 319.218353 413.077881)"
	>5</text>
<text x="0" y="0" style="font-family:Times; font-style:normal; font-weight:normal; font-size:27.861557; fill:black" transform="matrix(1.000000 -0.000000 0.000000 1.000000 332.810944 413.077881)"
	>.</text>
<text x="0" y="0" style="font-family:Times; font-style:normal; font-weight:normal; font-size:27.861557; fill:black" transform="matrix(1.000000 -0.000000 0.000000 1.000000 339.462646 413.077881)"
	>2</text>
<text x="0" y="0" style="font-family:Times; font-style:normal; font-weight:normal; font-size:27.861557; fill:black" transform="matrix(1.000000 -0.000000 0.000000 1.000000 478.569672 412.775024)"
	>0</text>
<text x="0" y="0" style="font-family:Times; font-style:normal; font-weight:normal; font-size:27.861557; fill:black" transform="matrix(1.000000 -0.000000 0.000000 1.000000 492.162262 412.775024)"
	>.</text>
<text x="0" y="0" style="font-family:Times; font-style:normal; font-weight:normal; font-size:27.861557; fill:black" transform="matrix(1.000000 -0.000000 0.000000 1.000000 498.813934 412.775024)"
	>0</text>
<text x="0" y="0" style="font-family:Times; font-style:normal; font-weight:normal; font-size:27.861557; fill:black" transform="matrix(1.000000 -0.000000 0.000000 1.000000 512.406494 412.775024)"
	>8</text>
<text x="0" y="0" style="font-family:Times; font-style:normal; font-weight:normal; font-size:27.861557; fill:black" transform="matrix(1.000000 -0.000000 0.000000 1.000000 525.999084 412.775024)"
	>5</text>
<text x="0" y="0" style="font-family:Times; font-style:normal; font-weight:normal; font-size:27.861557; fill:black" transform="matrix(1.000000 -0.000000 0.000000 1.000000 651.513550 412.775024)"
	>1</text>
<text x="0" y="0" style="font-family:Times; font-style:normal; font-weight:normal; font-size:27.861557; fill:black" transform="matrix(1.000000 -0.000000 0.000000 1.000000 665.106140 412.775024)"
	>.</text>
<text x="0" y="0" style="font-family:Times; font-style:normal; font-weight:normal; font-size:27.861557; fill:black" transform="matrix(1.000000 -0.000000 0.000000 1.000000 671.757812 412.775024)"
	>1</text>
<text x="0" y="0" style="font-family:Times; font-style:normal; font-weight:normal; font-size:27.861557; fill:black" transform="matrix(1.000000 -0.000000 0.000000 1.000000 685.350403 412.775024)"
	>3</text>
<text x="0" y="0" style="font-family:Times; font-style:normal; font-weight:normal; font-size:27.861557; fill:black" transform="matrix(1.000000 -0.000000 0.000000 1.000000 698.942993 412.775024)"
	>3</text>
<text x="0" y="0" style="font-family:Times; font-style:normal; font-weight:normal; font-size:27.861557; fill:black" transform="matrix(1.000000 -0.000000 0.000000 1.000000 4.853824 464.258331)"
	>"</text>
<text x="0" y="0" style="font-family:Times; font-style:normal; font-weight:normal; font-size:27.861557; fill:black" transform="matrix(1.000000 -0.000000 0.000000 1.000000 15.554364 464.258331)"
	>I</text>
<text x="0" y="0" style="font-family:Times; font-style:normal; font-weight:normal; font-size:27.861557; fill:black" transform="matrix(1.000000 -0.000000 0.000000 1.000000 22.206051 464.258331)"
	>n</text>
<text x="0" y="0" style="font-family:Times; font-style:normal; font-weight:normal; font-size:27.861557; fill:black" transform="matrix(1.000000 -0.000000 0.000000 1.000000 36.087833 464.258331)"
	>a</text>
<text x="0" y="0" style="font-family:Times; font-style:normal; font-weight:normal; font-size:27.861557; fill:black" transform="matrix(1.000000 -0.000000 0.000000 1.000000 48.812801 464.258331)"
	>p</text>
<text x="0" y="0" style="font-family:Times; font-style:normal; font-weight:normal; font-size:27.861557; fill:black" transform="matrix(1.000000 -0.000000 0.000000 1.000000 62.694588 464.258331)"
	>p</text>
<text x="0" y="0" style="font-family:Times; font-style:normal; font-weight:normal; font-size:27.861557; fill:black" transform="matrix(1.000000 -0.000000 0.000000 1.000000 76.576370 464.258331)"
	>r</text>
<text x="0" y="0" style="font-family:Times; font-style:normal; font-weight:normal; font-size:27.861557; fill:black" transform="matrix(1.000000 -0.000000 0.000000 1.000000 85.830887 464.258331)"
	>o</text>
<text x="0" y="0" style="font-family:Times; font-style:normal; font-weight:normal; font-size:27.861557; fill:black" transform="matrix(1.000000 -0.000000 0.000000 1.000000 100.001869 464.258331)"
	>p</text>
<text x="0" y="0" style="font-family:Times; font-style:normal; font-weight:normal; font-size:27.861557; fill:black" transform="matrix(1.000000 -0.000000 0.000000 1.000000 113.883659 464.258331)"
	>r</text>
<text x="0" y="0" style="font-family:Times; font-style:normal; font-weight:normal; font-size:27.861557; fill:black" transform="matrix(1.000000 -0.000000 0.000000 1.000000 123.138184 464.258331)"
	>i</text>
<text x="0" y="0" style="font-family:Times; font-style:normal; font-weight:normal; font-size:27.861557; fill:black" transform="matrix(1.000000 -0.000000 0.000000 1.000000 129.211456 464.258331)"
	>a</text>
<text x="0" y="0" style="font-family:Times; font-style:normal; font-weight:normal; font-size:27.861557; fill:black" transform="matrix(1.000000 -0.000000 0.000000 1.000000 141.936432 464.258331)"
	>t</text>
<text x="0" y="0" style="font-family:Times; font-style:normal; font-weight:normal; font-size:27.861557; fill:black" transform="matrix(1.000000 -0.000000 0.000000 1.000000 150.901749 464.258331)"
	>e</text>
<text x="0" y="0" style="font-family:Times; font-style:normal; font-weight:normal; font-size:27.861557; fill:black" transform="matrix(1.000000 -0.000000 0.000000 1.000000 164.205124 464.258331)"
	>"</text>
<text x="0" y="0" style="font-family:Times; font-style:normal; font-weight:normal; font-size:27.861557; fill:black" transform="matrix(1.000000 -0.000000 0.000000 1.000000 312.566650 464.258331)"
	>1</text>
<text x="0" y="0" style="font-family:Times; font-style:normal; font-weight:normal; font-size:27.861557; fill:black" transform="matrix(1.000000 -0.000000 0.000000 1.000000 326.159241 464.258331)"
	>.</text>
<text x="0" y="0" style="font-family:Times; font-style:normal; font-weight:normal; font-size:27.861557; fill:black" transform="matrix(1.000000 -0.000000 0.000000 1.000000 332.810944 464.258331)"
	>3</text>
<text x="0" y="0" style="font-family:Times; font-style:normal; font-weight:normal; font-size:27.861557; fill:black" transform="matrix(1.000000 -0.000000 0.000000 1.000000 478.569672 463.955505)"
	>0</text>
<text x="0" y="0" style="font-family:Times; font-style:normal; font-weight:normal; font-size:27.861557; fill:black" transform="matrix(1.000000 -0.000000 0.000000 1.000000 492.162262 463.955505)"
	>.</text>
<text x="0" y="0" style="font-family:Times; font-style:normal; font-weight:normal; font-size:27.861557; fill:black" transform="matrix(1.000000 -0.000000 0.000000 1.000000 498.813934 463.955505)"
	>1</text>
<text x="0" y="0" style="font-family:Times; font-style:normal; font-weight:normal; font-size:27.861557; fill:black" transform="matrix(1.000000 -0.000000 0.000000 1.000000 512.406494 463.955505)"
	>1</text>
<text x="0" y="0" style="font-family:Times; font-style:normal; font-weight:normal; font-size:27.861557; fill:black" transform="matrix(1.000000 -0.000000 0.000000 1.000000 525.999084 463.955505)"
	>9</text>
<text x="0" y="0" style="font-family:Times; font-style:normal; font-weight:normal; font-size:27.861557; fill:black" transform="matrix(1.000000 -0.000000 0.000000 1.000000 651.513550 463.955505)"
	>1</text>
<text x="0" y="0" style="font-family:Times; font-style:normal; font-weight:normal; font-size:27.861557; fill:black" transform="matrix(1.000000 -0.000000 0.000000 1.000000 665.106140 463.955505)"
	>.</text>
<text x="0" y="0" style="font-family:Times; font-style:normal; font-weight:normal; font-size:27.861557; fill:black" transform="matrix(1.000000 -0.000000 0.000000 1.000000 671.757812 463.955505)"
	>2</text>
<text x="0" y="0" style="font-family:Times; font-style:normal; font-weight:normal; font-size:27.861557; fill:black" transform="matrix(1.000000 -0.000000 0.000000 1.000000 685.350403 463.955505)"
	>0</text>
<text x="0" y="0" style="font-family:Times; font-style:normal; font-weight:normal; font-size:27.861557; fill:black" transform="matrix(1.000000 -0.000000 0.000000 1.000000 698.942993 463.955505)"
	>2</text>
<text x="0" y="0" style="font-family:Times; font-style:normal; font-weight:normal; font-size:27.861557; fill:black" transform="matrix(1.000000 -0.000000 0.000000 1.000000 4.853824 64.202721)"
	>D</text>
<text x="0" y="0" style="font-family:Times; font-style:normal; font-weight:normal; font-size:27.861557; fill:black" transform="matrix(1.000000 -0.000000 0.000000 1.000000 21.338440 64.202721)"
	>r</text>
<text x="0" y="0" style="font-family:Times; font-style:normal; font-weight:normal; font-size:27.861557; fill:black" transform="matrix(1.000000 -0.000000 0.000000 1.000000 30.592960 64.202721)"
	>u</text>
<text x="0" y="0" style="font-family:Times; font-style:normal; font-weight:normal; font-size:27.861557; fill:black" transform="matrix(1.000000 -0.000000 0.000000 1.000000 44.474743 64.202721)"
	>g</text>
<text x="0" y="0" style="font-family:Times; font-style:normal; font-weight:normal; font-size:27.861557; fill:black" transform="matrix(1.000000 -0.000000 0.000000 1.000000 56.910511 64.202721)"
	> </text>
<text x="0" y="0" style="font-family:Times; font-style:normal; font-weight:normal; font-size:27.861557; fill:black" transform="matrix(1.000000 -0.000000 0.000000 1.000000 62.983788 64.202721)"
	>T</text>
<text x="0" y="0" style="font-family:Times; font-style:normal; font-weight:normal; font-size:27.861557; fill:black" transform="matrix(1.000000 -0.000000 0.000000 1.000000 75.997963 64.202721)"
	>y</text>
<text x="0" y="0" style="font-family:Times; font-style:normal; font-weight:normal; font-size:27.861557; fill:black" transform="matrix(1.000000 -0.000000 0.000000 1.000000 88.144516 64.202721)"
	>p</text>
<text x="0" y="0" style="font-family:Times; font-style:normal; font-weight:normal; font-size:27.861557; fill:black" transform="matrix(1.000000 -0.000000 0.000000 1.000000 102.026299 64.202721)"
	>e</text>
<text x="0" y="0" style="font-family:Times; font-style:normal; font-weight:normal; font-size:27.861557; fill:black" transform="matrix(1.000000 -0.000000 0.000000 1.000000 272.367340 46.032139)"
	>P</text>
<text x="0" y="0" style="font-family:Times; font-style:normal; font-weight:normal; font-size:27.861557; fill:black" transform="matrix(1.000000 -0.000000 0.000000 1.000000 286.249115 46.032139)"
	>e</text>
<text x="0" y="0" style="font-family:Times; font-style:normal; font-weight:normal; font-size:27.861557; fill:black" transform="matrix(1.000000 -0.000000 0.000000 1.000000 299.552490 46.032139)"
	>r</text>
<text x="0" y="0" style="font-family:Times; font-style:normal; font-weight:normal; font-size:27.861557; fill:black" transform="matrix(1.000000 -0.000000 0.000000 1.000000 308.807007 46.032139)"
	>c</text>
<text x="0" y="0" style="font-family:Times; font-style:normal; font-weight:normal; font-size:27.861557; fill:black" transform="matrix(1.000000 -0.000000 0.000000 1.000000 320.085968 46.032139)"
	>e</text>
<text x="0" y="0" style="font-family:Times; font-style:normal; font-weight:normal; font-size:27.861557; fill:black" transform="matrix(1.000000 -0.000000 0.000000 1.000000 333.389343 46.032139)"
	>n</text>
<text x="0" y="0" style="font-family:Times; font-style:normal; font-weight:normal; font-size:27.861557; fill:black" transform="matrix(1.000000 -0.000000 0.000000 1.000000 347.271118 46.032139)"
	>t</text>
<text x="0" y="0" style="font-family:Times; font-style:normal; font-weight:normal; font-size:27.861557; fill:black" transform="matrix(1.000000 -0.000000 0.000000 1.000000 356.236420 46.032139)"
	> </text>
<text x="0" y="0" style="font-family:Times; font-style:normal; font-weight:normal; font-size:27.861557; fill:black" transform="matrix(1.000000 -0.000000 0.000000 1.000000 362.309723 46.032139)"
	>o</text>
<text x="0" y="0" style="font-family:Times; font-style:normal; font-weight:normal; font-size:27.861557; fill:black" transform="matrix(1.000000 -0.000000 0.000000 1.000000 376.480682 46.032139)"
	>f</text>
<text x="0" y="0" style="font-family:Times; font-style:normal; font-weight:normal; font-size:27.861557; fill:black" transform="matrix(1.000000 -0.000000 0.000000 1.000000 384.578430 46.032139)"
	> </text>
<text x="0" y="0" style="font-family:Times; font-style:normal; font-weight:normal; font-size:27.861557; fill:black" transform="matrix(1.000000 -0.000000 0.000000 1.000000 261.666779 82.676140)"
	>s</text>
<text x="0" y="0" style="font-family:Times; font-style:normal; font-weight:normal; font-size:27.861557; fill:black" transform="matrix(1.000000 -0.000000 0.000000 1.000000 272.078125 82.676140)"
	>p</text>
<text x="0" y="0" style="font-family:Times; font-style:normal; font-weight:normal; font-size:27.861557; fill:black" transform="matrix(1.000000 -0.000000 0.000000 1.000000 285.959900 82.676140)"
	>e</text>
<text x="0" y="0" style="font-family:Times; font-style:normal; font-weight:normal; font-size:27.861557; fill:black" transform="matrix(1.000000 -0.000000 0.000000 1.000000 299.263275 82.676140)"
	>n</text>
<text x="0" y="0" style="font-family:Times; font-style:normal; font-weight:normal; font-size:27.861557; fill:black" transform="matrix(1.000000 -0.000000 0.000000 1.000000 313.145081 82.676140)"
	>d</text>
<text x="0" y="0" style="font-family:Times; font-style:normal; font-weight:normal; font-size:27.861557; fill:black" transform="matrix(1.000000 -0.000000 0.000000 1.000000 327.026855 82.676140)"
	>i</text>
<text x="0" y="0" style="font-family:Times; font-style:normal; font-weight:normal; font-size:27.861557; fill:black" transform="matrix(1.000000 -0.000000 0.000000 1.000000 333.100128 82.676140)"
	>n</text>
<text x="0" y="0" style="font-family:Times; font-style:normal; font-weight:normal; font-size:27.861557; fill:black" transform="matrix(1.000000 -0.000000 0.000000 1.000000 346.981903 82.676140)"
	>g</text>
<text x="0" y="0" style="font-family:Times; font-style:normal; font-weight:normal; font-size:27.861557; fill:black" transform="matrix(1.000000 -0.000000 0.000000 1.000000 359.417664 82.676140)"
	> </text>
<text x="0" y="0" style="font-family:Times; font-style:normal; font-weight:normal; font-size:27.861557; fill:black" transform="matrix(1.000000 -0.000000 0.000000 1.000000 365.490967 82.676140)"
	>(</text>
<text x="0" y="0" style="font-family:Times; font-style:normal; font-weight:normal; font-size:27.861557; fill:black" transform="matrix(1.000000 -0.000000 0.000000 1.000000 373.588654 82.676140)"
	>$</text>
<text x="0" y="0" style="font-family:Times; font-style:normal; font-weight:normal; font-size:27.861557; fill:black" transform="matrix(1.000000 -0.000000 0.000000 1.000000 387.181244 82.676140)"
	>)</text>
<text x="0" y="0" style="font-family:Times; font-style:normal; font-weight:normal; font-size:27.861557; fill:black" transform="matrix(1.000000 -0.000000 0.000000 1.000000 466.423065 46.032139)"
	>P</text>
<text x="0" y="0" style="font-family:Times; font-style:normal; font-weight:normal; font-size:27.861557; fill:black" transform="matrix(1.000000 -0.000000 0.000000 1.000000 480.304840 46.032139)"
	>e</text>
<text x="0" y="0" style="font-family:Times; font-style:normal; font-weight:normal; font-size:27.861557; fill:black" transform="matrix(1.000000 -0.000000 0.000000 1.000000 493.608246 46.032139)"
	>r</text>
<text x="0" y="0" style="font-family:Times; font-style:normal; font-weight:normal; font-size:27.861557; fill:black" transform="matrix(1.000000 -0.000000 0.000000 1.000000 502.862762 46.032139)"
	>c</text>
<text x="0" y="0" style="font-family:Times; font-style:normal; font-weight:normal; font-size:27.861557; fill:black" transform="matrix(1.000000 -0.000000 0.000000 1.000000 514.141724 46.032139)"
	>e</text>
<text x="0" y="0" style="font-family:Times; font-style:normal; font-weight:normal; font-size:27.861557; fill:black" transform="matrix(1.000000 -0.000000 0.000000 1.000000 527.445068 46.032139)"
	>n</text>
<text x="0" y="0" style="font-family:Times; font-style:normal; font-weight:normal; font-size:27.861557; fill:black" transform="matrix(1.000000 -0.000000 0.000000 1.000000 541.326904 46.032139)"
	>t</text>
<text x="0" y="0" style="font-family:Times; font-style:normal; font-weight:normal; font-size:27.861557; fill:black" transform="matrix(1.000000 -0.000000 0.000000 1.000000 550.292175 46.032139)"
	> </text>
<text x="0" y="0" style="font-family:Times; font-style:normal; font-weight:normal; font-size:27.861557; fill:black" transform="matrix(1.000000 -0.000000 0.000000 1.000000 459.482208 82.676140)"
	>d</text>
<text x="0" y="0" style="font-family:Times; font-style:normal; font-weight:normal; font-size:27.861557; fill:black" transform="matrix(1.000000 -0.000000 0.000000 1.000000 473.363983 82.676140)"
	>e</text>
<text x="0" y="0" style="font-family:Times; font-style:normal; font-weight:normal; font-size:27.861557; fill:black" transform="matrix(1.000000 -0.000000 0.000000 1.000000 486.667389 82.676140)"
	>c</text>
<text x="0" y="0" style="font-family:Times; font-style:normal; font-weight:normal; font-size:27.861557; fill:black" transform="matrix(1.000000 -0.000000 0.000000 1.000000 497.946350 82.676140)"
	>r</text>
<text x="0" y="0" style="font-family:Times; font-style:normal; font-weight:normal; font-size:27.861557; fill:black" transform="matrix(1.000000 -0.000000 0.000000 1.000000 507.200836 82.676140)"
	>e</text>
<text x="0" y="0" style="font-family:Times; font-style:normal; font-weight:normal; font-size:27.861557; fill:black" transform="matrix(1.000000 -0.000000 0.000000 1.000000 520.504211 82.676140)"
	>a</text>
<text x="0" y="0" style="font-family:Times; font-style:normal; font-weight:normal; font-size:27.861557; fill:black" transform="matrix(1.000000 -0.000000 0.000000 1.000000 533.229187 82.676140)"
	>s</text>
<text x="0" y="0" style="font-family:Times; font-style:normal; font-weight:normal; font-size:27.861557; fill:black" transform="matrix(1.000000 -0.000000 0.000000 1.000000 543.640503 82.676140)"
	>e</text>
<text x="0" y="0" style="font-family:Times; font-style:normal; font-weight:normal; font-size:27.861557; fill:black" transform="matrix(1.000000 -0.000000 0.000000 1.000000 624.328369 64.202721)"
	>C</text>
<text x="0" y="0" style="font-family:Times; font-style:normal; font-weight:normal; font-size:27.861557; fill:black" transform="matrix(1.000000 -0.000000 0.000000 1.000000 638.499329 64.202721)"
	>r</text>
<text x="0" y="0" style="font-family:Times; font-style:normal; font-weight:normal; font-size:27.861557; fill:black" transform="matrix(1.000000 -0.000000 0.000000 1.000000 647.753845 64.202721)"
	>o</text>
<text x="0" y="0" style="font-family:Times; font-style:normal; font-weight:normal; font-size:27.861557; fill:black" transform="matrix(1.000000 -0.000000 0.000000 1.000000 661.924866 64.202721)"
	>s</text>
<text x="0" y="0" style="font-family:Times; font-style:normal; font-weight:normal; font-size:27.861557; fill:black" transform="matrix(1.000000 -0.000000 0.000000 1.000000 672.336182 64.202721)"
	>s</text>
<text x="0" y="0" style="font-family:Times; font-style:normal; font-weight:normal; font-size:27.861557; fill:black" transform="matrix(1.000000 -0.000000 0.000000 1.000000 682.747498 64.202721)"
	>-</text>
<text x="0" y="0" style="font-family:Times; font-style:normal; font-weight:normal; font-size:27.861557; fill:black" transform="matrix(1.000000 -0.000000 0.000000 1.000000 690.845276 64.202721)"
	>y</text>
<text x="0" y="0" style="font-family:Times; font-style:normal; font-weight:normal; font-size:27.861557; fill:black" transform="matrix(1.000000 -0.000000 0.000000 1.000000 702.991760 64.202721)"
	>e</text>
<text x="0" y="0" style="font-family:Times; font-style:normal; font-weight:normal; font-size:27.861557; fill:black" transform="matrix(1.000000 -0.000000 0.000000 1.000000 716.295166 64.202721)"
	>a</text>
<text x="0" y="0" style="font-family:Times; font-style:normal; font-weight:normal; font-size:27.861557; fill:black" transform="matrix(1.000000 -0.000000 0.000000 1.000000 729.020142 64.202721)"
	>r</text>
<line x1="0.226563" y1="104.783684" x2="767.773438" y2="104.783684" 
	style="stroke-width:0.296023; stroke-linecap:round; stroke-linejoin:round; stroke-dasharray:none; stroke:black" />
</svg>
