%!PS-Adobe-2.0 EPSF-2.0
%%Title: ../figs/ptreat2.eps
%%Creator: gnuplot 4.6 patchlevel 0
%%CreationDate: Thu Aug 23 16:12:32 2012
%%DocumentFonts: (atend)
%%BoundingBox: 50 50 626 482
%%EndComments
%%BeginProlog
/gnudict 256 dict def
gnudict begin
%
% The following true/false flags may be edited by hand if desired.
% The unit line width and grayscale image gamma correction may also be changed.
%
/Color false def
/Blacktext false def
/Solid false def
/Dashlength 1 def
/Landscape false def
/Level1 false def
/Rounded false def
/ClipToBoundingBox false def
/SuppressPDFMark false def
/TransparentPatterns false def
/gnulinewidth 5.000 def
/userlinewidth gnulinewidth def
/Gamma 1.0 def
/BackgroundColor {-1.000 -1.000 -1.000} def
%
/vshift -160 def
/dl1 {
  10.0 Dashlength mul mul
  Rounded { currentlinewidth 0.75 mul sub dup 0 le { pop 0.01 } if } if
} def
/dl2 {
  10.0 Dashlength mul mul
  Rounded { currentlinewidth 0.75 mul add } if
} def
/hpt_ 31.5 def
/vpt_ 31.5 def
/hpt hpt_ def
/vpt vpt_ def
/doclip {
  ClipToBoundingBox {
    newpath 50 50 moveto 626 50 lineto 626 482 lineto 50 482 lineto closepath
    clip
  } if
} def
%
% Gnuplot Prolog Version 4.4 (August 2010)
%
%/SuppressPDFMark true def
%
/M {moveto} bind def
/L {lineto} bind def
/R {rmoveto} bind def
/V {rlineto} bind def
/N {newpath moveto} bind def
/Z {closepath} bind def
/C {setrgbcolor} bind def
/f {rlineto fill} bind def
/g {setgray} bind def
/Gshow {show} def   % May be redefined later in the file to support UTF-8
/vpt2 vpt 2 mul def
/hpt2 hpt 2 mul def
/Lshow {currentpoint stroke M 0 vshift R 
	Blacktext {gsave 0 setgray show grestore} {show} ifelse} def
/Rshow {currentpoint stroke M dup stringwidth pop neg vshift R
	Blacktext {gsave 0 setgray show grestore} {show} ifelse} def
/Cshow {currentpoint stroke M dup stringwidth pop -2 div vshift R 
	Blacktext {gsave 0 setgray show grestore} {show} ifelse} def
/UP {dup vpt_ mul /vpt exch def hpt_ mul /hpt exch def
  /hpt2 hpt 2 mul def /vpt2 vpt 2 mul def} def
/DL {Color {setrgbcolor Solid {pop []} if 0 setdash}
 {pop pop pop 0 setgray Solid {pop []} if 0 setdash} ifelse} def
/BL {stroke userlinewidth 2 mul setlinewidth
	Rounded {1 setlinejoin 1 setlinecap} if} def
/AL {stroke userlinewidth 2 div setlinewidth
	Rounded {1 setlinejoin 1 setlinecap} if} def
/UL {dup gnulinewidth mul /userlinewidth exch def
	dup 1 lt {pop 1} if 10 mul /udl exch def} def
/PL {stroke userlinewidth setlinewidth
	Rounded {1 setlinejoin 1 setlinecap} if} def
3.8 setmiterlimit
% Default Line colors
/LCw {1 1 1} def
/LCb {0 0 0} def
/LCa {0 0 0} def
/LC0 {1 0 0} def
/LC1 {0 1 0} def
/LC2 {0 0 1} def
/LC3 {1 0 1} def
/LC4 {0 1 1} def
/LC5 {1 1 0} def
/LC6 {0 0 0} def
/LC7 {1 0.3 0} def
/LC8 {0.5 0.5 0.5} def
% Default Line Types
/LTw {PL [] 1 setgray} def
/LTb {BL [] LCb DL} def
/LTa {AL [1 udl mul 2 udl mul] 0 setdash LCa setrgbcolor} def
/LT0 {PL [] LC0 DL} def
/LT1 {PL [4 dl1 2 dl2] LC1 DL} def
/LT2 {PL [2 dl1 3 dl2] LC2 DL} def
/LT3 {PL [1 dl1 1.5 dl2] LC3 DL} def
/LT4 {PL [6 dl1 2 dl2 1 dl1 2 dl2] LC4 DL} def
/LT5 {PL [3 dl1 3 dl2 1 dl1 3 dl2] LC5 DL} def
/LT6 {PL [2 dl1 2 dl2 2 dl1 6 dl2] LC6 DL} def
/LT7 {PL [1 dl1 2 dl2 6 dl1 2 dl2 1 dl1 2 dl2] LC7 DL} def
/LT8 {PL [2 dl1 2 dl2 2 dl1 2 dl2 2 dl1 2 dl2 2 dl1 4 dl2] LC8 DL} def
/Pnt {stroke [] 0 setdash gsave 1 setlinecap M 0 0 V stroke grestore} def
/Dia {stroke [] 0 setdash 2 copy vpt add M
  hpt neg vpt neg V hpt vpt neg V
  hpt vpt V hpt neg vpt V closepath stroke
  Pnt} def
/Pls {stroke [] 0 setdash vpt sub M 0 vpt2 V
  currentpoint stroke M
  hpt neg vpt neg R hpt2 0 V stroke
 } def
/Box {stroke [] 0 setdash 2 copy exch hpt sub exch vpt add M
  0 vpt2 neg V hpt2 0 V 0 vpt2 V
  hpt2 neg 0 V closepath stroke
  Pnt} def
/Crs {stroke [] 0 setdash exch hpt sub exch vpt add M
  hpt2 vpt2 neg V currentpoint stroke M
  hpt2 neg 0 R hpt2 vpt2 V stroke} def
/TriU {stroke [] 0 setdash 2 copy vpt 1.12 mul add M
  hpt neg vpt -1.62 mul V
  hpt 2 mul 0 V
  hpt neg vpt 1.62 mul V closepath stroke
  Pnt} def
/Star {2 copy Pls Crs} def
/BoxF {stroke [] 0 setdash exch hpt sub exch vpt add M
  0 vpt2 neg V hpt2 0 V 0 vpt2 V
  hpt2 neg 0 V closepath fill} def
/TriUF {stroke [] 0 setdash vpt 1.12 mul add M
  hpt neg vpt -1.62 mul V
  hpt 2 mul 0 V
  hpt neg vpt 1.62 mul V closepath fill} def
/TriD {stroke [] 0 setdash 2 copy vpt 1.12 mul sub M
  hpt neg vpt 1.62 mul V
  hpt 2 mul 0 V
  hpt neg vpt -1.62 mul V closepath stroke
  Pnt} def
/TriDF {stroke [] 0 setdash vpt 1.12 mul sub M
  hpt neg vpt 1.62 mul V
  hpt 2 mul 0 V
  hpt neg vpt -1.62 mul V closepath fill} def
/DiaF {stroke [] 0 setdash vpt add M
  hpt neg vpt neg V hpt vpt neg V
  hpt vpt V hpt neg vpt V closepath fill} def
/Pent {stroke [] 0 setdash 2 copy gsave
  translate 0 hpt M 4 {72 rotate 0 hpt L} repeat
  closepath stroke grestore Pnt} def
/PentF {stroke [] 0 setdash gsave
  translate 0 hpt M 4 {72 rotate 0 hpt L} repeat
  closepath fill grestore} def
/Circle {stroke [] 0 setdash 2 copy
  hpt 0 360 arc stroke Pnt} def
/CircleF {stroke [] 0 setdash hpt 0 360 arc fill} def
/C0 {BL [] 0 setdash 2 copy moveto vpt 90 450 arc} bind def
/C1 {BL [] 0 setdash 2 copy moveto
	2 copy vpt 0 90 arc closepath fill
	vpt 0 360 arc closepath} bind def
/C2 {BL [] 0 setdash 2 copy moveto
	2 copy vpt 90 180 arc closepath fill
	vpt 0 360 arc closepath} bind def
/C3 {BL [] 0 setdash 2 copy moveto
	2 copy vpt 0 180 arc closepath fill
	vpt 0 360 arc closepath} bind def
/C4 {BL [] 0 setdash 2 copy moveto
	2 copy vpt 180 270 arc closepath fill
	vpt 0 360 arc closepath} bind def
/C5 {BL [] 0 setdash 2 copy moveto
	2 copy vpt 0 90 arc
	2 copy moveto
	2 copy vpt 180 270 arc closepath fill
	vpt 0 360 arc} bind def
/C6 {BL [] 0 setdash 2 copy moveto
	2 copy vpt 90 270 arc closepath fill
	vpt 0 360 arc closepath} bind def
/C7 {BL [] 0 setdash 2 copy moveto
	2 copy vpt 0 270 arc closepath fill
	vpt 0 360 arc closepath} bind def
/C8 {BL [] 0 setdash 2 copy moveto
	2 copy vpt 270 360 arc closepath fill
	vpt 0 360 arc closepath} bind def
/C9 {BL [] 0 setdash 2 copy moveto
	2 copy vpt 270 450 arc closepath fill
	vpt 0 360 arc closepath} bind def
/C10 {BL [] 0 setdash 2 copy 2 copy moveto vpt 270 360 arc closepath fill
	2 copy moveto
	2 copy vpt 90 180 arc closepath fill
	vpt 0 360 arc closepath} bind def
/C11 {BL [] 0 setdash 2 copy moveto
	2 copy vpt 0 180 arc closepath fill
	2 copy moveto
	2 copy vpt 270 360 arc closepath fill
	vpt 0 360 arc closepath} bind def
/C12 {BL [] 0 setdash 2 copy moveto
	2 copy vpt 180 360 arc closepath fill
	vpt 0 360 arc closepath} bind def
/C13 {BL [] 0 setdash 2 copy moveto
	2 copy vpt 0 90 arc closepath fill
	2 copy moveto
	2 copy vpt 180 360 arc closepath fill
	vpt 0 360 arc closepath} bind def
/C14 {BL [] 0 setdash 2 copy moveto
	2 copy vpt 90 360 arc closepath fill
	vpt 0 360 arc} bind def
/C15 {BL [] 0 setdash 2 copy vpt 0 360 arc closepath fill
	vpt 0 360 arc closepath} bind def
/Rec {newpath 4 2 roll moveto 1 index 0 rlineto 0 exch rlineto
	neg 0 rlineto closepath} bind def
/Square {dup Rec} bind def
/Bsquare {vpt sub exch vpt sub exch vpt2 Square} bind def
/S0 {BL [] 0 setdash 2 copy moveto 0 vpt rlineto BL Bsquare} bind def
/S1 {BL [] 0 setdash 2 copy vpt Square fill Bsquare} bind def
/S2 {BL [] 0 setdash 2 copy exch vpt sub exch vpt Square fill Bsquare} bind def
/S3 {BL [] 0 setdash 2 copy exch vpt sub exch vpt2 vpt Rec fill Bsquare} bind def
/S4 {BL [] 0 setdash 2 copy exch vpt sub exch vpt sub vpt Square fill Bsquare} bind def
/S5 {BL [] 0 setdash 2 copy 2 copy vpt Square fill
	exch vpt sub exch vpt sub vpt Square fill Bsquare} bind def
/S6 {BL [] 0 setdash 2 copy exch vpt sub exch vpt sub vpt vpt2 Rec fill Bsquare} bind def
/S7 {BL [] 0 setdash 2 copy exch vpt sub exch vpt sub vpt vpt2 Rec fill
	2 copy vpt Square fill Bsquare} bind def
/S8 {BL [] 0 setdash 2 copy vpt sub vpt Square fill Bsquare} bind def
/S9 {BL [] 0 setdash 2 copy vpt sub vpt vpt2 Rec fill Bsquare} bind def
/S10 {BL [] 0 setdash 2 copy vpt sub vpt Square fill 2 copy exch vpt sub exch vpt Square fill
	Bsquare} bind def
/S11 {BL [] 0 setdash 2 copy vpt sub vpt Square fill 2 copy exch vpt sub exch vpt2 vpt Rec fill
	Bsquare} bind def
/S12 {BL [] 0 setdash 2 copy exch vpt sub exch vpt sub vpt2 vpt Rec fill Bsquare} bind def
/S13 {BL [] 0 setdash 2 copy exch vpt sub exch vpt sub vpt2 vpt Rec fill
	2 copy vpt Square fill Bsquare} bind def
/S14 {BL [] 0 setdash 2 copy exch vpt sub exch vpt sub vpt2 vpt Rec fill
	2 copy exch vpt sub exch vpt Square fill Bsquare} bind def
/S15 {BL [] 0 setdash 2 copy Bsquare fill Bsquare} bind def
/D0 {gsave translate 45 rotate 0 0 S0 stroke grestore} bind def
/D1 {gsave translate 45 rotate 0 0 S1 stroke grestore} bind def
/D2 {gsave translate 45 rotate 0 0 S2 stroke grestore} bind def
/D3 {gsave translate 45 rotate 0 0 S3 stroke grestore} bind def
/D4 {gsave translate 45 rotate 0 0 S4 stroke grestore} bind def
/D5 {gsave translate 45 rotate 0 0 S5 stroke grestore} bind def
/D6 {gsave translate 45 rotate 0 0 S6 stroke grestore} bind def
/D7 {gsave translate 45 rotate 0 0 S7 stroke grestore} bind def
/D8 {gsave translate 45 rotate 0 0 S8 stroke grestore} bind def
/D9 {gsave translate 45 rotate 0 0 S9 stroke grestore} bind def
/D10 {gsave translate 45 rotate 0 0 S10 stroke grestore} bind def
/D11 {gsave translate 45 rotate 0 0 S11 stroke grestore} bind def
/D12 {gsave translate 45 rotate 0 0 S12 stroke grestore} bind def
/D13 {gsave translate 45 rotate 0 0 S13 stroke grestore} bind def
/D14 {gsave translate 45 rotate 0 0 S14 stroke grestore} bind def
/D15 {gsave translate 45 rotate 0 0 S15 stroke grestore} bind def
/DiaE {stroke [] 0 setdash vpt add M
  hpt neg vpt neg V hpt vpt neg V
  hpt vpt V hpt neg vpt V closepath stroke} def
/BoxE {stroke [] 0 setdash exch hpt sub exch vpt add M
  0 vpt2 neg V hpt2 0 V 0 vpt2 V
  hpt2 neg 0 V closepath stroke} def
/TriUE {stroke [] 0 setdash vpt 1.12 mul add M
  hpt neg vpt -1.62 mul V
  hpt 2 mul 0 V
  hpt neg vpt 1.62 mul V closepath stroke} def
/TriDE {stroke [] 0 setdash vpt 1.12 mul sub M
  hpt neg vpt 1.62 mul V
  hpt 2 mul 0 V
  hpt neg vpt -1.62 mul V closepath stroke} def
/PentE {stroke [] 0 setdash gsave
  translate 0 hpt M 4 {72 rotate 0 hpt L} repeat
  closepath stroke grestore} def
/CircE {stroke [] 0 setdash 
  hpt 0 360 arc stroke} def
/Opaque {gsave closepath 1 setgray fill grestore 0 setgray closepath} def
/DiaW {stroke [] 0 setdash vpt add M
  hpt neg vpt neg V hpt vpt neg V
  hpt vpt V hpt neg vpt V Opaque stroke} def
/BoxW {stroke [] 0 setdash exch hpt sub exch vpt add M
  0 vpt2 neg V hpt2 0 V 0 vpt2 V
  hpt2 neg 0 V Opaque stroke} def
/TriUW {stroke [] 0 setdash vpt 1.12 mul add M
  hpt neg vpt -1.62 mul V
  hpt 2 mul 0 V
  hpt neg vpt 1.62 mul V Opaque stroke} def
/TriDW {stroke [] 0 setdash vpt 1.12 mul sub M
  hpt neg vpt 1.62 mul V
  hpt 2 mul 0 V
  hpt neg vpt -1.62 mul V Opaque stroke} def
/PentW {stroke [] 0 setdash gsave
  translate 0 hpt M 4 {72 rotate 0 hpt L} repeat
  Opaque stroke grestore} def
/CircW {stroke [] 0 setdash 
  hpt 0 360 arc Opaque stroke} def
/BoxFill {gsave Rec 1 setgray fill grestore} def
/Density {
  /Fillden exch def
  currentrgbcolor
  /ColB exch def /ColG exch def /ColR exch def
  /ColR ColR Fillden mul Fillden sub 1 add def
  /ColG ColG Fillden mul Fillden sub 1 add def
  /ColB ColB Fillden mul Fillden sub 1 add def
  ColR ColG ColB setrgbcolor} def
/BoxColFill {gsave Rec PolyFill} def
/PolyFill {gsave Density fill grestore grestore} def
/h {rlineto rlineto rlineto gsave closepath fill grestore} bind def
%
% PostScript Level 1 Pattern Fill routine for rectangles
% Usage: x y w h s a XX PatternFill
%	x,y = lower left corner of box to be filled
%	w,h = width and height of box
%	  a = angle in degrees between lines and x-axis
%	 XX = 0/1 for no/yes cross-hatch
%
/PatternFill {gsave /PFa [ 9 2 roll ] def
  PFa 0 get PFa 2 get 2 div add PFa 1 get PFa 3 get 2 div add translate
  PFa 2 get -2 div PFa 3 get -2 div PFa 2 get PFa 3 get Rec
  gsave 1 setgray fill grestore clip
  currentlinewidth 0.5 mul setlinewidth
  /PFs PFa 2 get dup mul PFa 3 get dup mul add sqrt def
  0 0 M PFa 5 get rotate PFs -2 div dup translate
  0 1 PFs PFa 4 get div 1 add floor cvi
	{PFa 4 get mul 0 M 0 PFs V} for
  0 PFa 6 get ne {
	0 1 PFs PFa 4 get div 1 add floor cvi
	{PFa 4 get mul 0 2 1 roll M PFs 0 V} for
 } if
  stroke grestore} def
%
/languagelevel where
 {pop languagelevel} {1} ifelse
 2 lt
	{/InterpretLevel1 true def}
	{/InterpretLevel1 Level1 def}
 ifelse
%
% PostScript level 2 pattern fill definitions
%
/Level2PatternFill {
/Tile8x8 {/PaintType 2 /PatternType 1 /TilingType 1 /BBox [0 0 8 8] /XStep 8 /YStep 8}
	bind def
/KeepColor {currentrgbcolor [/Pattern /DeviceRGB] setcolorspace} bind def
<< Tile8x8
 /PaintProc {0.5 setlinewidth pop 0 0 M 8 8 L 0 8 M 8 0 L stroke} 
>> matrix makepattern
/Pat1 exch def
<< Tile8x8
 /PaintProc {0.5 setlinewidth pop 0 0 M 8 8 L 0 8 M 8 0 L stroke
	0 4 M 4 8 L 8 4 L 4 0 L 0 4 L stroke}
>> matrix makepattern
/Pat2 exch def
<< Tile8x8
 /PaintProc {0.5 setlinewidth pop 0 0 M 0 8 L
	8 8 L 8 0 L 0 0 L fill}
>> matrix makepattern
/Pat3 exch def
<< Tile8x8
 /PaintProc {0.5 setlinewidth pop -4 8 M 8 -4 L
	0 12 M 12 0 L stroke}
>> matrix makepattern
/Pat4 exch def
<< Tile8x8
 /PaintProc {0.5 setlinewidth pop -4 0 M 8 12 L
	0 -4 M 12 8 L stroke}
>> matrix makepattern
/Pat5 exch def
<< Tile8x8
 /PaintProc {0.5 setlinewidth pop -2 8 M 4 -4 L
	0 12 M 8 -4 L 4 12 M 10 0 L stroke}
>> matrix makepattern
/Pat6 exch def
<< Tile8x8
 /PaintProc {0.5 setlinewidth pop -2 0 M 4 12 L
	0 -4 M 8 12 L 4 -4 M 10 8 L stroke}
>> matrix makepattern
/Pat7 exch def
<< Tile8x8
 /PaintProc {0.5 setlinewidth pop 8 -2 M -4 4 L
	12 0 M -4 8 L 12 4 M 0 10 L stroke}
>> matrix makepattern
/Pat8 exch def
<< Tile8x8
 /PaintProc {0.5 setlinewidth pop 0 -2 M 12 4 L
	-4 0 M 12 8 L -4 4 M 8 10 L stroke}
>> matrix makepattern
/Pat9 exch def
/Pattern1 {PatternBgnd KeepColor Pat1 setpattern} bind def
/Pattern2 {PatternBgnd KeepColor Pat2 setpattern} bind def
/Pattern3 {PatternBgnd KeepColor Pat3 setpattern} bind def
/Pattern4 {PatternBgnd KeepColor Landscape {Pat5} {Pat4} ifelse setpattern} bind def
/Pattern5 {PatternBgnd KeepColor Landscape {Pat4} {Pat5} ifelse setpattern} bind def
/Pattern6 {PatternBgnd KeepColor Landscape {Pat9} {Pat6} ifelse setpattern} bind def
/Pattern7 {PatternBgnd KeepColor Landscape {Pat8} {Pat7} ifelse setpattern} bind def
} def
%
%
%End of PostScript Level 2 code
%
/PatternBgnd {
  TransparentPatterns {} {gsave 1 setgray fill grestore} ifelse
} def
%
% Substitute for Level 2 pattern fill codes with
% grayscale if Level 2 support is not selected.
%
/Level1PatternFill {
/Pattern1 {0.250 Density} bind def
/Pattern2 {0.500 Density} bind def
/Pattern3 {0.750 Density} bind def
/Pattern4 {0.125 Density} bind def
/Pattern5 {0.375 Density} bind def
/Pattern6 {0.625 Density} bind def
/Pattern7 {0.875 Density} bind def
} def
%
% Now test for support of Level 2 code
%
Level1 {Level1PatternFill} {Level2PatternFill} ifelse
%
/Symbol-Oblique /Symbol findfont [1 0 .167 1 0 0] makefont
dup length dict begin {1 index /FID eq {pop pop} {def} ifelse} forall
currentdict end definefont pop
/MFshow {
   { dup 5 get 3 ge
     { 5 get 3 eq {gsave} {grestore} ifelse }
     {dup dup 0 get findfont exch 1 get scalefont setfont
     [ currentpoint ] exch dup 2 get 0 exch R dup 5 get 2 ne {dup dup 6
     get exch 4 get {Gshow} {stringwidth pop 0 R} ifelse }if dup 5 get 0 eq
     {dup 3 get {2 get neg 0 exch R pop} {pop aload pop M} ifelse} {dup 5
     get 1 eq {dup 2 get exch dup 3 get exch 6 get stringwidth pop -2 div
     dup 0 R} {dup 6 get stringwidth pop -2 div 0 R 6 get
     show 2 index {aload pop M neg 3 -1 roll neg R pop pop} {pop pop pop
     pop aload pop M} ifelse }ifelse }ifelse }
     ifelse }
   forall} def
/Gswidth {dup type /stringtype eq {stringwidth} {pop (n) stringwidth} ifelse} def
/MFwidth {0 exch { dup 5 get 3 ge { 5 get 3 eq { 0 } { pop } ifelse }
 {dup 3 get{dup dup 0 get findfont exch 1 get scalefont setfont
     6 get Gswidth pop add} {pop} ifelse} ifelse} forall} def
/MLshow { currentpoint stroke M
  0 exch R
  Blacktext {gsave 0 setgray MFshow grestore} {MFshow} ifelse } bind def
/MRshow { currentpoint stroke M
  exch dup MFwidth neg 3 -1 roll R
  Blacktext {gsave 0 setgray MFshow grestore} {MFshow} ifelse } bind def
/MCshow { currentpoint stroke M
  exch dup MFwidth -2 div 3 -1 roll R
  Blacktext {gsave 0 setgray MFshow grestore} {MFshow} ifelse } bind def
/XYsave    { [( ) 1 2 true false 3 ()] } bind def
/XYrestore { [( ) 1 2 true false 4 ()] } bind def
Level1 SuppressPDFMark or 
{} {
/SDict 10 dict def
systemdict /pdfmark known not {
  userdict /pdfmark systemdict /cleartomark get put
} if
SDict begin [
  /Title (../figs/ptreat2.eps)
  /Subject (gnuplot plot)
  /Creator (gnuplot 4.6 patchlevel 0)
  /Author (paul)
%  /Producer (gnuplot)
%  /Keywords ()
  /CreationDate (Thu Aug 23 16:12:32 2012)
  /DOCINFO pdfmark
end
} ifelse
end
%%EndProlog
%%Page: 1 1
gnudict begin
gsave
doclip
50 50 translate
0.050 0.050 scale
0 setgray
newpath
(Helvetica) findfont 480 scalefont setfont
BackgroundColor 0 lt 3 1 roll 0 lt exch 0 lt or or not {BackgroundColor C 1.000 0 0 11520.00 8640.00 BoxColFill} if
gsave % colour palette begin
/maxcolors 64 def
/HSV2RGB {  exch dup 0.0 eq {pop exch pop dup dup} % achromatic gray
  { /HSVs exch def /HSVv exch def 6.0 mul dup floor dup 3 1 roll sub
     /HSVf exch def /HSVi exch cvi def /HSVp HSVv 1.0 HSVs sub mul def
	 /HSVq HSVv 1.0 HSVs HSVf mul sub mul def 
	 /HSVt HSVv 1.0 HSVs 1.0 HSVf sub mul sub mul def
	 /HSVi HSVi 6 mod def 0 HSVi eq {HSVv HSVt HSVp}
	 {1 HSVi eq {HSVq HSVv HSVp}{2 HSVi eq {HSVp HSVv HSVt}
	 {3 HSVi eq {HSVp HSVq HSVv}{4 HSVi eq {HSVt HSVp HSVv}
	 {HSVv HSVp HSVq} ifelse} ifelse} ifelse} ifelse} ifelse
  } ifelse} def
/Constrain {
  dup 0 lt {0 exch pop}{dup 1 gt {1 exch pop} if} ifelse} def
/YIQ2RGB {
  3 copy -1.702 mul exch -1.105 mul add add Constrain 4 1 roll
  3 copy -0.647 mul exch -0.272 mul add add Constrain 5 1 roll
  0.621 mul exch -0.956 mul add add Constrain 3 1 roll } def
/CMY2RGB {  1 exch sub exch 1 exch sub 3 2 roll 1 exch sub 3 1 roll exch } def
/XYZ2RGB {  3 copy -0.9017 mul exch -0.1187 mul add exch 0.0585 mul exch add
  Constrain 4 1 roll 3 copy -0.0279 mul exch 1.999 mul add exch
  -0.9844 mul add Constrain 5 1 roll -0.2891 mul exch -0.5338 mul add
  exch 1.91 mul exch add Constrain 3 1 roll} def
/SelectSpace {ColorSpace (HSV) eq {HSV2RGB}{ColorSpace (XYZ) eq {
  XYZ2RGB}{ColorSpace (CMY) eq {CMY2RGB}{ColorSpace (YIQ) eq {YIQ2RGB}
  if} ifelse} ifelse} ifelse} def
/InterpolatedColor true def
/grayindex {/gidx 0 def
  {GrayA gidx get grayv ge {exit} if /gidx gidx 1 add def} loop} def
/dgdx {grayv GrayA gidx get sub GrayA gidx 1 sub get
  GrayA gidx get sub div} def 
/redvalue {RedA gidx get RedA gidx 1 sub get
  RedA gidx get sub dgdxval mul add} def
/greenvalue {GreenA gidx get GreenA gidx 1 sub get
  GreenA gidx get sub dgdxval mul add} def
/bluevalue {BlueA gidx get BlueA gidx 1 sub get
  BlueA gidx get sub dgdxval mul add} def
/interpolate {
  grayindex grayv GrayA gidx get sub abs 1e-5 le
    {RedA gidx get GreenA gidx get BlueA gidx get}
    {/dgdxval dgdx def redvalue greenvalue bluevalue} ifelse} def
/GrayA [0 .0159 .0317 .0476 .0635 .0794 .0952 .1111 .127 .1429 .1587 .1746 
  .1905 .2063 .2222 .2381 .254 .2698 .2857 .3016 .3175 .3333 .3492 .3651 
  .381 .3968 .4127 .4286 .4444 .4603 .4762 .4921 .5079 .5238 .5397 .5556 
  .5714 .5873 .6032 .619 .6349 .6508 .6667 .6825 .6984 .7143 .7302 .746 
  .7619 .7778 .7937 .8095 .8254 .8413 .8571 .873 .8889 .9048 .9206 .9365 
  .9524 .9683 .9841 1 ] def
/RedA [0 0 0 0 0 0 0 0 0 0 0 0 0 0 0 0 0 0 0 0 0 0 0 0 .0238 .0873 .1508 
  .2143 .2778 .3413 .4048 .4683 .5317 .5952 .6587 .7222 .7857 .8492 .9127 
  .9762 1 1 1 1 1 1 1 1 1 1 1 1 1 1 1 1 .9444 .881 .8175 .754 .6905 .627 
  .5635 .5 ] def
/GreenA [0 0 0 0 0 0 0 0 .0079 .0714 .1349 .1984 .2619 .3254 .3889 .4524 
  .5159 .5794 .6429 .7063 .7698 .8333 .8968 .9603 1 1 1 1 1 1 1 1 1 1 1 1 1 
  1 1 1 .9603 .8968 .8333 .7698 .7063 .6429 .5794 .5159 .4524 .3889 .3254 
  .2619 .1984 .1349 .0714 .0079 0 0 0 0 0 0 0 0 ] def
/BlueA [.5 .5635 .627 .6905 .754 .8175 .881 .9444 1 1 1 1 1 1 1 1 1 1 1 1 1 
  1 1 1 .9762 .9127 .8492 .7857 .7222 .6587 .5952 .5317 .4683 .4048 .3413 
  .2778 .2143 .1508 .0873 .0238 0 0 0 0 0 0 0 0 0 0 0 0 0 0 0 0 0 0 0 0 0 0 
  0 0 ] def
/pm3dround {maxcolors 0 gt {dup 1 ge
	{pop 1} {maxcolors mul floor maxcolors 1 sub div} ifelse} if} def
/pm3dGamma 1.0 1.5 Gamma mul div def
/ColorSpace (RGB) def
Color InterpolatedColor or { % COLOUR vs. GRAY map
  InterpolatedColor { %% Interpolation vs. RGB-Formula
    /g {stroke pm3dround /grayv exch def interpolate
        SelectSpace setrgbcolor} bind def
  }{
  /g {stroke pm3dround dup cF7 Constrain exch dup cF5 Constrain exch cF15 Constrain 
       SelectSpace setrgbcolor} bind def
  } ifelse
}{
  /g {stroke pm3dround pm3dGamma exp setgray} bind def
} ifelse
0.500 UL
LTb
2352 1536 M
88 0 V
8215 0 R
-88 0 V
stroke
0.00 0.00 0.00 C 2064 1536 M
[ [(URWPalladioL-Roma) 480.0 0.0 true true 0 (0.4)]
] -160.0 MRshow
0.500 UL
LTb
2352 2352 M
88 0 V
8215 0 R
-88 0 V
stroke
0.00 0.00 0.00 C 2064 2352 M
[ [(URWPalladioL-Roma) 480.0 0.0 true true 0 (0.45)]
] -160.0 MRshow
0.500 UL
LTb
2352 3168 M
88 0 V
8215 0 R
-88 0 V
stroke
0.00 0.00 0.00 C 2064 3168 M
[ [(URWPalladioL-Roma) 480.0 0.0 true true 0 (0.5)]
] -160.0 MRshow
0.500 UL
LTb
2352 3984 M
88 0 V
8215 0 R
-88 0 V
stroke
0.00 0.00 0.00 C 2064 3984 M
[ [(URWPalladioL-Roma) 480.0 0.0 true true 0 (0.55)]
] -160.0 MRshow
0.500 UL
LTb
2352 4800 M
88 0 V
8215 0 R
-88 0 V
stroke
0.00 0.00 0.00 C 2064 4800 M
[ [(URWPalladioL-Roma) 480.0 0.0 true true 0 (0.6)]
] -160.0 MRshow
0.500 UL
LTb
2352 5615 M
88 0 V
8215 0 R
-88 0 V
stroke
0.00 0.00 0.00 C 2064 5615 M
[ [(URWPalladioL-Roma) 480.0 0.0 true true 0 (0.65)]
] -160.0 MRshow
0.500 UL
LTb
2352 6431 M
88 0 V
8215 0 R
-88 0 V
stroke
0.00 0.00 0.00 C 2064 6431 M
[ [(URWPalladioL-Roma) 480.0 0.0 true true 0 (0.7)]
] -160.0 MRshow
0.500 UL
LTb
2352 7247 M
88 0 V
8215 0 R
-88 0 V
stroke
0.00 0.00 0.00 C 2064 7247 M
[ [(URWPalladioL-Roma) 480.0 0.0 true true 0 (0.75)]
] -160.0 MRshow
0.500 UL
LTb
2352 8063 M
88 0 V
8215 0 R
-88 0 V
stroke
0.00 0.00 0.00 C 2064 8063 M
[ [(URWPalladioL-Roma) 480.0 0.0 true true 0 (0.8)]
] -160.0 MRshow
0.500 UL
LTb
2352 1536 M
0 88 V
0 6439 R
0 -88 V
stroke
0.00 0.00 0.00 C 2352 1056 M
[ [(URWPalladioL-Roma) 480.0 0.0 true true 0 (0)]
] -160.0 MCshow
0.500 UL
LTb
3736 1536 M
0 88 V
0 6439 R
0 -88 V
stroke
0.00 0.00 0.00 C 3736 1056 M
[ [(URWPalladioL-Roma) 480.0 0.0 true true 0 (2000)]
] -160.0 MCshow
0.500 UL
LTb
5120 1536 M
0 88 V
0 6439 R
0 -88 V
stroke
0.00 0.00 0.00 C 5120 1056 M
[ [(URWPalladioL-Roma) 480.0 0.0 true true 0 (4000)]
] -160.0 MCshow
0.500 UL
LTb
6504 1536 M
0 88 V
0 6439 R
0 -88 V
stroke
0.00 0.00 0.00 C 6504 1056 M
[ [(URWPalladioL-Roma) 480.0 0.0 true true 0 (6000)]
] -160.0 MCshow
0.500 UL
LTb
7887 1536 M
0 88 V
0 6439 R
0 -88 V
stroke
0.00 0.00 0.00 C 7887 1056 M
[ [(URWPalladioL-Roma) 480.0 0.0 true true 0 (8000)]
] -160.0 MCshow
0.500 UL
LTb
9271 1536 M
0 88 V
0 6439 R
0 -88 V
stroke
0.00 0.00 0.00 C 9271 1056 M
[ [(URWPalladioL-Roma) 480.0 0.0 true true 0 (10000)]
] -160.0 MCshow
0.500 UL
LTb
10655 1536 M
0 88 V
0 6439 R
0 -88 V
stroke
0.00 0.00 0.00 C 10655 1056 M
[ [(URWPalladioL-Roma) 480.0 0.0 true true 0 (12000)]
] -160.0 MCshow
0.500 UL
LTb
0.500 UL
LTb
2352 8063 N
0 -6527 V
8303 0 V
0 6527 V
-8303 0 V
Z stroke
0.00 0.00 0.00 C 384 4799 M
currentpoint gsave translate 90 rotate 0 0 moveto
[ [(URWPalladioL-Roma) 480.0 0.0 true true 0 (P\(treat\))]
] -160.0 MCshow
grestore
LTb
0.00 0.00 0.00 C 6503 336 M
[ [(URWPalladioL-Roma) 480.0 0.0 true true 0 (Cumulative spending \(x\))]
] -160.0 MCshow
LTb
1.000 UP
0.500 UL
LTb
% Begin plot #1
1.333 UP
8.000 UL
LT0
0.00 0.00 1.00 C 8307 7254 CircleF
8085 7345 CircleF
3214 5222 CircleF
4186 2481 CircleF
6888 7276 CircleF
8662 7183 CircleF
3428 5123 CircleF
5932 2468 CircleF
3228 5265 CircleF
5106 2399 CircleF
9266 7201 CircleF
7422 7118 CircleF
6189 7451 CircleF
4357 2409 CircleF
8991 7100 CircleF
4606 2182 CircleF
4281 2412 CircleF
3935 4718 CircleF
4333 2174 CircleF
8077 7301 CircleF
5356 2327 CircleF
7016 7270 CircleF
2607 5310 CircleF
7656 7306 CircleF
7417 7278 CircleF
8240 7322 CircleF
2622 5178 CircleF
5344 2368 CircleF
8795 7303 CircleF
7584 7218 CircleF
4424 2203 CircleF
2433 2654 CircleF
6311 7544 CircleF
6438 7332 CircleF
5311 2309 CircleF
8465 7245 CircleF
2365 2487 CircleF
5839 2380 CircleF
3633 5098 CircleF
9689 7064 CircleF
7653 7216 CircleF
7539 7139 CircleF
5012 2177 CircleF
4973 2381 CircleF
8089 7294 CircleF
9685 7001 CircleF
6350 7479 CircleF
4328 2182 CircleF
6269 7560 CircleF
8648 7281 CircleF
3963 4607 CircleF
9803 6888 CircleF
3421 5158 CircleF
9055 7175 CircleF
8496 7245 CircleF
5084 2389 CircleF
3730 5046 CircleF
9610 7208 CircleF
5431 2096 CircleF
5550 2509 CircleF
3352 5224 CircleF
7087 7198 CircleF
3402 5087 CircleF
9123 7211 CircleF
3622 5222 CircleF
7054 7260 CircleF
7493 7210 CircleF
9674 7200 CircleF
7790 7335 CircleF
8295 7392 CircleF
5938 2530 CircleF
7474 7128 CircleF
6529 7360 CircleF
3591 5008 CircleF
7561 7167 CircleF
5338 2476 CircleF
4733 2313 CircleF
2459 2623 CircleF
8504 7438 CircleF
5470 2292 CircleF
9449 7324 CircleF
2764 5265 CircleF
6241 7511 CircleF
7080 7254 CircleF
3298 5049 CircleF
3717 5113 CircleF
6623 7392 CircleF
7863 7244 CircleF
6513 7373 CircleF
3487 5299 CircleF
5238 2437 CircleF
9165 7208 CircleF
9334 7314 CircleF
5876 2402 CircleF
5799 2417 CircleF
9266 7370 CircleF
7212 7255 CircleF
2941 5116 CircleF
3054 5168 CircleF
9068 7280 CircleF
8196 7294 CircleF
3678 5065 CircleF
5637 2429 CircleF
7581 7286 CircleF
2999 5067 CircleF
3151 5229 CircleF
9078 7376 CircleF
9506 7237 CircleF
8460 7224 CircleF
5909 2492 CircleF
9389 7304 CircleF
4457 2257 CircleF
4395 2308 CircleF
4647 2314 CircleF
5466 2269 CircleF
9262 7187 CircleF
2972 5134 CircleF
5953 2376 CircleF
9832 6921 CircleF
3637 5214 CircleF
5843 2350 CircleF
6508 7335 CircleF
3271 5126 CircleF
9850 6820 CircleF
3745 4927 CircleF
8877 7257 CircleF
5934 2523 CircleF
5701 2355 CircleF
7957 7311 CircleF
4344 2164 CircleF
8813 7156 CircleF
8247 7278 CircleF
6379 7573 CircleF
6798 7226 CircleF
9056 7201 CircleF
5144 2360 CircleF
8618 7294 CircleF
4789 2332 CircleF
5295 2362 CircleF
2799 5167 CircleF
7525 7169 CircleF
5338 2225 CircleF
7633 7099 CircleF
8985 7166 CircleF
3940 4773 CircleF
9782 6815 CircleF
4725 2115 CircleF
5607 2371 CircleF
3517 5056 CircleF
4389 2278 CircleF
3915 4742 CircleF
9146 7228 CircleF
4852 2156 CircleF
7448 7216 CircleF
9415 7307 CircleF
3749 5010 CircleF
9493 7211 CircleF
5435 2424 CircleF
6655 7317 CircleF
7433 7123 CircleF
6408 7525 CircleF
6619 7307 CircleF
3074 5110 CircleF
8065 7151 CircleF
6770 7239 CircleF
5451 2274 CircleF
9376 7211 CircleF
8107 7322 CircleF
6810 7180 CircleF
5050 2208 CircleF
4419 2298 CircleF
8025 7175 CircleF
8981 7211 CircleF
6736 7410 CircleF
9363 7151 CircleF
5467 2244 CircleF
5871 2536 CircleF
9807 6926 CircleF
8637 7257 CircleF
6126 7410 CircleF
2979 5247 CircleF
6508 7324 CircleF
7496 7183 CircleF
7439 7197 CircleF
4981 2231 CircleF
2832 5069 CircleF
7913 7260 CircleF
6894 7301 CircleF
6816 7255 CircleF
8700 7024 CircleF
8906 7188 CircleF
3522 5137 CircleF
8255 7469 CircleF
9266 7312 CircleF
9610 7136 CircleF
6133 7453 CircleF
4606 2342 CircleF
7838 7239 CircleF
4516 2283 CircleF
4600 2251 CircleF
9042 7303 CircleF
6258 7551 CircleF
7190 7187 CircleF
8084 7294 CircleF
8145 7307 CircleF
2730 5291 CircleF
2704 5224 CircleF
6947 7268 CircleF
4474 2367 CircleF
8510 7347 CircleF
7597 7273 CircleF
2618 5137 CircleF
3773 5033 CircleF
4129 2360 CircleF
4613 2308 CircleF
9725 7011 CircleF
6907 7213 CircleF
6536 7422 CircleF
2570 5087 CircleF
3580 5059 CircleF
4596 2324 CircleF
5206 2334 CircleF
6484 7427 CircleF
2411 2497 CircleF
8067 7219 CircleF
5703 2385 CircleF
6505 7389 CircleF
9868 6531 CircleF
8944 7236 CircleF
5439 2406 CircleF
9244 7280 CircleF
5615 2226 CircleF
2808 5167 CircleF
8994 7226 CircleF
4667 2298 CircleF
6285 7448 CircleF
4537 2265 CircleF
2857 5147 CircleF
8533 7327 CircleF
3054 5261 CircleF
5496 2154 CircleF
4308 2262 CircleF
5583 2323 CircleF
3193 5007 CircleF
7938 7182 CircleF
5190 2363 CircleF
9210 7187 CircleF
8684 7231 CircleF
7565 7206 CircleF
9104 7352 CircleF
7804 7133 CircleF
6791 7316 CircleF
9015 7183 CircleF
4333 2119 CircleF
7526 7304 CircleF
7641 7197 CircleF
4303 2252 CircleF
9185 7069 CircleF
6787 7327 CircleF
4661 2378 CircleF
4126 2334 CircleF
7439 7084 CircleF
6892 7166 CircleF
8971 7321 CircleF
5928 2528 CircleF
8985 7234 CircleF
8880 7143 CircleF
5978 2616 CircleF
5101 2267 CircleF
9027 7141 CircleF
5522 2425 CircleF
8695 7115 CircleF
8004 7335 CircleF
6298 7472 CircleF
5879 2522 CircleF
5378 2399 CircleF
8875 7237 CircleF
3288 5111 CircleF
9515 7330 CircleF
3793 5041 CircleF
6830 7291 CircleF
2594 5286 CircleF
5739 2229 CircleF
6048 2856 CircleF
9722 7126 CircleF
4042 2300 CircleF
8078 7259 CircleF
6966 7195 CircleF
5120 2187 CircleF
6613 7340 CircleF
2442 2603 CircleF
9596 7118 CircleF
7014 7252 CircleF
6796 7280 CircleF
5286 2309 CircleF
2418 2526 CircleF
7196 7314 CircleF
3690 5043 CircleF
7484 7208 CircleF
4241 2262 CircleF
6315 7446 CircleF
8578 7278 CircleF
4176 2202 CircleF
6568 7469 CircleF
7568 7244 CircleF
7824 7267 CircleF
3931 4824 CircleF
6889 7286 CircleF
3493 5026 CircleF
2484 2786 CircleF
8570 7172 CircleF
6239 7528 CircleF
6957 7370 CircleF
5534 2370 CircleF
4220 2141 CircleF
4815 2380 CircleF
4350 2205 CircleF
3997 3780 CircleF
5983 2468 CircleF
4587 2176 CircleF
7047 7272 CircleF
5344 2396 CircleF
2383 2631 CircleF
6759 7254 CircleF
4171 2340 CircleF
4979 2308 CircleF
9574 7177 CircleF
7808 7340 CircleF
9870 6523 CircleF
4035 2381 CircleF
6147 7466 CircleF
5877 2451 CircleF
9573 7172 CircleF
3510 5211 CircleF
6908 7183 CircleF
8868 7205 CircleF
9383 7249 CircleF
7306 7175 CircleF
5716 2391 CircleF
9608 7228 CircleF
8630 7205 CircleF
7887 7192 CircleF
7733 7221 CircleF
5673 2308 CircleF
4278 2104 CircleF
7571 7236 CircleF
5559 2274 CircleF
4132 2228 CircleF
9719 7102 CircleF
6275 7477 CircleF
5203 2202 CircleF
7701 7334 CircleF
6092 3439 CircleF
7382 7187 CircleF
6282 7423 CircleF
9198 7193 CircleF
9492 7343 CircleF
3035 5090 CircleF
9507 7232 CircleF
6487 7461 CircleF
4827 2292 CircleF
4652 2298 CircleF
5249 2254 CircleF
3353 5186 CircleF
7370 7185 CircleF
9224 7208 CircleF
4534 2301 CircleF
4454 2399 CircleF
6793 7263 CircleF
5002 2354 CircleF
5810 2448 CircleF
6035 2913 CircleF
4739 2198 CircleF
8379 7180 CircleF
8555 7255 CircleF
9799 6942 CircleF
2706 5346 CircleF
6636 7294 CircleF
8022 7355 CircleF
9764 6864 CircleF
3216 5070 CircleF
6898 7343 CircleF
7979 7100 CircleF
9241 7224 CircleF
7933 7229 CircleF
8909 7214 CircleF
5508 2564 CircleF
7202 7267 CircleF
9521 7368 CircleF
3237 5105 CircleF
7949 7216 CircleF
7457 7239 CircleF
4821 2107 CircleF
7342 7226 CircleF
4818 2274 CircleF
7311 7234 CircleF
5706 2264 CircleF
6758 7324 CircleF
4599 2239 CircleF
6863 7250 CircleF
8977 7146 CircleF
6864 7197 CircleF
6582 7436 CircleF
6674 7445 CircleF
4063 2347 CircleF
7237 7241 CircleF
9825 6926 CircleF
2698 5256 CircleF
6399 7534 CircleF
7102 7270 CircleF
7638 7183 CircleF
7831 7286 CircleF
7436 7177 CircleF
5354 2231 CircleF
4685 2115 CircleF
9411 7337 CircleF
6227 7427 CircleF
2735 5121 CircleF
4387 2174 CircleF
5478 2282 CircleF
4692 2293 CircleF
9193 7156 CircleF
5361 2367 CircleF
5084 2311 CircleF
5174 2184 CircleF
2556 5358 CircleF
7238 7193 CircleF
4253 2293 CircleF
3115 5227 CircleF
8069 7170 CircleF
9601 7270 CircleF
4981 2401 CircleF
7104 7257 CircleF
6229 7498 CircleF
4946 2308 CircleF
4444 2323 CircleF
3613 5142 CircleF
8479 7192 CircleF
7844 7402 CircleF
4856 2088 CircleF
6419 7432 CircleF
7408 7247 CircleF
2566 5242 CircleF
9077 7239 CircleF
4020 2350 CircleF
7757 7242 CircleF
6997 7272 CircleF
3839 5007 CircleF
6752 7268 CircleF
6199 7714 CircleF
2425 2541 CircleF
7213 7263 CircleF
6380 7663 CircleF
8097 7095 CircleF
4018 2243 CircleF
5312 2275 CircleF
8642 7267 CircleF
3028 5137 CircleF
7898 7267 CircleF
6824 7324 CircleF
6851 7257 CircleF
4574 2358 CircleF
8218 7270 CircleF
5324 2334 CircleF
5997 2781 CircleF
3190 5064 CircleF
4363 2340 CircleF
4824 2385 CircleF
4002 3559 CircleF
8401 7267 CircleF
6369 7577 CircleF
7780 7324 CircleF
4256 2241 CircleF
2885 5230 CircleF
9276 7307 CircleF
7958 7216 CircleF
8892 7263 CircleF
5651 2254 CircleF
6005 2629 CircleF
6280 7528 CircleF
9009 7179 CircleF
5895 2479 CircleF
4953 2318 CircleF
2399 2577 CircleF
4189 2308 CircleF
4472 2202 CircleF
3581 4958 CircleF
6921 7241 CircleF
4486 2386 CircleF
4251 2260 CircleF
9132 7210 CircleF
7654 7216 CircleF
4305 2231 CircleF
5500 2440 CircleF
8427 7094 CircleF
3190 5230 CircleF
2787 5193 CircleF
8318 7304 CircleF
5524 2424 CircleF
5553 2228 CircleF
4337 2260 CircleF
9777 6926 CircleF
7853 7276 CircleF
7808 7211 CircleF
9349 7169 CircleF
4387 2205 CircleF
3107 5230 CircleF
2430 2806 CircleF
9294 7267 CircleF
3415 5116 CircleF
7082 7203 CircleF
4187 2171 CircleF
6120 5594 CircleF
3595 5160 CircleF
5743 2296 CircleF
6122 6177 CircleF
2399 2619 CircleF
4282 2313 CircleF
2886 5118 CircleF
7954 7236 CircleF
5802 2247 CircleF
8700 7304 CircleF
8039 7239 CircleF
4939 2495 CircleF
8655 7291 CircleF
4390 2203 CircleF
5527 2303 CircleF
7134 7312 CircleF
7642 7154 CircleF
7256 7303 CircleF
4075 2326 CircleF
5855 2442 CircleF
3375 5123 CircleF
5723 2482 CircleF
5157 2331 CircleF
4559 2278 CircleF
9225 7200 CircleF
3756 5069 CircleF
6269 7515 CircleF
3622 4979 CircleF
2843 5328 CircleF
5532 2241 CircleF
6772 7229 CircleF
8930 7159 CircleF
6893 7276 CircleF
3075 5371 CircleF
9838 6891 CircleF
3036 5056 CircleF
9565 7317 CircleF
9044 7117 CircleF
4224 2161 CircleF
7666 7221 CircleF
4683 2308 CircleF
2810 5082 CircleF
5851 2375 CircleF
3356 5062 CircleF
3541 5082 CircleF
5696 2321 CircleF
8250 7304 CircleF
6066 3019 CircleF
8186 7144 CircleF
9530 7231 CircleF
7283 7170 CircleF
7265 7325 CircleF
3172 5183 CircleF
7289 7187 CircleF
2856 5271 CircleF
7581 7218 CircleF
2380 2491 CircleF
8245 7285 CircleF
2396 2525 CircleF
9443 7334 CircleF
6591 7417 CircleF
9449 7205 CircleF
3137 5061 CircleF
4284 2283 CircleF
8743 7175 CircleF
5316 2394 CircleF
6065 2908 CircleF
7088 7270 CircleF
4581 2185 CircleF
2686 5180 CircleF
4315 2249 CircleF
6559 7317 CircleF
7961 7283 CircleF
4109 2277 CircleF
7427 7267 CircleF
5851 2432 CircleF
6558 7376 CircleF
2941 5114 CircleF
8234 7237 CircleF
9168 7082 CircleF
9786 7038 CircleF
9506 7169 CircleF
5466 2422 CircleF
5308 2128 CircleF
9693 7123 CircleF
4912 2344 CircleF
8340 7267 CircleF
3191 5111 CircleF
5709 2409 CircleF
9590 7200 CircleF
4134 2207 CircleF
6659 7330 CircleF
6742 7373 CircleF
5807 2401 CircleF
6508 7368 CircleF
8335 7255 CircleF
8839 7252 CircleF
4274 2220 CircleF
5392 2246 CircleF
8695 7283 CircleF
6892 7180 CircleF
7489 7304 CircleF
7438 7187 CircleF
6001 2440 CircleF
8813 7276 CircleF
5732 2156 CircleF
8124 7276 CircleF
4114 2138 CircleF
9193 7241 CircleF
4371 2210 CircleF
8265 7291 CircleF
8458 7316 CircleF
5599 2179 CircleF
9812 6975 CircleF
4417 2354 CircleF
6300 7446 CircleF
8522 7172 CircleF
7565 7290 CircleF
3591 5095 CircleF
8719 7433 CircleF
3180 5191 CircleF
5721 2383 CircleF
5198 2411 CircleF
7785 7201 CircleF
2744 5253 CircleF
2379 2624 CircleF
2515 3499 CircleF
3746 5114 CircleF
3115 4986 CircleF
5317 2298 CircleF
9366 7130 CircleF
2663 5230 CircleF
7589 7138 CircleF
8443 7236 CircleF
7513 7167 CircleF
8253 7299 CircleF
7952 7343 CircleF
5327 2278 CircleF
8170 7205 CircleF
8558 7365 CircleF
4135 2326 CircleF
4701 2406 CircleF
3604 5150 CircleF
6804 7285 CircleF
2924 5238 CircleF
8527 7298 CircleF
9364 7213 CircleF
8418 7339 CircleF
3593 5238 CircleF
9496 7259 CircleF
8470 7312 CircleF
4233 2229 CircleF
5391 2309 CircleF
3032 5043 CircleF
2531 4421 CircleF
8083 7368 CircleF
7732 7157 CircleF
9324 7314 CircleF
6329 7296 CircleF
7266 7152 CircleF
9250 7197 CircleF
5789 2450 CircleF
3715 5059 CircleF
8916 7255 CircleF
5750 2260 CircleF
6527 7531 CircleF
9852 6652 CircleF
3669 5077 CircleF
8310 7254 CircleF
7876 7125 CircleF
2601 5207 CircleF
3881 4925 CircleF
7635 7298 CircleF
8698 7195 CircleF
5949 2683 CircleF
6872 7285 CircleF
5243 2109 CircleF
9762 7006 CircleF
7200 7247 CircleF
5710 2251 CircleF
4420 2316 CircleF
3942 4494 CircleF
8298 7214 CircleF
2714 5294 CircleF
4441 2298 CircleF
4518 2218 CircleF
3320 5067 CircleF
4519 2280 CircleF
7618 7213 CircleF
3941 4713 CircleF
9198 7358 CircleF
9586 7095 CircleF
4952 2344 CircleF
9142 7268 CircleF
8698 7115 CircleF
7870 7353 CircleF
4202 2404 CircleF
7944 7342 CircleF
2850 5251 CircleF
3169 5158 CircleF
9705 7086 CircleF
3104 5317 CircleF
8941 7270 CircleF
7796 7321 CircleF
8217 7252 CircleF
5080 2241 CircleF
7077 7285 CircleF
8174 7210 CircleF
3276 5250 CircleF
8836 7210 CircleF
8396 7324 CircleF
6437 7440 CircleF
3967 4401 CircleF
9696 7073 CircleF
3503 5083 CircleF
6479 7410 CircleF
9490 7206 CircleF
3395 5203 CircleF
9674 7146 CircleF
8750 7257 CircleF
6214 7463 CircleF
3017 5276 CircleF
4897 2283 CircleF
5979 2616 CircleF
6611 7304 CircleF
8364 7347 CircleF
5343 2385 CircleF
3583 5041 CircleF
3688 5160 CircleF
8578 7312 CircleF
5607 2327 CircleF
4375 2300 CircleF
7999 7288 CircleF
5964 2549 CircleF
9399 7172 CircleF
4660 2252 CircleF
5211 2311 CircleF
3314 5157 CircleF
5436 2301 CircleF
3990 3936 CircleF
9580 7151 CircleF
5853 2371 CircleF
5277 2270 CircleF
5022 2340 CircleF
5991 2466 CircleF
7762 7206 CircleF
7897 7195 CircleF
8223 7290 CircleF
9802 6882 CircleF
7742 7229 CircleF
7227 7121 CircleF
6175 7577 CircleF
4082 2445 CircleF
4607 2260 CircleF
9568 7237 CircleF
8122 7329 CircleF
7995 7299 CircleF
2514 3445 CircleF
7303 7188 CircleF
3608 5092 CircleF
7740 7363 CircleF
9777 7001 CircleF
8428 7353 CircleF
4675 2202 CircleF
9012 7324 CircleF
5886 2363 CircleF
4962 2308 CircleF
9365 7151 CircleF
2727 5188 CircleF
7418 7166 CircleF
2934 5232 CircleF
8638 7218 CircleF
2736 5230 CircleF
3697 4977 CircleF
2495 2987 CircleF
8309 7245 CircleF
4400 2247 CircleF
9012 7304 CircleF
7633 7317 CircleF
3652 4974 CircleF
8275 7175 CircleF
4201 2249 CircleF
9299 7280 CircleF
7929 7301 CircleF
8951 7208 CircleF
3661 5114 CircleF
5862 2362 CircleF
7389 7195 CircleF
7413 7195 CircleF
4976 2172 CircleF
9846 6867 CircleF
2523 3943 CircleF
2614 5282 CircleF
7980 7301 CircleF
6239 7505 CircleF
3277 5158 CircleF
3231 5116 CircleF
4474 2301 CircleF
3994 4005 CircleF
9276 7048 CircleF
5672 2344 CircleF
4365 2185 CircleF
7382 7193 CircleF
2423 2771 CircleF
9224 7232 CircleF
4938 2362 CircleF
2402 2530 CircleF
3817 5056 CircleF
8628 7311 CircleF
6423 7383 CircleF
6471 7409 CircleF
8193 7175 CircleF
9126 7170 CircleF
6686 7340 CircleF
7361 7306 CircleF
4201 2212 CircleF
9535 7004 CircleF
8351 7381 CircleF
9221 7120 CircleF
6152 7386 CircleF
5473 2396 CircleF
8355 7286 CircleF
7225 7229 CircleF
8125 7265 CircleF
9159 7187 CircleF
3257 5185 CircleF
7090 7226 CircleF
4382 2283 CircleF
3647 5199 CircleF
2591 5304 CircleF
3357 5194 CircleF
5208 2319 CircleF
7620 7216 CircleF
5288 2375 CircleF
9230 7262 CircleF
3935 4582 CircleF
5850 2456 CircleF
6582 7503 CircleF
3617 5085 CircleF
4131 2231 CircleF
5215 2318 CircleF
7378 7193 CircleF
9067 7174 CircleF
6024 2541 CircleF
8484 7255 CircleF
5194 2316 CircleF
8429 7285 CircleF
4861 2220 CircleF
2413 2652 CircleF
4469 2112 CircleF
7999 7304 CircleF
6744 7379 CircleF
6817 7304 CircleF
2565 5212 CircleF
9460 7224 CircleF
7547 7193 CircleF
4361 2357 CircleF
9324 7159 CircleF
9750 7014 CircleF
8029 7148 CircleF
8135 7146 CircleF
9317 7182 CircleF
9520 7239 CircleF
7058 7074 CircleF
3382 5212 CircleF
3754 5116 CircleF
5117 2197 CircleF
9062 7141 CircleF
6435 7383 CircleF
9246 7232 CircleF
2974 5245 CircleF
6084 3302 CircleF
9374 7317 CircleF
6433 7304 CircleF
8368 7190 CircleF
7974 7214 CircleF
7024 7245 CircleF
5403 2287 CircleF
5543 2251 CircleF
4963 2226 CircleF
7505 7179 CircleF
5516 2282 CircleF
7955 7381 CircleF
7309 7224 CircleF
8319 7201 CircleF
7386 7143 CircleF
5995 2505 CircleF
7851 7316 CircleF
5314 2319 CircleF
8814 7281 CircleF
9727 7051 CircleF
7027 7213 CircleF
7593 7161 CircleF
2412 2530 CircleF
7245 7042 CircleF
7868 7159 CircleF
6716 7373 CircleF
5091 2287 CircleF
9157 7167 CircleF
6324 7464 CircleF
7710 7244 CircleF
6987 7226 CircleF
6858 7307 CircleF
6855 7241 CircleF
7518 7015 CircleF
2955 4968 CircleF
5673 2409 CircleF
7330 7311 CircleF
3860 4994 CircleF
9680 7073 CircleF
4102 2177 CircleF
5819 2329 CircleF
2878 5145 CircleF
6071 3063 CircleF
9066 7245 CircleF
6733 7420 CircleF
6786 7236 CircleF
3979 4054 CircleF
6943 7250 CircleF
5601 2455 CircleF
3767 5077 CircleF
5174 2399 CircleF
8875 7415 CircleF
4768 2288 CircleF
2824 5304 CircleF
6917 7262 CircleF
4562 2225 CircleF
7970 7348 CircleF
5701 2292 CircleF
8716 7262 CircleF
3740 5031 CircleF
5782 2435 CircleF
7934 7245 CircleF
9307 7267 CircleF
4180 2189 CircleF
8807 7376 CircleF
4457 2324 CircleF
4403 2104 CircleF
7460 7216 CircleF
7468 7332 CircleF
4615 2278 CircleF
9429 7244 CircleF
7835 7216 CircleF
8687 7200 CircleF
8597 7339 CircleF
2567 5193 CircleF
6531 7352 CircleF
3252 5201 CircleF
2384 2528 CircleF
2465 2825 CircleF
3345 5070 CircleF
8874 7259 CircleF
5972 2535 CircleF
7454 7339 CircleF
6374 7438 CircleF
4540 2305 CircleF
4790 2427 CircleF
8178 7151 CircleF
8012 7187 CircleF
6740 7415 CircleF
6337 7309 CircleF
4024 2262 CircleF
8499 7345 CircleF
3170 5278 CircleF
3990 3984 CircleF
9137 7247 CircleF
3882 4917 CircleF
9640 7144 CircleF
9852 6753 CircleF
5382 2270 CircleF
5437 2249 CircleF
8789 7208 CircleF
6137 7433 CircleF
3767 5041 CircleF
2467 2779 CircleF
6865 7285 CircleF
8045 7371 CircleF
4440 2345 CircleF
8613 7170 CircleF
2415 2474 CircleF
4571 2078 CircleF
6539 7451 CircleF
6932 7268 CircleF
4847 2300 CircleF
7304 7131 CircleF
4499 2128 CircleF
3310 5106 CircleF
9533 7257 CircleF
% End plot #1
1.000 UP
0.500 UL
LTb
grestore % colour palette end
stroke
grestore
end
showpage
%%Trailer
%%DocumentFonts: URWPalladioL-Roma Helvetica
