%!PS-Adobe-2.0 EPSF-2.0
%%Title: ../figs/ptreat1.eps
%%Creator: gnuplot 4.6 patchlevel 0
%%CreationDate: Thu Aug 23 16:12:24 2012
%%DocumentFonts: (atend)
%%BoundingBox: 50 50 626 482
%%EndComments
%%BeginProlog
/gnudict 256 dict def
gnudict begin
%
% The following true/false flags may be edited by hand if desired.
% The unit line width and grayscale image gamma correction may also be changed.
%
/Color false def
/Blacktext false def
/Solid false def
/Dashlength 1 def
/Landscape false def
/Level1 false def
/Rounded false def
/ClipToBoundingBox false def
/SuppressPDFMark false def
/TransparentPatterns false def
/gnulinewidth 5.000 def
/userlinewidth gnulinewidth def
/Gamma 1.0 def
/BackgroundColor {-1.000 -1.000 -1.000} def
%
/vshift -160 def
/dl1 {
  10.0 Dashlength mul mul
  Rounded { currentlinewidth 0.75 mul sub dup 0 le { pop 0.01 } if } if
} def
/dl2 {
  10.0 Dashlength mul mul
  Rounded { currentlinewidth 0.75 mul add } if
} def
/hpt_ 31.5 def
/vpt_ 31.5 def
/hpt hpt_ def
/vpt vpt_ def
/doclip {
  ClipToBoundingBox {
    newpath 50 50 moveto 626 50 lineto 626 482 lineto 50 482 lineto closepath
    clip
  } if
} def
%
% Gnuplot Prolog Version 4.4 (August 2010)
%
%/SuppressPDFMark true def
%
/M {moveto} bind def
/L {lineto} bind def
/R {rmoveto} bind def
/V {rlineto} bind def
/N {newpath moveto} bind def
/Z {closepath} bind def
/C {setrgbcolor} bind def
/f {rlineto fill} bind def
/g {setgray} bind def
/Gshow {show} def   % May be redefined later in the file to support UTF-8
/vpt2 vpt 2 mul def
/hpt2 hpt 2 mul def
/Lshow {currentpoint stroke M 0 vshift R 
	Blacktext {gsave 0 setgray show grestore} {show} ifelse} def
/Rshow {currentpoint stroke M dup stringwidth pop neg vshift R
	Blacktext {gsave 0 setgray show grestore} {show} ifelse} def
/Cshow {currentpoint stroke M dup stringwidth pop -2 div vshift R 
	Blacktext {gsave 0 setgray show grestore} {show} ifelse} def
/UP {dup vpt_ mul /vpt exch def hpt_ mul /hpt exch def
  /hpt2 hpt 2 mul def /vpt2 vpt 2 mul def} def
/DL {Color {setrgbcolor Solid {pop []} if 0 setdash}
 {pop pop pop 0 setgray Solid {pop []} if 0 setdash} ifelse} def
/BL {stroke userlinewidth 2 mul setlinewidth
	Rounded {1 setlinejoin 1 setlinecap} if} def
/AL {stroke userlinewidth 2 div setlinewidth
	Rounded {1 setlinejoin 1 setlinecap} if} def
/UL {dup gnulinewidth mul /userlinewidth exch def
	dup 1 lt {pop 1} if 10 mul /udl exch def} def
/PL {stroke userlinewidth setlinewidth
	Rounded {1 setlinejoin 1 setlinecap} if} def
3.8 setmiterlimit
% Default Line colors
/LCw {1 1 1} def
/LCb {0 0 0} def
/LCa {0 0 0} def
/LC0 {1 0 0} def
/LC1 {0 1 0} def
/LC2 {0 0 1} def
/LC3 {1 0 1} def
/LC4 {0 1 1} def
/LC5 {1 1 0} def
/LC6 {0 0 0} def
/LC7 {1 0.3 0} def
/LC8 {0.5 0.5 0.5} def
% Default Line Types
/LTw {PL [] 1 setgray} def
/LTb {BL [] LCb DL} def
/LTa {AL [1 udl mul 2 udl mul] 0 setdash LCa setrgbcolor} def
/LT0 {PL [] LC0 DL} def
/LT1 {PL [4 dl1 2 dl2] LC1 DL} def
/LT2 {PL [2 dl1 3 dl2] LC2 DL} def
/LT3 {PL [1 dl1 1.5 dl2] LC3 DL} def
/LT4 {PL [6 dl1 2 dl2 1 dl1 2 dl2] LC4 DL} def
/LT5 {PL [3 dl1 3 dl2 1 dl1 3 dl2] LC5 DL} def
/LT6 {PL [2 dl1 2 dl2 2 dl1 6 dl2] LC6 DL} def
/LT7 {PL [1 dl1 2 dl2 6 dl1 2 dl2 1 dl1 2 dl2] LC7 DL} def
/LT8 {PL [2 dl1 2 dl2 2 dl1 2 dl2 2 dl1 2 dl2 2 dl1 4 dl2] LC8 DL} def
/Pnt {stroke [] 0 setdash gsave 1 setlinecap M 0 0 V stroke grestore} def
/Dia {stroke [] 0 setdash 2 copy vpt add M
  hpt neg vpt neg V hpt vpt neg V
  hpt vpt V hpt neg vpt V closepath stroke
  Pnt} def
/Pls {stroke [] 0 setdash vpt sub M 0 vpt2 V
  currentpoint stroke M
  hpt neg vpt neg R hpt2 0 V stroke
 } def
/Box {stroke [] 0 setdash 2 copy exch hpt sub exch vpt add M
  0 vpt2 neg V hpt2 0 V 0 vpt2 V
  hpt2 neg 0 V closepath stroke
  Pnt} def
/Crs {stroke [] 0 setdash exch hpt sub exch vpt add M
  hpt2 vpt2 neg V currentpoint stroke M
  hpt2 neg 0 R hpt2 vpt2 V stroke} def
/TriU {stroke [] 0 setdash 2 copy vpt 1.12 mul add M
  hpt neg vpt -1.62 mul V
  hpt 2 mul 0 V
  hpt neg vpt 1.62 mul V closepath stroke
  Pnt} def
/Star {2 copy Pls Crs} def
/BoxF {stroke [] 0 setdash exch hpt sub exch vpt add M
  0 vpt2 neg V hpt2 0 V 0 vpt2 V
  hpt2 neg 0 V closepath fill} def
/TriUF {stroke [] 0 setdash vpt 1.12 mul add M
  hpt neg vpt -1.62 mul V
  hpt 2 mul 0 V
  hpt neg vpt 1.62 mul V closepath fill} def
/TriD {stroke [] 0 setdash 2 copy vpt 1.12 mul sub M
  hpt neg vpt 1.62 mul V
  hpt 2 mul 0 V
  hpt neg vpt -1.62 mul V closepath stroke
  Pnt} def
/TriDF {stroke [] 0 setdash vpt 1.12 mul sub M
  hpt neg vpt 1.62 mul V
  hpt 2 mul 0 V
  hpt neg vpt -1.62 mul V closepath fill} def
/DiaF {stroke [] 0 setdash vpt add M
  hpt neg vpt neg V hpt vpt neg V
  hpt vpt V hpt neg vpt V closepath fill} def
/Pent {stroke [] 0 setdash 2 copy gsave
  translate 0 hpt M 4 {72 rotate 0 hpt L} repeat
  closepath stroke grestore Pnt} def
/PentF {stroke [] 0 setdash gsave
  translate 0 hpt M 4 {72 rotate 0 hpt L} repeat
  closepath fill grestore} def
/Circle {stroke [] 0 setdash 2 copy
  hpt 0 360 arc stroke Pnt} def
/CircleF {stroke [] 0 setdash hpt 0 360 arc fill} def
/C0 {BL [] 0 setdash 2 copy moveto vpt 90 450 arc} bind def
/C1 {BL [] 0 setdash 2 copy moveto
	2 copy vpt 0 90 arc closepath fill
	vpt 0 360 arc closepath} bind def
/C2 {BL [] 0 setdash 2 copy moveto
	2 copy vpt 90 180 arc closepath fill
	vpt 0 360 arc closepath} bind def
/C3 {BL [] 0 setdash 2 copy moveto
	2 copy vpt 0 180 arc closepath fill
	vpt 0 360 arc closepath} bind def
/C4 {BL [] 0 setdash 2 copy moveto
	2 copy vpt 180 270 arc closepath fill
	vpt 0 360 arc closepath} bind def
/C5 {BL [] 0 setdash 2 copy moveto
	2 copy vpt 0 90 arc
	2 copy moveto
	2 copy vpt 180 270 arc closepath fill
	vpt 0 360 arc} bind def
/C6 {BL [] 0 setdash 2 copy moveto
	2 copy vpt 90 270 arc closepath fill
	vpt 0 360 arc closepath} bind def
/C7 {BL [] 0 setdash 2 copy moveto
	2 copy vpt 0 270 arc closepath fill
	vpt 0 360 arc closepath} bind def
/C8 {BL [] 0 setdash 2 copy moveto
	2 copy vpt 270 360 arc closepath fill
	vpt 0 360 arc closepath} bind def
/C9 {BL [] 0 setdash 2 copy moveto
	2 copy vpt 270 450 arc closepath fill
	vpt 0 360 arc closepath} bind def
/C10 {BL [] 0 setdash 2 copy 2 copy moveto vpt 270 360 arc closepath fill
	2 copy moveto
	2 copy vpt 90 180 arc closepath fill
	vpt 0 360 arc closepath} bind def
/C11 {BL [] 0 setdash 2 copy moveto
	2 copy vpt 0 180 arc closepath fill
	2 copy moveto
	2 copy vpt 270 360 arc closepath fill
	vpt 0 360 arc closepath} bind def
/C12 {BL [] 0 setdash 2 copy moveto
	2 copy vpt 180 360 arc closepath fill
	vpt 0 360 arc closepath} bind def
/C13 {BL [] 0 setdash 2 copy moveto
	2 copy vpt 0 90 arc closepath fill
	2 copy moveto
	2 copy vpt 180 360 arc closepath fill
	vpt 0 360 arc closepath} bind def
/C14 {BL [] 0 setdash 2 copy moveto
	2 copy vpt 90 360 arc closepath fill
	vpt 0 360 arc} bind def
/C15 {BL [] 0 setdash 2 copy vpt 0 360 arc closepath fill
	vpt 0 360 arc closepath} bind def
/Rec {newpath 4 2 roll moveto 1 index 0 rlineto 0 exch rlineto
	neg 0 rlineto closepath} bind def
/Square {dup Rec} bind def
/Bsquare {vpt sub exch vpt sub exch vpt2 Square} bind def
/S0 {BL [] 0 setdash 2 copy moveto 0 vpt rlineto BL Bsquare} bind def
/S1 {BL [] 0 setdash 2 copy vpt Square fill Bsquare} bind def
/S2 {BL [] 0 setdash 2 copy exch vpt sub exch vpt Square fill Bsquare} bind def
/S3 {BL [] 0 setdash 2 copy exch vpt sub exch vpt2 vpt Rec fill Bsquare} bind def
/S4 {BL [] 0 setdash 2 copy exch vpt sub exch vpt sub vpt Square fill Bsquare} bind def
/S5 {BL [] 0 setdash 2 copy 2 copy vpt Square fill
	exch vpt sub exch vpt sub vpt Square fill Bsquare} bind def
/S6 {BL [] 0 setdash 2 copy exch vpt sub exch vpt sub vpt vpt2 Rec fill Bsquare} bind def
/S7 {BL [] 0 setdash 2 copy exch vpt sub exch vpt sub vpt vpt2 Rec fill
	2 copy vpt Square fill Bsquare} bind def
/S8 {BL [] 0 setdash 2 copy vpt sub vpt Square fill Bsquare} bind def
/S9 {BL [] 0 setdash 2 copy vpt sub vpt vpt2 Rec fill Bsquare} bind def
/S10 {BL [] 0 setdash 2 copy vpt sub vpt Square fill 2 copy exch vpt sub exch vpt Square fill
	Bsquare} bind def
/S11 {BL [] 0 setdash 2 copy vpt sub vpt Square fill 2 copy exch vpt sub exch vpt2 vpt Rec fill
	Bsquare} bind def
/S12 {BL [] 0 setdash 2 copy exch vpt sub exch vpt sub vpt2 vpt Rec fill Bsquare} bind def
/S13 {BL [] 0 setdash 2 copy exch vpt sub exch vpt sub vpt2 vpt Rec fill
	2 copy vpt Square fill Bsquare} bind def
/S14 {BL [] 0 setdash 2 copy exch vpt sub exch vpt sub vpt2 vpt Rec fill
	2 copy exch vpt sub exch vpt Square fill Bsquare} bind def
/S15 {BL [] 0 setdash 2 copy Bsquare fill Bsquare} bind def
/D0 {gsave translate 45 rotate 0 0 S0 stroke grestore} bind def
/D1 {gsave translate 45 rotate 0 0 S1 stroke grestore} bind def
/D2 {gsave translate 45 rotate 0 0 S2 stroke grestore} bind def
/D3 {gsave translate 45 rotate 0 0 S3 stroke grestore} bind def
/D4 {gsave translate 45 rotate 0 0 S4 stroke grestore} bind def
/D5 {gsave translate 45 rotate 0 0 S5 stroke grestore} bind def
/D6 {gsave translate 45 rotate 0 0 S6 stroke grestore} bind def
/D7 {gsave translate 45 rotate 0 0 S7 stroke grestore} bind def
/D8 {gsave translate 45 rotate 0 0 S8 stroke grestore} bind def
/D9 {gsave translate 45 rotate 0 0 S9 stroke grestore} bind def
/D10 {gsave translate 45 rotate 0 0 S10 stroke grestore} bind def
/D11 {gsave translate 45 rotate 0 0 S11 stroke grestore} bind def
/D12 {gsave translate 45 rotate 0 0 S12 stroke grestore} bind def
/D13 {gsave translate 45 rotate 0 0 S13 stroke grestore} bind def
/D14 {gsave translate 45 rotate 0 0 S14 stroke grestore} bind def
/D15 {gsave translate 45 rotate 0 0 S15 stroke grestore} bind def
/DiaE {stroke [] 0 setdash vpt add M
  hpt neg vpt neg V hpt vpt neg V
  hpt vpt V hpt neg vpt V closepath stroke} def
/BoxE {stroke [] 0 setdash exch hpt sub exch vpt add M
  0 vpt2 neg V hpt2 0 V 0 vpt2 V
  hpt2 neg 0 V closepath stroke} def
/TriUE {stroke [] 0 setdash vpt 1.12 mul add M
  hpt neg vpt -1.62 mul V
  hpt 2 mul 0 V
  hpt neg vpt 1.62 mul V closepath stroke} def
/TriDE {stroke [] 0 setdash vpt 1.12 mul sub M
  hpt neg vpt 1.62 mul V
  hpt 2 mul 0 V
  hpt neg vpt -1.62 mul V closepath stroke} def
/PentE {stroke [] 0 setdash gsave
  translate 0 hpt M 4 {72 rotate 0 hpt L} repeat
  closepath stroke grestore} def
/CircE {stroke [] 0 setdash 
  hpt 0 360 arc stroke} def
/Opaque {gsave closepath 1 setgray fill grestore 0 setgray closepath} def
/DiaW {stroke [] 0 setdash vpt add M
  hpt neg vpt neg V hpt vpt neg V
  hpt vpt V hpt neg vpt V Opaque stroke} def
/BoxW {stroke [] 0 setdash exch hpt sub exch vpt add M
  0 vpt2 neg V hpt2 0 V 0 vpt2 V
  hpt2 neg 0 V Opaque stroke} def
/TriUW {stroke [] 0 setdash vpt 1.12 mul add M
  hpt neg vpt -1.62 mul V
  hpt 2 mul 0 V
  hpt neg vpt 1.62 mul V Opaque stroke} def
/TriDW {stroke [] 0 setdash vpt 1.12 mul sub M
  hpt neg vpt 1.62 mul V
  hpt 2 mul 0 V
  hpt neg vpt -1.62 mul V Opaque stroke} def
/PentW {stroke [] 0 setdash gsave
  translate 0 hpt M 4 {72 rotate 0 hpt L} repeat
  Opaque stroke grestore} def
/CircW {stroke [] 0 setdash 
  hpt 0 360 arc Opaque stroke} def
/BoxFill {gsave Rec 1 setgray fill grestore} def
/Density {
  /Fillden exch def
  currentrgbcolor
  /ColB exch def /ColG exch def /ColR exch def
  /ColR ColR Fillden mul Fillden sub 1 add def
  /ColG ColG Fillden mul Fillden sub 1 add def
  /ColB ColB Fillden mul Fillden sub 1 add def
  ColR ColG ColB setrgbcolor} def
/BoxColFill {gsave Rec PolyFill} def
/PolyFill {gsave Density fill grestore grestore} def
/h {rlineto rlineto rlineto gsave closepath fill grestore} bind def
%
% PostScript Level 1 Pattern Fill routine for rectangles
% Usage: x y w h s a XX PatternFill
%	x,y = lower left corner of box to be filled
%	w,h = width and height of box
%	  a = angle in degrees between lines and x-axis
%	 XX = 0/1 for no/yes cross-hatch
%
/PatternFill {gsave /PFa [ 9 2 roll ] def
  PFa 0 get PFa 2 get 2 div add PFa 1 get PFa 3 get 2 div add translate
  PFa 2 get -2 div PFa 3 get -2 div PFa 2 get PFa 3 get Rec
  gsave 1 setgray fill grestore clip
  currentlinewidth 0.5 mul setlinewidth
  /PFs PFa 2 get dup mul PFa 3 get dup mul add sqrt def
  0 0 M PFa 5 get rotate PFs -2 div dup translate
  0 1 PFs PFa 4 get div 1 add floor cvi
	{PFa 4 get mul 0 M 0 PFs V} for
  0 PFa 6 get ne {
	0 1 PFs PFa 4 get div 1 add floor cvi
	{PFa 4 get mul 0 2 1 roll M PFs 0 V} for
 } if
  stroke grestore} def
%
/languagelevel where
 {pop languagelevel} {1} ifelse
 2 lt
	{/InterpretLevel1 true def}
	{/InterpretLevel1 Level1 def}
 ifelse
%
% PostScript level 2 pattern fill definitions
%
/Level2PatternFill {
/Tile8x8 {/PaintType 2 /PatternType 1 /TilingType 1 /BBox [0 0 8 8] /XStep 8 /YStep 8}
	bind def
/KeepColor {currentrgbcolor [/Pattern /DeviceRGB] setcolorspace} bind def
<< Tile8x8
 /PaintProc {0.5 setlinewidth pop 0 0 M 8 8 L 0 8 M 8 0 L stroke} 
>> matrix makepattern
/Pat1 exch def
<< Tile8x8
 /PaintProc {0.5 setlinewidth pop 0 0 M 8 8 L 0 8 M 8 0 L stroke
	0 4 M 4 8 L 8 4 L 4 0 L 0 4 L stroke}
>> matrix makepattern
/Pat2 exch def
<< Tile8x8
 /PaintProc {0.5 setlinewidth pop 0 0 M 0 8 L
	8 8 L 8 0 L 0 0 L fill}
>> matrix makepattern
/Pat3 exch def
<< Tile8x8
 /PaintProc {0.5 setlinewidth pop -4 8 M 8 -4 L
	0 12 M 12 0 L stroke}
>> matrix makepattern
/Pat4 exch def
<< Tile8x8
 /PaintProc {0.5 setlinewidth pop -4 0 M 8 12 L
	0 -4 M 12 8 L stroke}
>> matrix makepattern
/Pat5 exch def
<< Tile8x8
 /PaintProc {0.5 setlinewidth pop -2 8 M 4 -4 L
	0 12 M 8 -4 L 4 12 M 10 0 L stroke}
>> matrix makepattern
/Pat6 exch def
<< Tile8x8
 /PaintProc {0.5 setlinewidth pop -2 0 M 4 12 L
	0 -4 M 8 12 L 4 -4 M 10 8 L stroke}
>> matrix makepattern
/Pat7 exch def
<< Tile8x8
 /PaintProc {0.5 setlinewidth pop 8 -2 M -4 4 L
	12 0 M -4 8 L 12 4 M 0 10 L stroke}
>> matrix makepattern
/Pat8 exch def
<< Tile8x8
 /PaintProc {0.5 setlinewidth pop 0 -2 M 12 4 L
	-4 0 M 12 8 L -4 4 M 8 10 L stroke}
>> matrix makepattern
/Pat9 exch def
/Pattern1 {PatternBgnd KeepColor Pat1 setpattern} bind def
/Pattern2 {PatternBgnd KeepColor Pat2 setpattern} bind def
/Pattern3 {PatternBgnd KeepColor Pat3 setpattern} bind def
/Pattern4 {PatternBgnd KeepColor Landscape {Pat5} {Pat4} ifelse setpattern} bind def
/Pattern5 {PatternBgnd KeepColor Landscape {Pat4} {Pat5} ifelse setpattern} bind def
/Pattern6 {PatternBgnd KeepColor Landscape {Pat9} {Pat6} ifelse setpattern} bind def
/Pattern7 {PatternBgnd KeepColor Landscape {Pat8} {Pat7} ifelse setpattern} bind def
} def
%
%
%End of PostScript Level 2 code
%
/PatternBgnd {
  TransparentPatterns {} {gsave 1 setgray fill grestore} ifelse
} def
%
% Substitute for Level 2 pattern fill codes with
% grayscale if Level 2 support is not selected.
%
/Level1PatternFill {
/Pattern1 {0.250 Density} bind def
/Pattern2 {0.500 Density} bind def
/Pattern3 {0.750 Density} bind def
/Pattern4 {0.125 Density} bind def
/Pattern5 {0.375 Density} bind def
/Pattern6 {0.625 Density} bind def
/Pattern7 {0.875 Density} bind def
} def
%
% Now test for support of Level 2 code
%
Level1 {Level1PatternFill} {Level2PatternFill} ifelse
%
/Symbol-Oblique /Symbol findfont [1 0 .167 1 0 0] makefont
dup length dict begin {1 index /FID eq {pop pop} {def} ifelse} forall
currentdict end definefont pop
/MFshow {
   { dup 5 get 3 ge
     { 5 get 3 eq {gsave} {grestore} ifelse }
     {dup dup 0 get findfont exch 1 get scalefont setfont
     [ currentpoint ] exch dup 2 get 0 exch R dup 5 get 2 ne {dup dup 6
     get exch 4 get {Gshow} {stringwidth pop 0 R} ifelse }if dup 5 get 0 eq
     {dup 3 get {2 get neg 0 exch R pop} {pop aload pop M} ifelse} {dup 5
     get 1 eq {dup 2 get exch dup 3 get exch 6 get stringwidth pop -2 div
     dup 0 R} {dup 6 get stringwidth pop -2 div 0 R 6 get
     show 2 index {aload pop M neg 3 -1 roll neg R pop pop} {pop pop pop
     pop aload pop M} ifelse }ifelse }ifelse }
     ifelse }
   forall} def
/Gswidth {dup type /stringtype eq {stringwidth} {pop (n) stringwidth} ifelse} def
/MFwidth {0 exch { dup 5 get 3 ge { 5 get 3 eq { 0 } { pop } ifelse }
 {dup 3 get{dup dup 0 get findfont exch 1 get scalefont setfont
     6 get Gswidth pop add} {pop} ifelse} ifelse} forall} def
/MLshow { currentpoint stroke M
  0 exch R
  Blacktext {gsave 0 setgray MFshow grestore} {MFshow} ifelse } bind def
/MRshow { currentpoint stroke M
  exch dup MFwidth neg 3 -1 roll R
  Blacktext {gsave 0 setgray MFshow grestore} {MFshow} ifelse } bind def
/MCshow { currentpoint stroke M
  exch dup MFwidth -2 div 3 -1 roll R
  Blacktext {gsave 0 setgray MFshow grestore} {MFshow} ifelse } bind def
/XYsave    { [( ) 1 2 true false 3 ()] } bind def
/XYrestore { [( ) 1 2 true false 4 ()] } bind def
Level1 SuppressPDFMark or 
{} {
/SDict 10 dict def
systemdict /pdfmark known not {
  userdict /pdfmark systemdict /cleartomark get put
} if
SDict begin [
  /Title (../figs/ptreat1.eps)
  /Subject (gnuplot plot)
  /Creator (gnuplot 4.6 patchlevel 0)
  /Author (paul)
%  /Producer (gnuplot)
%  /Keywords ()
  /CreationDate (Thu Aug 23 16:12:24 2012)
  /DOCINFO pdfmark
end
} ifelse
end
%%EndProlog
%%Page: 1 1
gnudict begin
gsave
doclip
50 50 translate
0.050 0.050 scale
0 setgray
newpath
(Helvetica) findfont 480 scalefont setfont
BackgroundColor 0 lt 3 1 roll 0 lt exch 0 lt or or not {BackgroundColor C 1.000 0 0 11520.00 8640.00 BoxColFill} if
gsave % colour palette begin
/maxcolors 64 def
/HSV2RGB {  exch dup 0.0 eq {pop exch pop dup dup} % achromatic gray
  { /HSVs exch def /HSVv exch def 6.0 mul dup floor dup 3 1 roll sub
     /HSVf exch def /HSVi exch cvi def /HSVp HSVv 1.0 HSVs sub mul def
	 /HSVq HSVv 1.0 HSVs HSVf mul sub mul def 
	 /HSVt HSVv 1.0 HSVs 1.0 HSVf sub mul sub mul def
	 /HSVi HSVi 6 mod def 0 HSVi eq {HSVv HSVt HSVp}
	 {1 HSVi eq {HSVq HSVv HSVp}{2 HSVi eq {HSVp HSVv HSVt}
	 {3 HSVi eq {HSVp HSVq HSVv}{4 HSVi eq {HSVt HSVp HSVv}
	 {HSVv HSVp HSVq} ifelse} ifelse} ifelse} ifelse} ifelse
  } ifelse} def
/Constrain {
  dup 0 lt {0 exch pop}{dup 1 gt {1 exch pop} if} ifelse} def
/YIQ2RGB {
  3 copy -1.702 mul exch -1.105 mul add add Constrain 4 1 roll
  3 copy -0.647 mul exch -0.272 mul add add Constrain 5 1 roll
  0.621 mul exch -0.956 mul add add Constrain 3 1 roll } def
/CMY2RGB {  1 exch sub exch 1 exch sub 3 2 roll 1 exch sub 3 1 roll exch } def
/XYZ2RGB {  3 copy -0.9017 mul exch -0.1187 mul add exch 0.0585 mul exch add
  Constrain 4 1 roll 3 copy -0.0279 mul exch 1.999 mul add exch
  -0.9844 mul add Constrain 5 1 roll -0.2891 mul exch -0.5338 mul add
  exch 1.91 mul exch add Constrain 3 1 roll} def
/SelectSpace {ColorSpace (HSV) eq {HSV2RGB}{ColorSpace (XYZ) eq {
  XYZ2RGB}{ColorSpace (CMY) eq {CMY2RGB}{ColorSpace (YIQ) eq {YIQ2RGB}
  if} ifelse} ifelse} ifelse} def
/InterpolatedColor true def
/grayindex {/gidx 0 def
  {GrayA gidx get grayv ge {exit} if /gidx gidx 1 add def} loop} def
/dgdx {grayv GrayA gidx get sub GrayA gidx 1 sub get
  GrayA gidx get sub div} def 
/redvalue {RedA gidx get RedA gidx 1 sub get
  RedA gidx get sub dgdxval mul add} def
/greenvalue {GreenA gidx get GreenA gidx 1 sub get
  GreenA gidx get sub dgdxval mul add} def
/bluevalue {BlueA gidx get BlueA gidx 1 sub get
  BlueA gidx get sub dgdxval mul add} def
/interpolate {
  grayindex grayv GrayA gidx get sub abs 1e-5 le
    {RedA gidx get GreenA gidx get BlueA gidx get}
    {/dgdxval dgdx def redvalue greenvalue bluevalue} ifelse} def
/GrayA [0 .0159 .0317 .0476 .0635 .0794 .0952 .1111 .127 .1429 .1587 .1746 
  .1905 .2063 .2222 .2381 .254 .2698 .2857 .3016 .3175 .3333 .3492 .3651 
  .381 .3968 .4127 .4286 .4444 .4603 .4762 .4921 .5079 .5238 .5397 .5556 
  .5714 .5873 .6032 .619 .6349 .6508 .6667 .6825 .6984 .7143 .7302 .746 
  .7619 .7778 .7937 .8095 .8254 .8413 .8571 .873 .8889 .9048 .9206 .9365 
  .9524 .9683 .9841 1 ] def
/RedA [0 0 0 0 0 0 0 0 0 0 0 0 0 0 0 0 0 0 0 0 0 0 0 0 .0238 .0873 .1508 
  .2143 .2778 .3413 .4048 .4683 .5317 .5952 .6587 .7222 .7857 .8492 .9127 
  .9762 1 1 1 1 1 1 1 1 1 1 1 1 1 1 1 1 .9444 .881 .8175 .754 .6905 .627 
  .5635 .5 ] def
/GreenA [0 0 0 0 0 0 0 0 .0079 .0714 .1349 .1984 .2619 .3254 .3889 .4524 
  .5159 .5794 .6429 .7063 .7698 .8333 .8968 .9603 1 1 1 1 1 1 1 1 1 1 1 1 1 
  1 1 1 .9603 .8968 .8333 .7698 .7063 .6429 .5794 .5159 .4524 .3889 .3254 
  .2619 .1984 .1349 .0714 .0079 0 0 0 0 0 0 0 0 ] def
/BlueA [.5 .5635 .627 .6905 .754 .8175 .881 .9444 1 1 1 1 1 1 1 1 1 1 1 1 1 
  1 1 1 .9762 .9127 .8492 .7857 .7222 .6587 .5952 .5317 .4683 .4048 .3413 
  .2778 .2143 .1508 .0873 .0238 0 0 0 0 0 0 0 0 0 0 0 0 0 0 0 0 0 0 0 0 0 0 
  0 0 ] def
/pm3dround {maxcolors 0 gt {dup 1 ge
	{pop 1} {maxcolors mul floor maxcolors 1 sub div} ifelse} if} def
/pm3dGamma 1.0 1.5 Gamma mul div def
/ColorSpace (RGB) def
Color InterpolatedColor or { % COLOUR vs. GRAY map
  InterpolatedColor { %% Interpolation vs. RGB-Formula
    /g {stroke pm3dround /grayv exch def interpolate
        SelectSpace setrgbcolor} bind def
  }{
  /g {stroke pm3dround dup cF7 Constrain exch dup cF5 Constrain exch cF15 Constrain 
       SelectSpace setrgbcolor} bind def
  } ifelse
}{
  /g {stroke pm3dround pm3dGamma exp setgray} bind def
} ifelse
0.500 UL
LTb
2352 1536 M
88 0 V
8215 0 R
-88 0 V
stroke
0.00 0.00 0.00 C 2064 1536 M
[ [(URWPalladioL-Roma) 480.0 0.0 true true 0 (0.4)]
] -160.0 MRshow
0.500 UL
LTb
2352 2352 M
88 0 V
8215 0 R
-88 0 V
stroke
0.00 0.00 0.00 C 2064 2352 M
[ [(URWPalladioL-Roma) 480.0 0.0 true true 0 (0.45)]
] -160.0 MRshow
0.500 UL
LTb
2352 3168 M
88 0 V
8215 0 R
-88 0 V
stroke
0.00 0.00 0.00 C 2064 3168 M
[ [(URWPalladioL-Roma) 480.0 0.0 true true 0 (0.5)]
] -160.0 MRshow
0.500 UL
LTb
2352 3984 M
88 0 V
8215 0 R
-88 0 V
stroke
0.00 0.00 0.00 C 2064 3984 M
[ [(URWPalladioL-Roma) 480.0 0.0 true true 0 (0.55)]
] -160.0 MRshow
0.500 UL
LTb
2352 4800 M
88 0 V
8215 0 R
-88 0 V
stroke
0.00 0.00 0.00 C 2064 4800 M
[ [(URWPalladioL-Roma) 480.0 0.0 true true 0 (0.6)]
] -160.0 MRshow
0.500 UL
LTb
2352 5615 M
88 0 V
8215 0 R
-88 0 V
stroke
0.00 0.00 0.00 C 2064 5615 M
[ [(URWPalladioL-Roma) 480.0 0.0 true true 0 (0.65)]
] -160.0 MRshow
0.500 UL
LTb
2352 6431 M
88 0 V
8215 0 R
-88 0 V
stroke
0.00 0.00 0.00 C 2064 6431 M
[ [(URWPalladioL-Roma) 480.0 0.0 true true 0 (0.7)]
] -160.0 MRshow
0.500 UL
LTb
2352 7247 M
88 0 V
8215 0 R
-88 0 V
stroke
0.00 0.00 0.00 C 2064 7247 M
[ [(URWPalladioL-Roma) 480.0 0.0 true true 0 (0.75)]
] -160.0 MRshow
0.500 UL
LTb
2352 8063 M
88 0 V
8215 0 R
-88 0 V
stroke
0.00 0.00 0.00 C 2064 8063 M
[ [(URWPalladioL-Roma) 480.0 0.0 true true 0 (0.8)]
] -160.0 MRshow
0.500 UL
LTb
2352 1536 M
0 88 V
0 6439 R
0 -88 V
stroke
0.00 0.00 0.00 C 2352 1056 M
[ [(URWPalladioL-Roma) 480.0 0.0 true true 0 (0)]
] -160.0 MCshow
0.500 UL
LTb
3736 1536 M
0 88 V
0 6439 R
0 -88 V
stroke
0.00 0.00 0.00 C 3736 1056 M
[ [(URWPalladioL-Roma) 480.0 0.0 true true 0 (2000)]
] -160.0 MCshow
0.500 UL
LTb
5120 1536 M
0 88 V
0 6439 R
0 -88 V
stroke
0.00 0.00 0.00 C 5120 1056 M
[ [(URWPalladioL-Roma) 480.0 0.0 true true 0 (4000)]
] -160.0 MCshow
0.500 UL
LTb
6504 1536 M
0 88 V
0 6439 R
0 -88 V
stroke
0.00 0.00 0.00 C 6504 1056 M
[ [(URWPalladioL-Roma) 480.0 0.0 true true 0 (6000)]
] -160.0 MCshow
0.500 UL
LTb
7887 1536 M
0 88 V
0 6439 R
0 -88 V
stroke
0.00 0.00 0.00 C 7887 1056 M
[ [(URWPalladioL-Roma) 480.0 0.0 true true 0 (8000)]
] -160.0 MCshow
0.500 UL
LTb
9271 1536 M
0 88 V
0 6439 R
0 -88 V
stroke
0.00 0.00 0.00 C 9271 1056 M
[ [(URWPalladioL-Roma) 480.0 0.0 true true 0 (10000)]
] -160.0 MCshow
0.500 UL
LTb
10655 1536 M
0 88 V
0 6439 R
0 -88 V
stroke
0.00 0.00 0.00 C 10655 1056 M
[ [(URWPalladioL-Roma) 480.0 0.0 true true 0 (12000)]
] -160.0 MCshow
0.500 UL
LTb
0.500 UL
LTb
2352 8063 N
0 -6527 V
8303 0 V
0 6527 V
-8303 0 V
Z stroke
0.00 0.00 0.00 C 384 4799 M
currentpoint gsave translate 90 rotate 0 0 moveto
[ [(URWPalladioL-Roma) 480.0 0.0 true true 0 (P\(treat\))]
] -160.0 MCshow
grestore
LTb
0.00 0.00 0.00 C 6503 336 M
[ [(URWPalladioL-Roma) 480.0 0.0 true true 0 (Cumulative spending \(x\))]
] -160.0 MCshow
LTb
1.000 UP
0.500 UL
LTb
% Begin plot #1
1.333 UP
8.000 UL
LT0
0.00 0.00 1.00 C 6091 3386 CircleF
4598 2303 CircleF
8679 7167 CircleF
7083 7335 CircleF
5199 2344 CircleF
9759 7314 CircleF
5944 2368 CircleF
3208 5144 CircleF
3366 5266 CircleF
4200 2198 CircleF
8769 7249 CircleF
4535 2256 CircleF
9820 7221 CircleF
8637 7337 CircleF
4019 2277 CircleF
5828 2482 CircleF
3200 5341 CircleF
7686 7283 CircleF
6031 2724 CircleF
6030 2649 CircleF
5326 2352 CircleF
3313 5152 CircleF
4548 2373 CircleF
8789 7135 CircleF
4070 2221 CircleF
8525 7280 CircleF
3910 4837 CircleF
5345 2190 CircleF
3007 5276 CircleF
8890 7311 CircleF
5091 2326 CircleF
7943 7294 CircleF
7009 7188 CircleF
6534 7138 CircleF
2631 5240 CircleF
6208 7314 CircleF
2916 5098 CircleF
4177 2247 CircleF
8095 7270 CircleF
6127 7167 CircleF
7689 7280 CircleF
6383 7241 CircleF
8598 7193 CircleF
8610 7211 CircleF
3072 5145 CircleF
8513 7290 CircleF
4432 2136 CircleF
6579 7228 CircleF
6366 7229 CircleF
8803 7206 CircleF
8879 7254 CircleF
5865 2216 CircleF
4858 2140 CircleF
2810 5083 CircleF
4138 2306 CircleF
3772 5023 CircleF
4451 2305 CircleF
3632 5062 CircleF
2454 2569 CircleF
2716 5049 CircleF
3311 5230 CircleF
6275 7270 CircleF
8383 7200 CircleF
4724 2184 CircleF
4946 2251 CircleF
5694 2378 CircleF
2539 5096 CircleF
9163 7260 CircleF
5748 2262 CircleF
5139 2301 CircleF
9364 7275 CircleF
4875 2156 CircleF
8807 7144 CircleF
3590 5119 CircleF
7495 7272 CircleF
3248 5147 CircleF
5725 2194 CircleF
3152 5018 CircleF
5398 2269 CircleF
9647 7190 CircleF
6562 7296 CircleF
9635 7244 CircleF
7999 7280 CircleF
6026 2709 CircleF
5092 2213 CircleF
3538 5211 CircleF
3215 5162 CircleF
6338 7149 CircleF
2974 5180 CircleF
9773 7228 CircleF
6975 7234 CircleF
5588 2241 CircleF
6144 7239 CircleF
5139 2388 CircleF
4424 2352 CircleF
2803 5250 CircleF
3526 5237 CircleF
5542 2391 CircleF
4555 2352 CircleF
3501 5224 CircleF
3668 5059 CircleF
9412 7451 CircleF
6578 7329 CircleF
7605 7086 CircleF
4191 2247 CircleF
7720 7107 CircleF
8553 7296 CircleF
9345 7332 CircleF
9455 7180 CircleF
9284 7272 CircleF
8270 7374 CircleF
3258 5127 CircleF
7769 7353 CircleF
3549 5158 CircleF
4797 2231 CircleF
3101 5178 CircleF
5131 2368 CircleF
8518 7232 CircleF
7623 7283 CircleF
3260 5172 CircleF
3731 5110 CircleF
9612 7110 CircleF
6991 7210 CircleF
9844 7203 CircleF
8663 7216 CircleF
6482 7193 CircleF
5788 2326 CircleF
6921 7229 CircleF
8808 7244 CircleF
5760 2352 CircleF
6279 7226 CircleF
3114 5178 CircleF
8964 7223 CircleF
5580 2228 CircleF
9405 7327 CircleF
9572 7441 CircleF
5573 2135 CircleF
3031 5225 CircleF
6614 7232 CircleF
2967 5206 CircleF
6311 7337 CircleF
3588 5147 CircleF
2951 5100 CircleF
6623 7298 CircleF
9103 7291 CircleF
5338 2283 CircleF
5233 2370 CircleF
4573 2181 CircleF
4804 2272 CircleF
8903 7180 CircleF
5606 2313 CircleF
6331 7343 CircleF
4267 2342 CircleF
2623 5186 CircleF
9798 7166 CircleF
7235 7102 CircleF
7102 7241 CircleF
6405 7242 CircleF
6272 7249 CircleF
7437 7241 CircleF
3935 4741 CircleF
3856 4966 CircleF
5966 2471 CircleF
5701 2324 CircleF
9169 7270 CircleF
3090 5216 CircleF
3274 5194 CircleF
3052 5049 CircleF
3978 4303 CircleF
6230 7183 CircleF
6092 3421 CircleF
9754 7311 CircleF
8443 7285 CircleF
5928 2265 CircleF
4992 2185 CircleF
4094 2243 CircleF
8027 7241 CircleF
7980 7334 CircleF
7169 7263 CircleF
9429 7268 CircleF
7248 7055 CircleF
5445 2378 CircleF
6995 7312 CircleF
4262 2256 CircleF
9117 7206 CircleF
3824 5020 CircleF
5246 2275 CircleF
3610 5088 CircleF
8732 7130 CircleF
5660 2398 CircleF
2408 2460 CircleF
8760 7314 CircleF
9042 7324 CircleF
3691 5211 CircleF
9265 7208 CircleF
5670 2540 CircleF
3446 5036 CircleF
2565 5207 CircleF
2720 5141 CircleF
5794 2259 CircleF
5013 2166 CircleF
4632 2376 CircleF
4749 2259 CircleF
6357 7210 CircleF
7402 7234 CircleF
6978 7291 CircleF
5557 2409 CircleF
4480 2260 CircleF
7326 7219 CircleF
5658 2280 CircleF
4520 2298 CircleF
5606 2360 CircleF
4392 2331 CircleF
3962 4439 CircleF
9634 7188 CircleF
3527 5276 CircleF
3080 5118 CircleF
9034 7325 CircleF
5525 2285 CircleF
4723 2316 CircleF
4358 2350 CircleF
9155 7214 CircleF
7817 7265 CircleF
5922 2385 CircleF
7369 7265 CircleF
4893 2308 CircleF
2372 2491 CircleF
9598 7259 CircleF
2975 5065 CircleF
7432 7370 CircleF
7843 7291 CircleF
5080 2192 CircleF
4631 2215 CircleF
6408 7236 CircleF
2664 5075 CircleF
5648 2367 CircleF
7306 7094 CircleF
2364 2386 CircleF
6505 7263 CircleF
5148 2280 CircleF
7212 7172 CircleF
3828 5108 CircleF
5886 2497 CircleF
5445 2318 CircleF
6663 7252 CircleF
3577 5165 CircleF
4335 2293 CircleF
8301 7148 CircleF
4978 2425 CircleF
4179 2081 CircleF
4681 2380 CircleF
3002 5154 CircleF
2481 2796 CircleF
8305 7322 CircleF
3456 5105 CircleF
8059 7291 CircleF
3913 4927 CircleF
7941 7306 CircleF
7618 7278 CircleF
2828 5126 CircleF
9414 7373 CircleF
7740 7164 CircleF
6311 7262 CircleF
2537 4968 CircleF
5112 2321 CircleF
3549 5074 CircleF
2762 5242 CircleF
7799 7255 CircleF
8897 7448 CircleF
7596 7314 CircleF
3874 5003 CircleF
5401 2354 CircleF
3830 5096 CircleF
5213 2327 CircleF
7311 7283 CircleF
7461 7208 CircleF
5669 2332 CircleF
6680 7363 CircleF
4986 2194 CircleF
9724 7317 CircleF
7010 7325 CircleF
5252 2229 CircleF
8756 7291 CircleF
5513 2280 CircleF
6962 7226 CircleF
5466 2336 CircleF
3573 5155 CircleF
8682 7152 CircleF
4575 2247 CircleF
3586 5065 CircleF
9576 7255 CircleF
5853 2349 CircleF
7685 7329 CircleF
3153 5191 CircleF
7738 7283 CircleF
9744 7371 CircleF
6464 7285 CircleF
3567 5351 CircleF
8298 7250 CircleF
6783 7228 CircleF
6551 7345 CircleF
7736 7321 CircleF
6717 7329 CircleF
4097 2319 CircleF
7806 7278 CircleF
7685 7166 CircleF
7185 7156 CircleF
2543 5152 CircleF
2492 2830 CircleF
6417 7267 CircleF
3902 4724 CircleF
4667 2360 CircleF
2997 5217 CircleF
6206 7299 CircleF
3319 5196 CircleF
8255 7329 CircleF
4276 2181 CircleF
4274 2383 CircleF
8643 7270 CircleF
9856 7250 CircleF
7600 7335 CircleF
5111 2411 CircleF
3290 5005 CircleF
6423 7307 CircleF
7032 7350 CircleF
8171 7249 CircleF
5617 2174 CircleF
4638 2262 CircleF
9444 7188 CircleF
9167 7123 CircleF
2421 2468 CircleF
3847 4933 CircleF
2716 5165 CircleF
2401 2362 CircleF
4076 2288 CircleF
9462 7201 CircleF
6496 7332 CircleF
2857 5048 CircleF
9776 7345 CircleF
4143 2262 CircleF
8656 7316 CircleF
3165 5248 CircleF
3137 5211 CircleF
6104 3979 CircleF
4723 2195 CircleF
7038 7322 CircleF
4200 2303 CircleF
7592 7099 CircleF
5994 2593 CircleF
8934 7175 CircleF
2665 5217 CircleF
6761 7236 CircleF
8593 7210 CircleF
7668 7321 CircleF
4605 2391 CircleF
9610 7166 CircleF
5472 2432 CircleF
2811 5110 CircleF
6029 2719 CircleF
2527 4127 CircleF
7328 7389 CircleF
9415 7325 CircleF
8595 7159 CircleF
5131 2381 CircleF
6649 7164 CircleF
2632 5250 CircleF
2434 2584 CircleF
7396 7291 CircleF
7795 7272 CircleF
6933 7188 CircleF
9793 7312 CircleF
3718 5345 CircleF
7927 7250 CircleF
4579 2314 CircleF
7408 7245 CircleF
6226 7164 CircleF
5234 2079 CircleF
8453 7250 CircleF
7592 7244 CircleF
8853 7306 CircleF
5237 2084 CircleF
6003 2631 CircleF
5291 2288 CircleF
9691 7242 CircleF
6665 7241 CircleF
4022 2169 CircleF
5407 2182 CircleF
7906 7291 CircleF
5023 2367 CircleF
7273 7113 CircleF
2544 5225 CircleF
3059 5196 CircleF
4082 2159 CircleF
7626 7221 CircleF
2681 5167 CircleF
5155 2367 CircleF
4033 2363 CircleF
9006 7276 CircleF
9536 7221 CircleF
9828 7247 CircleF
6283 7242 CircleF
3006 5232 CircleF
2674 5256 CircleF
9812 7161 CircleF
7898 7252 CircleF
5318 2203 CircleF
3202 5212 CircleF
4527 2159 CircleF
7142 7306 CircleF
6599 7425 CircleF
5446 2349 CircleF
4361 2231 CircleF
8874 7263 CircleF
8035 7143 CircleF
7727 7221 CircleF
4248 2172 CircleF
5117 2414 CircleF
7684 7294 CircleF
5592 2349 CircleF
9362 7294 CircleF
4240 2380 CircleF
6720 7105 CircleF
4592 2326 CircleF
4596 2264 CircleF
2915 5235 CircleF
3649 4995 CircleF
3171 5090 CircleF
4859 2316 CircleF
7957 7312 CircleF
5528 2290 CircleF
3251 5106 CircleF
4723 2212 CircleF
2860 5051 CircleF
3314 5229 CircleF
9633 7312 CircleF
2595 5248 CircleF
6732 7291 CircleF
8332 7113 CircleF
2880 4986 CircleF
7914 7345 CircleF
6819 7307 CircleF
8395 7234 CircleF
2636 5323 CircleF
6440 7340 CircleF
4850 2272 CircleF
8108 7301 CircleF
6908 7221 CircleF
5520 2367 CircleF
4446 2375 CircleF
9129 7231 CircleF
7925 7218 CircleF
7142 7249 CircleF
4775 2309 CircleF
8105 7239 CircleF
3847 5064 CircleF
6249 7288 CircleF
2926 5168 CircleF
9298 7156 CircleF
3347 5018 CircleF
5443 2218 CircleF
7297 7324 CircleF
8750 7205 CircleF
4669 2296 CircleF
5902 2344 CircleF
5519 2386 CircleF
6209 7368 CircleF
5828 2278 CircleF
9411 7143 CircleF
4841 2340 CircleF
3807 4989 CircleF
4517 2192 CircleF
7622 7170 CircleF
5682 2308 CircleF
4481 2150 CircleF
6214 7128 CircleF
6145 7084 CircleF
3678 5142 CircleF
4701 2402 CircleF
7009 7267 CircleF
8003 7366 CircleF
7977 7263 CircleF
8814 7254 CircleF
7304 7228 CircleF
3523 5062 CircleF
8104 7321 CircleF
8642 7237 CircleF
8737 7352 CircleF
8340 7190 CircleF
2652 5263 CircleF
2406 2559 CircleF
6997 7358 CircleF
6447 7159 CircleF
2999 5201 CircleF
8371 7245 CircleF
4883 2321 CircleF
7602 7296 CircleF
9656 7183 CircleF
6040 2628 CircleF
7358 7252 CircleF
6901 7254 CircleF
5098 2339 CircleF
6489 7319 CircleF
7829 7229 CircleF
4232 2234 CircleF
4590 2252 CircleF
4945 2189 CircleF
9043 7270 CircleF
6529 7229 CircleF
5798 2430 CircleF
6500 7304 CircleF
5264 2424 CircleF
7066 7396 CircleF
9222 7275 CircleF
7817 7259 CircleF
4206 2265 CircleF
3552 5077 CircleF
8906 7143 CircleF
6875 7272 CircleF
7848 7236 CircleF
7944 7146 CircleF
5422 2265 CircleF
4822 2388 CircleF
9311 7340 CircleF
2430 2497 CircleF
7995 7223 CircleF
7495 7113 CircleF
4724 2252 CircleF
9047 7307 CircleF
6655 7384 CircleF
2747 5163 CircleF
5967 2504 CircleF
6281 7226 CircleF
9047 7285 CircleF
3082 5069 CircleF
5129 2197 CircleF
3933 4741 CircleF
2393 2399 CircleF
8667 7250 CircleF
8550 7228 CircleF
4808 2280 CircleF
5003 2256 CircleF
6600 7244 CircleF
6827 7179 CircleF
2667 5235 CircleF
7615 7206 CircleF
6108 4028 CircleF
8617 7131 CircleF
2502 3009 CircleF
8669 7280 CircleF
5458 2344 CircleF
4781 2362 CircleF
8853 7345 CircleF
8844 7396 CircleF
6640 7219 CircleF
7294 7192 CircleF
7869 7157 CircleF
7129 7247 CircleF
5044 2181 CircleF
7531 7330 CircleF
4124 2172 CircleF
6869 7347 CircleF
9646 7257 CircleF
8173 7166 CircleF
4745 2331 CircleF
3020 5248 CircleF
9098 7024 CircleF
7614 7407 CircleF
7344 7143 CircleF
4445 2287 CircleF
8113 7334 CircleF
5227 2238 CircleF
4963 2265 CircleF
7526 7224 CircleF
7299 7219 CircleF
6627 7228 CircleF
6548 7228 CircleF
8108 7183 CircleF
6563 7272 CircleF
3854 4964 CircleF
7071 7241 CircleF
3745 5039 CircleF
5450 2303 CircleF
7785 7252 CircleF
3949 4659 CircleF
6999 7378 CircleF
9448 7303 CircleF
2852 5212 CircleF
5138 2292 CircleF
4855 2332 CircleF
5656 2381 CircleF
7637 7146 CircleF
3320 5142 CircleF
6616 7291 CircleF
3290 5229 CircleF
6080 3085 CircleF
9392 7229 CircleF
6503 7311 CircleF
9410 7229 CircleF
9761 7340 CircleF
6708 7183 CircleF
5484 2254 CircleF
3685 5000 CircleF
8038 7270 CircleF
8943 7283 CircleF
5484 2221 CircleF
4382 2316 CircleF
6684 7198 CircleF
5559 2344 CircleF
7046 7157 CircleF
6632 7051 CircleF
4395 2339 CircleF
6621 7058 CircleF
9199 7255 CircleF
9830 7167 CircleF
5946 2409 CircleF
3384 5101 CircleF
4958 2352 CircleF
2386 2420 CircleF
6430 7201 CircleF
8855 7156 CircleF
8831 7221 CircleF
5678 2301 CircleF
9134 7174 CircleF
3271 4997 CircleF
7752 7299 CircleF
3617 5160 CircleF
2834 5049 CircleF
2597 5284 CircleF
3881 4937 CircleF
6933 7290 CircleF
2429 2544 CircleF
6848 7224 CircleF
4837 2368 CircleF
9075 7250 CircleF
4554 2105 CircleF
4640 2269 CircleF
3347 5134 CircleF
8783 7234 CircleF
3605 5118 CircleF
6915 7306 CircleF
8403 7206 CircleF
5729 2275 CircleF
5273 2221 CircleF
9162 7268 CircleF
4421 2269 CircleF
7864 7307 CircleF
5836 2225 CircleF
5969 2393 CircleF
8016 7232 CircleF
8696 7182 CircleF
2650 5250 CircleF
7488 7156 CircleF
3774 5051 CircleF
5131 2332 CircleF
5612 2218 CircleF
3617 5163 CircleF
6134 7262 CircleF
8832 7309 CircleF
6909 7221 CircleF
3805 5069 CircleF
2506 3050 CircleF
6694 7241 CircleF
6893 7259 CircleF
3230 5258 CircleF
8945 7368 CircleF
8095 7187 CircleF
7896 7241 CircleF
8632 7337 CircleF
5611 2329 CircleF
8336 7301 CircleF
3644 5111 CircleF
7990 7226 CircleF
6705 7314 CircleF
4160 2309 CircleF
6161 7231 CircleF
3051 5232 CircleF
3044 5242 CircleF
5020 2254 CircleF
6934 7322 CircleF
6793 7319 CircleF
7980 7278 CircleF
3945 4609 CircleF
8845 7299 CircleF
2734 5196 CircleF
5494 2295 CircleF
5403 2368 CircleF
6614 7175 CircleF
7608 7133 CircleF
9204 7254 CircleF
9039 7224 CircleF
7142 7414 CircleF
8539 7278 CircleF
7646 7291 CircleF
4781 2225 CircleF
3398 5176 CircleF
7154 7355 CircleF
9029 7228 CircleF
9299 7156 CircleF
7164 7112 CircleF
9295 7237 CircleF
3383 5274 CircleF
5494 2259 CircleF
6795 7236 CircleF
3561 5173 CircleF
4489 2153 CircleF
5204 2153 CircleF
9426 7182 CircleF
4019 2185 CircleF
5081 2290 CircleF
8654 7280 CircleF
7875 7213 CircleF
5584 2295 CircleF
5947 2399 CircleF
8268 7221 CircleF
5558 2298 CircleF
3030 5127 CircleF
8877 7441 CircleF
8343 7177 CircleF
6116 4871 CircleF
9635 7374 CircleF
9197 7272 CircleF
5363 2358 CircleF
4717 2236 CircleF
6653 7263 CircleF
2375 2463 CircleF
2491 2941 CircleF
8969 7193 CircleF
6278 7404 CircleF
5288 2257 CircleF
7977 7170 CircleF
4709 2220 CircleF
8956 7164 CircleF
2920 5211 CircleF
7986 7339 CircleF
8932 7293 CircleF
3765 5199 CircleF
3841 5015 CircleF
8405 7311 CircleF
9038 7247 CircleF
4269 2337 CircleF
9174 7252 CircleF
4697 2247 CircleF
6097 3600 CircleF
4798 2425 CircleF
9505 7270 CircleF
5131 2280 CircleF
3198 5176 CircleF
6691 7428 CircleF
8940 7236 CircleF
9357 7307 CircleF
9737 7247 CircleF
5015 2176 CircleF
2678 5263 CircleF
6858 7288 CircleF
3293 5214 CircleF
6315 7280 CircleF
6659 7206 CircleF
5895 2331 CircleF
7869 7152 CircleF
7426 7283 CircleF
2759 5082 CircleF
5106 2308 CircleF
7608 7319 CircleF
4616 2140 CircleF
3038 5253 CircleF
3660 5217 CircleF
7424 7241 CircleF
8635 7335 CircleF
6461 7203 CircleF
7467 7438 CircleF
6642 7265 CircleF
7970 7296 CircleF
3665 5261 CircleF
8570 7241 CircleF
4933 2216 CircleF
9195 7148 CircleF
3653 5114 CircleF
3994 3977 CircleF
7729 7283 CircleF
3602 5049 CircleF
2408 2647 CircleF
3111 5238 CircleF
8950 7267 CircleF
9428 7115 CircleF
3122 5031 CircleF
7434 7183 CircleF
4616 2218 CircleF
8370 7347 CircleF
6970 7162 CircleF
3984 4230 CircleF
6864 7216 CircleF
2425 2590 CircleF
4383 2396 CircleF
8384 7172 CircleF
5125 2380 CircleF
5326 2332 CircleF
5168 2182 CircleF
8245 7257 CircleF
9158 7219 CircleF
4694 2247 CircleF
3157 5309 CircleF
2676 5141 CircleF
8358 7407 CircleF
9469 7254 CircleF
6941 7211 CircleF
6805 7321 CircleF
6777 7399 CircleF
3963 4617 CircleF
9027 7263 CircleF
7028 7206 CircleF
7375 7324 CircleF
6228 7412 CircleF
8750 7327 CircleF
8238 7148 CircleF
8581 7303 CircleF
8776 7371 CircleF
6819 7213 CircleF
6844 7197 CircleF
2771 5165 CircleF
8065 7285 CircleF
5575 2365 CircleF
8279 7319 CircleF
5154 2130 CircleF
8923 7239 CircleF
4299 2184 CircleF
4241 2257 CircleF
8197 7219 CircleF
4960 2308 CircleF
5018 2229 CircleF
3834 4963 CircleF
8664 7242 CircleF
2768 5057 CircleF
7096 7198 CircleF
3917 4935 CircleF
6505 7358 CircleF
4515 2145 CircleF
2396 2429 CircleF
7511 7293 CircleF
5643 2260 CircleF
5070 2305 CircleF
6666 7079 CircleF
8721 7177 CircleF
4854 2238 CircleF
9078 7270 CircleF
4961 2128 CircleF
5204 2243 CircleF
3030 5057 CircleF
7507 7205 CircleF
2599 5113 CircleF
6013 2647 CircleF
3565 5201 CircleF
8179 7276 CircleF
5569 2495 CircleF
7824 7211 CircleF
7692 7229 CircleF
8749 7224 CircleF
7087 7260 CircleF
9794 7301 CircleF
6792 7283 CircleF
4952 2226 CircleF
3162 5168 CircleF
2541 5048 CircleF
3423 5185 CircleF
8082 7334 CircleF
4465 2354 CircleF
2994 5100 CircleF
7468 7262 CircleF
7029 7200 CircleF
8036 7294 CircleF
7612 7221 CircleF
5865 2448 CircleF
7450 7148 CircleF
4845 2241 CircleF
5682 2326 CircleF
5135 2192 CircleF
5888 2471 CircleF
7130 7283 CircleF
7328 7237 CircleF
3594 5232 CircleF
8930 7262 CircleF
4064 2357 CircleF
3452 5189 CircleF
2430 2510 CircleF
5680 2228 CircleF
7249 7229 CircleF
3025 5175 CircleF
7652 7330 CircleF
6054 2900 CircleF
9009 7293 CircleF
5884 2464 CircleF
8533 7337 CircleF
9184 7278 CircleF
6337 7237 CircleF
8264 7356 CircleF
4082 2228 CircleF
8989 7423 CircleF
8217 7384 CircleF
2495 3013 CircleF
7095 7298 CircleF
6269 7200 CircleF
5705 2257 CircleF
5895 2487 CircleF
7089 7273 CircleF
4540 2308 CircleF
7507 7317 CircleF
2922 5132 CircleF
7935 7205 CircleF
5608 2394 CircleF
6722 7265 CircleF
7703 7376 CircleF
9342 7126 CircleF
5574 2404 CircleF
7038 7414 CircleF
3666 5100 CircleF
7078 7245 CircleF
4717 2252 CircleF
5485 2360 CircleF
2372 2450 CircleF
8509 7316 CircleF
6455 7314 CircleF
7049 7229 CircleF
9310 7298 CircleF
9341 7325 CircleF
4043 2265 CircleF
9755 7252 CircleF
4240 2301 CircleF
3486 5077 CircleF
6480 7270 CircleF
4175 2376 CircleF
9545 7257 CircleF
6672 7280 CircleF
4574 2265 CircleF
4434 2171 CircleF
4029 2267 CircleF
5938 2420 CircleF
2750 5165 CircleF
9708 7356 CircleF
9052 7190 CircleF
5118 2244 CircleF
7361 7148 CircleF
5718 2313 CircleF
9849 7257 CircleF
3009 5235 CircleF
6302 7157 CircleF
6181 7368 CircleF
9748 7281 CircleF
4463 2247 CircleF
4061 2150 CircleF
7404 7245 CircleF
6407 7211 CircleF
7216 7229 CircleF
2450 2587 CircleF
6213 7306 CircleF
7240 7306 CircleF
6104 3847 CircleF
3413 5113 CircleF
2480 2788 CircleF
6364 7252 CircleF
7138 7259 CircleF
2605 5113 CircleF
9369 7285 CircleF
3892 4757 CircleF
4868 2332 CircleF
8425 7337 CircleF
7262 7273 CircleF
7288 7306 CircleF
8911 7219 CircleF
2620 5261 CircleF
7375 7159 CircleF
9764 7270 CircleF
7775 7249 CircleF
2862 5043 CircleF
2714 5080 CircleF
7972 7245 CircleF
9635 7327 CircleF
8019 7309 CircleF
8733 7236 CircleF
6024 2668 CircleF
2436 2551 CircleF
4794 2285 CircleF
7085 7267 CircleF
7105 7201 CircleF
9231 7156 CircleF
8511 7216 CircleF
6768 7198 CircleF
6218 7214 CircleF
7111 7224 CircleF
5915 2422 CircleF
4583 2352 CircleF
3903 4831 CircleF
2436 2598 CircleF
9504 7175 CircleF
6223 7379 CircleF
5626 2311 CircleF
4962 2411 CircleF
6678 7249 CircleF
5479 2354 CircleF
9009 7183 CircleF
3496 5126 CircleF
8619 7249 CircleF
% End plot #1
1.000 UP
0.500 UL
LTb
grestore % colour palette end
stroke
grestore
end
showpage
%%Trailer
%%DocumentFonts: URWPalladioL-Roma Helvetica
