%!PS-Adobe-2.0 EPSF-2.0
%%Title: ../figs/vj1.eps
%%Creator: gnuplot 4.6 patchlevel 0
%%CreationDate: Thu Aug 23 16:12:24 2012
%%DocumentFonts: (atend)
%%BoundingBox: 50 50 626 482
%%EndComments
%%BeginProlog
/gnudict 256 dict def
gnudict begin
%
% The following true/false flags may be edited by hand if desired.
% The unit line width and grayscale image gamma correction may also be changed.
%
/Color false def
/Blacktext false def
/Solid false def
/Dashlength 1 def
/Landscape false def
/Level1 false def
/Rounded false def
/ClipToBoundingBox false def
/SuppressPDFMark false def
/TransparentPatterns false def
/gnulinewidth 5.000 def
/userlinewidth gnulinewidth def
/Gamma 1.0 def
/BackgroundColor {-1.000 -1.000 -1.000} def
%
/vshift -160 def
/dl1 {
  10.0 Dashlength mul mul
  Rounded { currentlinewidth 0.75 mul sub dup 0 le { pop 0.01 } if } if
} def
/dl2 {
  10.0 Dashlength mul mul
  Rounded { currentlinewidth 0.75 mul add } if
} def
/hpt_ 31.5 def
/vpt_ 31.5 def
/hpt hpt_ def
/vpt vpt_ def
/doclip {
  ClipToBoundingBox {
    newpath 50 50 moveto 626 50 lineto 626 482 lineto 50 482 lineto closepath
    clip
  } if
} def
%
% Gnuplot Prolog Version 4.4 (August 2010)
%
%/SuppressPDFMark true def
%
/M {moveto} bind def
/L {lineto} bind def
/R {rmoveto} bind def
/V {rlineto} bind def
/N {newpath moveto} bind def
/Z {closepath} bind def
/C {setrgbcolor} bind def
/f {rlineto fill} bind def
/g {setgray} bind def
/Gshow {show} def   % May be redefined later in the file to support UTF-8
/vpt2 vpt 2 mul def
/hpt2 hpt 2 mul def
/Lshow {currentpoint stroke M 0 vshift R 
	Blacktext {gsave 0 setgray show grestore} {show} ifelse} def
/Rshow {currentpoint stroke M dup stringwidth pop neg vshift R
	Blacktext {gsave 0 setgray show grestore} {show} ifelse} def
/Cshow {currentpoint stroke M dup stringwidth pop -2 div vshift R 
	Blacktext {gsave 0 setgray show grestore} {show} ifelse} def
/UP {dup vpt_ mul /vpt exch def hpt_ mul /hpt exch def
  /hpt2 hpt 2 mul def /vpt2 vpt 2 mul def} def
/DL {Color {setrgbcolor Solid {pop []} if 0 setdash}
 {pop pop pop 0 setgray Solid {pop []} if 0 setdash} ifelse} def
/BL {stroke userlinewidth 2 mul setlinewidth
	Rounded {1 setlinejoin 1 setlinecap} if} def
/AL {stroke userlinewidth 2 div setlinewidth
	Rounded {1 setlinejoin 1 setlinecap} if} def
/UL {dup gnulinewidth mul /userlinewidth exch def
	dup 1 lt {pop 1} if 10 mul /udl exch def} def
/PL {stroke userlinewidth setlinewidth
	Rounded {1 setlinejoin 1 setlinecap} if} def
3.8 setmiterlimit
% Default Line colors
/LCw {1 1 1} def
/LCb {0 0 0} def
/LCa {0 0 0} def
/LC0 {1 0 0} def
/LC1 {0 1 0} def
/LC2 {0 0 1} def
/LC3 {1 0 1} def
/LC4 {0 1 1} def
/LC5 {1 1 0} def
/LC6 {0 0 0} def
/LC7 {1 0.3 0} def
/LC8 {0.5 0.5 0.5} def
% Default Line Types
/LTw {PL [] 1 setgray} def
/LTb {BL [] LCb DL} def
/LTa {AL [1 udl mul 2 udl mul] 0 setdash LCa setrgbcolor} def
/LT0 {PL [] LC0 DL} def
/LT1 {PL [4 dl1 2 dl2] LC1 DL} def
/LT2 {PL [2 dl1 3 dl2] LC2 DL} def
/LT3 {PL [1 dl1 1.5 dl2] LC3 DL} def
/LT4 {PL [6 dl1 2 dl2 1 dl1 2 dl2] LC4 DL} def
/LT5 {PL [3 dl1 3 dl2 1 dl1 3 dl2] LC5 DL} def
/LT6 {PL [2 dl1 2 dl2 2 dl1 6 dl2] LC6 DL} def
/LT7 {PL [1 dl1 2 dl2 6 dl1 2 dl2 1 dl1 2 dl2] LC7 DL} def
/LT8 {PL [2 dl1 2 dl2 2 dl1 2 dl2 2 dl1 2 dl2 2 dl1 4 dl2] LC8 DL} def
/Pnt {stroke [] 0 setdash gsave 1 setlinecap M 0 0 V stroke grestore} def
/Dia {stroke [] 0 setdash 2 copy vpt add M
  hpt neg vpt neg V hpt vpt neg V
  hpt vpt V hpt neg vpt V closepath stroke
  Pnt} def
/Pls {stroke [] 0 setdash vpt sub M 0 vpt2 V
  currentpoint stroke M
  hpt neg vpt neg R hpt2 0 V stroke
 } def
/Box {stroke [] 0 setdash 2 copy exch hpt sub exch vpt add M
  0 vpt2 neg V hpt2 0 V 0 vpt2 V
  hpt2 neg 0 V closepath stroke
  Pnt} def
/Crs {stroke [] 0 setdash exch hpt sub exch vpt add M
  hpt2 vpt2 neg V currentpoint stroke M
  hpt2 neg 0 R hpt2 vpt2 V stroke} def
/TriU {stroke [] 0 setdash 2 copy vpt 1.12 mul add M
  hpt neg vpt -1.62 mul V
  hpt 2 mul 0 V
  hpt neg vpt 1.62 mul V closepath stroke
  Pnt} def
/Star {2 copy Pls Crs} def
/BoxF {stroke [] 0 setdash exch hpt sub exch vpt add M
  0 vpt2 neg V hpt2 0 V 0 vpt2 V
  hpt2 neg 0 V closepath fill} def
/TriUF {stroke [] 0 setdash vpt 1.12 mul add M
  hpt neg vpt -1.62 mul V
  hpt 2 mul 0 V
  hpt neg vpt 1.62 mul V closepath fill} def
/TriD {stroke [] 0 setdash 2 copy vpt 1.12 mul sub M
  hpt neg vpt 1.62 mul V
  hpt 2 mul 0 V
  hpt neg vpt -1.62 mul V closepath stroke
  Pnt} def
/TriDF {stroke [] 0 setdash vpt 1.12 mul sub M
  hpt neg vpt 1.62 mul V
  hpt 2 mul 0 V
  hpt neg vpt -1.62 mul V closepath fill} def
/DiaF {stroke [] 0 setdash vpt add M
  hpt neg vpt neg V hpt vpt neg V
  hpt vpt V hpt neg vpt V closepath fill} def
/Pent {stroke [] 0 setdash 2 copy gsave
  translate 0 hpt M 4 {72 rotate 0 hpt L} repeat
  closepath stroke grestore Pnt} def
/PentF {stroke [] 0 setdash gsave
  translate 0 hpt M 4 {72 rotate 0 hpt L} repeat
  closepath fill grestore} def
/Circle {stroke [] 0 setdash 2 copy
  hpt 0 360 arc stroke Pnt} def
/CircleF {stroke [] 0 setdash hpt 0 360 arc fill} def
/C0 {BL [] 0 setdash 2 copy moveto vpt 90 450 arc} bind def
/C1 {BL [] 0 setdash 2 copy moveto
	2 copy vpt 0 90 arc closepath fill
	vpt 0 360 arc closepath} bind def
/C2 {BL [] 0 setdash 2 copy moveto
	2 copy vpt 90 180 arc closepath fill
	vpt 0 360 arc closepath} bind def
/C3 {BL [] 0 setdash 2 copy moveto
	2 copy vpt 0 180 arc closepath fill
	vpt 0 360 arc closepath} bind def
/C4 {BL [] 0 setdash 2 copy moveto
	2 copy vpt 180 270 arc closepath fill
	vpt 0 360 arc closepath} bind def
/C5 {BL [] 0 setdash 2 copy moveto
	2 copy vpt 0 90 arc
	2 copy moveto
	2 copy vpt 180 270 arc closepath fill
	vpt 0 360 arc} bind def
/C6 {BL [] 0 setdash 2 copy moveto
	2 copy vpt 90 270 arc closepath fill
	vpt 0 360 arc closepath} bind def
/C7 {BL [] 0 setdash 2 copy moveto
	2 copy vpt 0 270 arc closepath fill
	vpt 0 360 arc closepath} bind def
/C8 {BL [] 0 setdash 2 copy moveto
	2 copy vpt 270 360 arc closepath fill
	vpt 0 360 arc closepath} bind def
/C9 {BL [] 0 setdash 2 copy moveto
	2 copy vpt 270 450 arc closepath fill
	vpt 0 360 arc closepath} bind def
/C10 {BL [] 0 setdash 2 copy 2 copy moveto vpt 270 360 arc closepath fill
	2 copy moveto
	2 copy vpt 90 180 arc closepath fill
	vpt 0 360 arc closepath} bind def
/C11 {BL [] 0 setdash 2 copy moveto
	2 copy vpt 0 180 arc closepath fill
	2 copy moveto
	2 copy vpt 270 360 arc closepath fill
	vpt 0 360 arc closepath} bind def
/C12 {BL [] 0 setdash 2 copy moveto
	2 copy vpt 180 360 arc closepath fill
	vpt 0 360 arc closepath} bind def
/C13 {BL [] 0 setdash 2 copy moveto
	2 copy vpt 0 90 arc closepath fill
	2 copy moveto
	2 copy vpt 180 360 arc closepath fill
	vpt 0 360 arc closepath} bind def
/C14 {BL [] 0 setdash 2 copy moveto
	2 copy vpt 90 360 arc closepath fill
	vpt 0 360 arc} bind def
/C15 {BL [] 0 setdash 2 copy vpt 0 360 arc closepath fill
	vpt 0 360 arc closepath} bind def
/Rec {newpath 4 2 roll moveto 1 index 0 rlineto 0 exch rlineto
	neg 0 rlineto closepath} bind def
/Square {dup Rec} bind def
/Bsquare {vpt sub exch vpt sub exch vpt2 Square} bind def
/S0 {BL [] 0 setdash 2 copy moveto 0 vpt rlineto BL Bsquare} bind def
/S1 {BL [] 0 setdash 2 copy vpt Square fill Bsquare} bind def
/S2 {BL [] 0 setdash 2 copy exch vpt sub exch vpt Square fill Bsquare} bind def
/S3 {BL [] 0 setdash 2 copy exch vpt sub exch vpt2 vpt Rec fill Bsquare} bind def
/S4 {BL [] 0 setdash 2 copy exch vpt sub exch vpt sub vpt Square fill Bsquare} bind def
/S5 {BL [] 0 setdash 2 copy 2 copy vpt Square fill
	exch vpt sub exch vpt sub vpt Square fill Bsquare} bind def
/S6 {BL [] 0 setdash 2 copy exch vpt sub exch vpt sub vpt vpt2 Rec fill Bsquare} bind def
/S7 {BL [] 0 setdash 2 copy exch vpt sub exch vpt sub vpt vpt2 Rec fill
	2 copy vpt Square fill Bsquare} bind def
/S8 {BL [] 0 setdash 2 copy vpt sub vpt Square fill Bsquare} bind def
/S9 {BL [] 0 setdash 2 copy vpt sub vpt vpt2 Rec fill Bsquare} bind def
/S10 {BL [] 0 setdash 2 copy vpt sub vpt Square fill 2 copy exch vpt sub exch vpt Square fill
	Bsquare} bind def
/S11 {BL [] 0 setdash 2 copy vpt sub vpt Square fill 2 copy exch vpt sub exch vpt2 vpt Rec fill
	Bsquare} bind def
/S12 {BL [] 0 setdash 2 copy exch vpt sub exch vpt sub vpt2 vpt Rec fill Bsquare} bind def
/S13 {BL [] 0 setdash 2 copy exch vpt sub exch vpt sub vpt2 vpt Rec fill
	2 copy vpt Square fill Bsquare} bind def
/S14 {BL [] 0 setdash 2 copy exch vpt sub exch vpt sub vpt2 vpt Rec fill
	2 copy exch vpt sub exch vpt Square fill Bsquare} bind def
/S15 {BL [] 0 setdash 2 copy Bsquare fill Bsquare} bind def
/D0 {gsave translate 45 rotate 0 0 S0 stroke grestore} bind def
/D1 {gsave translate 45 rotate 0 0 S1 stroke grestore} bind def
/D2 {gsave translate 45 rotate 0 0 S2 stroke grestore} bind def
/D3 {gsave translate 45 rotate 0 0 S3 stroke grestore} bind def
/D4 {gsave translate 45 rotate 0 0 S4 stroke grestore} bind def
/D5 {gsave translate 45 rotate 0 0 S5 stroke grestore} bind def
/D6 {gsave translate 45 rotate 0 0 S6 stroke grestore} bind def
/D7 {gsave translate 45 rotate 0 0 S7 stroke grestore} bind def
/D8 {gsave translate 45 rotate 0 0 S8 stroke grestore} bind def
/D9 {gsave translate 45 rotate 0 0 S9 stroke grestore} bind def
/D10 {gsave translate 45 rotate 0 0 S10 stroke grestore} bind def
/D11 {gsave translate 45 rotate 0 0 S11 stroke grestore} bind def
/D12 {gsave translate 45 rotate 0 0 S12 stroke grestore} bind def
/D13 {gsave translate 45 rotate 0 0 S13 stroke grestore} bind def
/D14 {gsave translate 45 rotate 0 0 S14 stroke grestore} bind def
/D15 {gsave translate 45 rotate 0 0 S15 stroke grestore} bind def
/DiaE {stroke [] 0 setdash vpt add M
  hpt neg vpt neg V hpt vpt neg V
  hpt vpt V hpt neg vpt V closepath stroke} def
/BoxE {stroke [] 0 setdash exch hpt sub exch vpt add M
  0 vpt2 neg V hpt2 0 V 0 vpt2 V
  hpt2 neg 0 V closepath stroke} def
/TriUE {stroke [] 0 setdash vpt 1.12 mul add M
  hpt neg vpt -1.62 mul V
  hpt 2 mul 0 V
  hpt neg vpt 1.62 mul V closepath stroke} def
/TriDE {stroke [] 0 setdash vpt 1.12 mul sub M
  hpt neg vpt 1.62 mul V
  hpt 2 mul 0 V
  hpt neg vpt -1.62 mul V closepath stroke} def
/PentE {stroke [] 0 setdash gsave
  translate 0 hpt M 4 {72 rotate 0 hpt L} repeat
  closepath stroke grestore} def
/CircE {stroke [] 0 setdash 
  hpt 0 360 arc stroke} def
/Opaque {gsave closepath 1 setgray fill grestore 0 setgray closepath} def
/DiaW {stroke [] 0 setdash vpt add M
  hpt neg vpt neg V hpt vpt neg V
  hpt vpt V hpt neg vpt V Opaque stroke} def
/BoxW {stroke [] 0 setdash exch hpt sub exch vpt add M
  0 vpt2 neg V hpt2 0 V 0 vpt2 V
  hpt2 neg 0 V Opaque stroke} def
/TriUW {stroke [] 0 setdash vpt 1.12 mul add M
  hpt neg vpt -1.62 mul V
  hpt 2 mul 0 V
  hpt neg vpt 1.62 mul V Opaque stroke} def
/TriDW {stroke [] 0 setdash vpt 1.12 mul sub M
  hpt neg vpt 1.62 mul V
  hpt 2 mul 0 V
  hpt neg vpt -1.62 mul V Opaque stroke} def
/PentW {stroke [] 0 setdash gsave
  translate 0 hpt M 4 {72 rotate 0 hpt L} repeat
  Opaque stroke grestore} def
/CircW {stroke [] 0 setdash 
  hpt 0 360 arc Opaque stroke} def
/BoxFill {gsave Rec 1 setgray fill grestore} def
/Density {
  /Fillden exch def
  currentrgbcolor
  /ColB exch def /ColG exch def /ColR exch def
  /ColR ColR Fillden mul Fillden sub 1 add def
  /ColG ColG Fillden mul Fillden sub 1 add def
  /ColB ColB Fillden mul Fillden sub 1 add def
  ColR ColG ColB setrgbcolor} def
/BoxColFill {gsave Rec PolyFill} def
/PolyFill {gsave Density fill grestore grestore} def
/h {rlineto rlineto rlineto gsave closepath fill grestore} bind def
%
% PostScript Level 1 Pattern Fill routine for rectangles
% Usage: x y w h s a XX PatternFill
%	x,y = lower left corner of box to be filled
%	w,h = width and height of box
%	  a = angle in degrees between lines and x-axis
%	 XX = 0/1 for no/yes cross-hatch
%
/PatternFill {gsave /PFa [ 9 2 roll ] def
  PFa 0 get PFa 2 get 2 div add PFa 1 get PFa 3 get 2 div add translate
  PFa 2 get -2 div PFa 3 get -2 div PFa 2 get PFa 3 get Rec
  gsave 1 setgray fill grestore clip
  currentlinewidth 0.5 mul setlinewidth
  /PFs PFa 2 get dup mul PFa 3 get dup mul add sqrt def
  0 0 M PFa 5 get rotate PFs -2 div dup translate
  0 1 PFs PFa 4 get div 1 add floor cvi
	{PFa 4 get mul 0 M 0 PFs V} for
  0 PFa 6 get ne {
	0 1 PFs PFa 4 get div 1 add floor cvi
	{PFa 4 get mul 0 2 1 roll M PFs 0 V} for
 } if
  stroke grestore} def
%
/languagelevel where
 {pop languagelevel} {1} ifelse
 2 lt
	{/InterpretLevel1 true def}
	{/InterpretLevel1 Level1 def}
 ifelse
%
% PostScript level 2 pattern fill definitions
%
/Level2PatternFill {
/Tile8x8 {/PaintType 2 /PatternType 1 /TilingType 1 /BBox [0 0 8 8] /XStep 8 /YStep 8}
	bind def
/KeepColor {currentrgbcolor [/Pattern /DeviceRGB] setcolorspace} bind def
<< Tile8x8
 /PaintProc {0.5 setlinewidth pop 0 0 M 8 8 L 0 8 M 8 0 L stroke} 
>> matrix makepattern
/Pat1 exch def
<< Tile8x8
 /PaintProc {0.5 setlinewidth pop 0 0 M 8 8 L 0 8 M 8 0 L stroke
	0 4 M 4 8 L 8 4 L 4 0 L 0 4 L stroke}
>> matrix makepattern
/Pat2 exch def
<< Tile8x8
 /PaintProc {0.5 setlinewidth pop 0 0 M 0 8 L
	8 8 L 8 0 L 0 0 L fill}
>> matrix makepattern
/Pat3 exch def
<< Tile8x8
 /PaintProc {0.5 setlinewidth pop -4 8 M 8 -4 L
	0 12 M 12 0 L stroke}
>> matrix makepattern
/Pat4 exch def
<< Tile8x8
 /PaintProc {0.5 setlinewidth pop -4 0 M 8 12 L
	0 -4 M 12 8 L stroke}
>> matrix makepattern
/Pat5 exch def
<< Tile8x8
 /PaintProc {0.5 setlinewidth pop -2 8 M 4 -4 L
	0 12 M 8 -4 L 4 12 M 10 0 L stroke}
>> matrix makepattern
/Pat6 exch def
<< Tile8x8
 /PaintProc {0.5 setlinewidth pop -2 0 M 4 12 L
	0 -4 M 8 12 L 4 -4 M 10 8 L stroke}
>> matrix makepattern
/Pat7 exch def
<< Tile8x8
 /PaintProc {0.5 setlinewidth pop 8 -2 M -4 4 L
	12 0 M -4 8 L 12 4 M 0 10 L stroke}
>> matrix makepattern
/Pat8 exch def
<< Tile8x8
 /PaintProc {0.5 setlinewidth pop 0 -2 M 12 4 L
	-4 0 M 12 8 L -4 4 M 8 10 L stroke}
>> matrix makepattern
/Pat9 exch def
/Pattern1 {PatternBgnd KeepColor Pat1 setpattern} bind def
/Pattern2 {PatternBgnd KeepColor Pat2 setpattern} bind def
/Pattern3 {PatternBgnd KeepColor Pat3 setpattern} bind def
/Pattern4 {PatternBgnd KeepColor Landscape {Pat5} {Pat4} ifelse setpattern} bind def
/Pattern5 {PatternBgnd KeepColor Landscape {Pat4} {Pat5} ifelse setpattern} bind def
/Pattern6 {PatternBgnd KeepColor Landscape {Pat9} {Pat6} ifelse setpattern} bind def
/Pattern7 {PatternBgnd KeepColor Landscape {Pat8} {Pat7} ifelse setpattern} bind def
} def
%
%
%End of PostScript Level 2 code
%
/PatternBgnd {
  TransparentPatterns {} {gsave 1 setgray fill grestore} ifelse
} def
%
% Substitute for Level 2 pattern fill codes with
% grayscale if Level 2 support is not selected.
%
/Level1PatternFill {
/Pattern1 {0.250 Density} bind def
/Pattern2 {0.500 Density} bind def
/Pattern3 {0.750 Density} bind def
/Pattern4 {0.125 Density} bind def
/Pattern5 {0.375 Density} bind def
/Pattern6 {0.625 Density} bind def
/Pattern7 {0.875 Density} bind def
} def
%
% Now test for support of Level 2 code
%
Level1 {Level1PatternFill} {Level2PatternFill} ifelse
%
/Symbol-Oblique /Symbol findfont [1 0 .167 1 0 0] makefont
dup length dict begin {1 index /FID eq {pop pop} {def} ifelse} forall
currentdict end definefont pop
/MFshow {
   { dup 5 get 3 ge
     { 5 get 3 eq {gsave} {grestore} ifelse }
     {dup dup 0 get findfont exch 1 get scalefont setfont
     [ currentpoint ] exch dup 2 get 0 exch R dup 5 get 2 ne {dup dup 6
     get exch 4 get {Gshow} {stringwidth pop 0 R} ifelse }if dup 5 get 0 eq
     {dup 3 get {2 get neg 0 exch R pop} {pop aload pop M} ifelse} {dup 5
     get 1 eq {dup 2 get exch dup 3 get exch 6 get stringwidth pop -2 div
     dup 0 R} {dup 6 get stringwidth pop -2 div 0 R 6 get
     show 2 index {aload pop M neg 3 -1 roll neg R pop pop} {pop pop pop
     pop aload pop M} ifelse }ifelse }ifelse }
     ifelse }
   forall} def
/Gswidth {dup type /stringtype eq {stringwidth} {pop (n) stringwidth} ifelse} def
/MFwidth {0 exch { dup 5 get 3 ge { 5 get 3 eq { 0 } { pop } ifelse }
 {dup 3 get{dup dup 0 get findfont exch 1 get scalefont setfont
     6 get Gswidth pop add} {pop} ifelse} ifelse} forall} def
/MLshow { currentpoint stroke M
  0 exch R
  Blacktext {gsave 0 setgray MFshow grestore} {MFshow} ifelse } bind def
/MRshow { currentpoint stroke M
  exch dup MFwidth neg 3 -1 roll R
  Blacktext {gsave 0 setgray MFshow grestore} {MFshow} ifelse } bind def
/MCshow { currentpoint stroke M
  exch dup MFwidth -2 div 3 -1 roll R
  Blacktext {gsave 0 setgray MFshow grestore} {MFshow} ifelse } bind def
/XYsave    { [( ) 1 2 true false 3 ()] } bind def
/XYrestore { [( ) 1 2 true false 4 ()] } bind def
Level1 SuppressPDFMark or 
{} {
/SDict 10 dict def
systemdict /pdfmark known not {
  userdict /pdfmark systemdict /cleartomark get put
} if
SDict begin [
  /Title (../figs/vj1.eps)
  /Subject (gnuplot plot)
  /Creator (gnuplot 4.6 patchlevel 0)
  /Author (paul)
%  /Producer (gnuplot)
%  /Keywords ()
  /CreationDate (Thu Aug 23 16:12:24 2012)
  /DOCINFO pdfmark
end
} ifelse
end
%%EndProlog
%%Page: 1 1
gnudict begin
gsave
doclip
50 50 translate
0.050 0.050 scale
0 setgray
newpath
(Helvetica) findfont 480 scalefont setfont
BackgroundColor 0 lt 3 1 roll 0 lt exch 0 lt or or not {BackgroundColor C 1.000 0 0 11520.00 8640.00 BoxColFill} if
gsave % colour palette begin
/maxcolors 64 def
/HSV2RGB {  exch dup 0.0 eq {pop exch pop dup dup} % achromatic gray
  { /HSVs exch def /HSVv exch def 6.0 mul dup floor dup 3 1 roll sub
     /HSVf exch def /HSVi exch cvi def /HSVp HSVv 1.0 HSVs sub mul def
	 /HSVq HSVv 1.0 HSVs HSVf mul sub mul def 
	 /HSVt HSVv 1.0 HSVs 1.0 HSVf sub mul sub mul def
	 /HSVi HSVi 6 mod def 0 HSVi eq {HSVv HSVt HSVp}
	 {1 HSVi eq {HSVq HSVv HSVp}{2 HSVi eq {HSVp HSVv HSVt}
	 {3 HSVi eq {HSVp HSVq HSVv}{4 HSVi eq {HSVt HSVp HSVv}
	 {HSVv HSVp HSVq} ifelse} ifelse} ifelse} ifelse} ifelse
  } ifelse} def
/Constrain {
  dup 0 lt {0 exch pop}{dup 1 gt {1 exch pop} if} ifelse} def
/YIQ2RGB {
  3 copy -1.702 mul exch -1.105 mul add add Constrain 4 1 roll
  3 copy -0.647 mul exch -0.272 mul add add Constrain 5 1 roll
  0.621 mul exch -0.956 mul add add Constrain 3 1 roll } def
/CMY2RGB {  1 exch sub exch 1 exch sub 3 2 roll 1 exch sub 3 1 roll exch } def
/XYZ2RGB {  3 copy -0.9017 mul exch -0.1187 mul add exch 0.0585 mul exch add
  Constrain 4 1 roll 3 copy -0.0279 mul exch 1.999 mul add exch
  -0.9844 mul add Constrain 5 1 roll -0.2891 mul exch -0.5338 mul add
  exch 1.91 mul exch add Constrain 3 1 roll} def
/SelectSpace {ColorSpace (HSV) eq {HSV2RGB}{ColorSpace (XYZ) eq {
  XYZ2RGB}{ColorSpace (CMY) eq {CMY2RGB}{ColorSpace (YIQ) eq {YIQ2RGB}
  if} ifelse} ifelse} ifelse} def
/InterpolatedColor true def
/grayindex {/gidx 0 def
  {GrayA gidx get grayv ge {exit} if /gidx gidx 1 add def} loop} def
/dgdx {grayv GrayA gidx get sub GrayA gidx 1 sub get
  GrayA gidx get sub div} def 
/redvalue {RedA gidx get RedA gidx 1 sub get
  RedA gidx get sub dgdxval mul add} def
/greenvalue {GreenA gidx get GreenA gidx 1 sub get
  GreenA gidx get sub dgdxval mul add} def
/bluevalue {BlueA gidx get BlueA gidx 1 sub get
  BlueA gidx get sub dgdxval mul add} def
/interpolate {
  grayindex grayv GrayA gidx get sub abs 1e-5 le
    {RedA gidx get GreenA gidx get BlueA gidx get}
    {/dgdxval dgdx def redvalue greenvalue bluevalue} ifelse} def
/GrayA [0 .0159 .0317 .0476 .0635 .0794 .0952 .1111 .127 .1429 .1587 .1746 
  .1905 .2063 .2222 .2381 .254 .2698 .2857 .3016 .3175 .3333 .3492 .3651 
  .381 .3968 .4127 .4286 .4444 .4603 .4762 .4921 .5079 .5238 .5397 .5556 
  .5714 .5873 .6032 .619 .6349 .6508 .6667 .6825 .6984 .7143 .7302 .746 
  .7619 .7778 .7937 .8095 .8254 .8413 .8571 .873 .8889 .9048 .9206 .9365 
  .9524 .9683 .9841 1 ] def
/RedA [0 0 0 0 0 0 0 0 0 0 0 0 0 0 0 0 0 0 0 0 0 0 0 0 .0238 .0873 .1508 
  .2143 .2778 .3413 .4048 .4683 .5317 .5952 .6587 .7222 .7857 .8492 .9127 
  .9762 1 1 1 1 1 1 1 1 1 1 1 1 1 1 1 1 .9444 .881 .8175 .754 .6905 .627 
  .5635 .5 ] def
/GreenA [0 0 0 0 0 0 0 0 .0079 .0714 .1349 .1984 .2619 .3254 .3889 .4524 
  .5159 .5794 .6429 .7063 .7698 .8333 .8968 .9603 1 1 1 1 1 1 1 1 1 1 1 1 1 
  1 1 1 .9603 .8968 .8333 .7698 .7063 .6429 .5794 .5159 .4524 .3889 .3254 
  .2619 .1984 .1349 .0714 .0079 0 0 0 0 0 0 0 0 ] def
/BlueA [.5 .5635 .627 .6905 .754 .8175 .881 .9444 1 1 1 1 1 1 1 1 1 1 1 1 1 
  1 1 1 .9762 .9127 .8492 .7857 .7222 .6587 .5952 .5317 .4683 .4048 .3413 
  .2778 .2143 .1508 .0873 .0238 0 0 0 0 0 0 0 0 0 0 0 0 0 0 0 0 0 0 0 0 0 0 
  0 0 ] def
/pm3dround {maxcolors 0 gt {dup 1 ge
	{pop 1} {maxcolors mul floor maxcolors 1 sub div} ifelse} if} def
/pm3dGamma 1.0 1.5 Gamma mul div def
/ColorSpace (RGB) def
Color InterpolatedColor or { % COLOUR vs. GRAY map
  InterpolatedColor { %% Interpolation vs. RGB-Formula
    /g {stroke pm3dround /grayv exch def interpolate
        SelectSpace setrgbcolor} bind def
  }{
  /g {stroke pm3dround dup cF7 Constrain exch dup cF5 Constrain exch cF15 Constrain 
       SelectSpace setrgbcolor} bind def
  } ifelse
}{
  /g {stroke pm3dround pm3dGamma exp setgray} bind def
} ifelse
0.500 UL
LTb
2064 1536 M
88 0 V
8503 0 R
-88 0 V
stroke
0.00 0.00 0.00 C 1776 1536 M
[ [(URWPalladioL-Roma) 480.0 0.0 true true 0 (-25)]
] -160.0 MRshow
0.500 UL
LTb
2064 2841 M
88 0 V
8503 0 R
-88 0 V
stroke
0.00 0.00 0.00 C 1776 2841 M
[ [(URWPalladioL-Roma) 480.0 0.0 true true 0 (-20)]
] -160.0 MRshow
0.500 UL
LTb
2064 4147 M
88 0 V
8503 0 R
-88 0 V
stroke
0.00 0.00 0.00 C 1776 4147 M
[ [(URWPalladioL-Roma) 480.0 0.0 true true 0 (-15)]
] -160.0 MRshow
0.500 UL
LTb
2064 5452 M
88 0 V
8503 0 R
-88 0 V
stroke
0.00 0.00 0.00 C 1776 5452 M
[ [(URWPalladioL-Roma) 480.0 0.0 true true 0 (-10)]
] -160.0 MRshow
0.500 UL
LTb
2064 6758 M
88 0 V
8503 0 R
-88 0 V
stroke
0.00 0.00 0.00 C 1776 6758 M
[ [(URWPalladioL-Roma) 480.0 0.0 true true 0 (-5)]
] -160.0 MRshow
0.500 UL
LTb
2064 8063 M
88 0 V
8503 0 R
-88 0 V
stroke
0.00 0.00 0.00 C 1776 8063 M
[ [(URWPalladioL-Roma) 480.0 0.0 true true 0 (0)]
] -160.0 MRshow
0.500 UL
LTb
2064 1536 M
0 88 V
0 6439 R
0 -88 V
stroke
0.00 0.00 0.00 C 2064 1056 M
[ [(URWPalladioL-Roma) 480.0 0.0 true true 0 (0)]
] -160.0 MCshow
0.500 UL
LTb
3496 1536 M
0 88 V
0 6439 R
0 -88 V
stroke
0.00 0.00 0.00 C 3496 1056 M
[ [(URWPalladioL-Roma) 480.0 0.0 true true 0 (2000)]
] -160.0 MCshow
0.500 UL
LTb
4928 1536 M
0 88 V
0 6439 R
0 -88 V
stroke
0.00 0.00 0.00 C 4928 1056 M
[ [(URWPalladioL-Roma) 480.0 0.0 true true 0 (4000)]
] -160.0 MCshow
0.500 UL
LTb
6360 1536 M
0 88 V
0 6439 R
0 -88 V
stroke
0.00 0.00 0.00 C 6360 1056 M
[ [(URWPalladioL-Roma) 480.0 0.0 true true 0 (6000)]
] -160.0 MCshow
0.500 UL
LTb
7791 1536 M
0 88 V
0 6439 R
0 -88 V
stroke
0.00 0.00 0.00 C 7791 1056 M
[ [(URWPalladioL-Roma) 480.0 0.0 true true 0 (8000)]
] -160.0 MCshow
0.500 UL
LTb
9223 1536 M
0 88 V
0 6439 R
0 -88 V
stroke
0.00 0.00 0.00 C 9223 1056 M
[ [(URWPalladioL-Roma) 480.0 0.0 true true 0 (10000)]
] -160.0 MCshow
0.500 UL
LTb
10655 1536 M
0 88 V
0 6439 R
0 -88 V
stroke
0.00 0.00 0.00 C 10655 1056 M
[ [(URWPalladioL-Roma) 480.0 0.0 true true 0 (12000)]
] -160.0 MCshow
0.500 UL
LTb
0.500 UL
LTb
2064 8063 N
0 -6527 V
8591 0 V
0 6527 V
-8591 0 V
Z stroke
0.00 0.00 0.00 C 384 4799 M
currentpoint gsave translate 90 rotate 0 0 moveto
[ [(URWPalladioL-Roma) 480.0 0.0 true true 0 (Value)]
] -160.0 MCshow
grestore
LTb
0.00 0.00 0.00 C 6359 336 M
[ [(URWPalladioL-Roma) 480.0 0.0 true true 0 (Cumulative spending \(x\))]
] -160.0 MCshow
LTb
1.000 UP
0.500 UL
LTb
% Begin plot #1
1.333 UP
8.000 UL
LT0
0.00 0.00 1.00 C 5932 6448 CircleF
4388 3167 CircleF
8610 7826 CircleF
6959 7806 CircleF
5010 3349 CircleF
9728 7809 CircleF
5781 4693 CircleF
2950 6210 CircleF
3113 6150 CircleF
3976 3276 CircleF
8703 7821 CircleF
4323 3036 CircleF
9791 7807 CircleF
8567 7818 CircleF
3789 3356 CircleF
5660 4111 CircleF
2942 6228 CircleF
7583 7819 CircleF
5870 5346 CircleF
5869 5385 CircleF
5141 3493 CircleF
3059 6255 CircleF
4336 3236 CircleF
8724 7820 CircleF
3842 2898 CircleF
8451 7819 CircleF
3676 4669 CircleF
5161 3462 CircleF
2741 6304 CircleF
8829 7813 CircleF
4898 3350 CircleF
7849 7821 CircleF
6882 7808 CircleF
6391 7820 CircleF
2353 6469 CircleF
6054 7816 CircleF
2647 6190 CircleF
3952 3061 CircleF
8006 7824 CircleF
5970 7794 CircleF
7586 7804 CircleF
6235 7810 CircleF
8527 7824 CircleF
8539 7813 CircleF
2809 6285 CircleF
8438 7814 CircleF
4216 3248 CircleF
6437 7813 CircleF
6217 7802 CircleF
8739 7811 CircleF
8818 7818 CircleF
5699 4406 CircleF
4657 3164 CircleF
2538 6440 CircleF
3912 3222 CircleF
3533 5543 CircleF
4236 3127 CircleF
3389 5645 CircleF
2169 4869 CircleF
2440 6380 CircleF
3056 6306 CircleF
6123 7823 CircleF
8305 7816 CircleF
4518 3349 CircleF
4748 3412 CircleF
5522 3907 CircleF
2257 6524 CircleF
9112 7818 CircleF
5578 4001 CircleF
4948 3067 CircleF
9319 7815 CircleF
4675 3479 CircleF
8743 7809 CircleF
3345 5802 CircleF
7385 7815 CircleF
2991 6323 CircleF
5554 3981 CircleF
2891 6258 CircleF
5216 3593 CircleF
9612 7811 CircleF
6420 7820 CircleF
9600 7824 CircleF
7906 7818 CircleF
5866 5361 CircleF
4899 3269 CircleF
3291 5999 CircleF
2957 6163 CircleF
6188 7813 CircleF
2707 6238 CircleF
9742 7812 CircleF
6848 7823 CircleF
5412 3826 CircleF
5988 7813 CircleF
4947 3256 CircleF
4207 3196 CircleF
2531 6318 CircleF
3278 5981 CircleF
5364 3629 CircleF
4343 3175 CircleF
3253 6067 CircleF
3425 5914 CircleF
9369 7815 CircleF
6436 7822 CircleF
7499 7805 CircleF
3967 3267 CircleF
7618 7823 CircleF
8480 7813 CircleF
9300 7806 CircleF
9413 7802 CircleF
9237 7819 CircleF
8187 7822 CircleF
3002 6149 CircleF
7669 7804 CircleF
3302 6075 CircleF
4594 3284 CircleF
2839 6170 CircleF
4940 3464 CircleF
8444 7806 CircleF
7518 7820 CircleF
3003 6307 CircleF
3491 5467 CircleF
9575 7813 CircleF
6864 7818 CircleF
9816 7818 CircleF
8594 7827 CircleF
6337 7822 CircleF
5619 4065 CircleF
6792 7815 CircleF
8743 7809 CircleF
5591 3918 CircleF
6128 7823 CircleF
2853 6345 CircleF
8905 7817 CircleF
5404 3715 CircleF
9362 7807 CircleF
9534 7812 CircleF
5397 3679 CircleF
2767 6343 CircleF
6474 7803 CircleF
2700 6360 CircleF
6160 7813 CircleF
3343 5915 CircleF
2684 6489 CircleF
6483 7811 CircleF
9049 7818 CircleF
5153 3312 CircleF
5045 3397 CircleF
4362 3329 CircleF
4601 3245 CircleF
8842 7822 CircleF
5431 3643 CircleF
6181 7809 CircleF
4045 3166 CircleF
2345 6407 CircleF
9768 7821 CircleF
7116 7819 CircleF
6979 7818 CircleF
6258 7823 CircleF
6120 7817 CircleF
7326 7812 CircleF
3702 4348 CircleF
3620 5290 CircleF
5804 4776 CircleF
5530 3854 CircleF
9117 7821 CircleF
2828 6336 CircleF
3018 6200 CircleF
2789 6405 CircleF
3747 3836 CircleF
6076 7809 CircleF
5934 6498 CircleF
9723 7819 CircleF
8366 7818 CircleF
5764 4590 CircleF
4795 3180 CircleF
3867 3276 CircleF
7935 7807 CircleF
7887 7821 CircleF
7049 7801 CircleF
9387 7806 CircleF
7130 7822 CircleF
5264 3375 CircleF
6868 7811 CircleF
4040 3265 CircleF
9064 7813 CircleF
3587 5224 CircleF
5059 3464 CircleF
3366 6024 CircleF
8665 7808 CircleF
5486 3844 CircleF
2122 4526 CircleF
8694 7814 CircleF
8986 7821 CircleF
3449 5808 CircleF
9217 7811 CircleF
5497 3703 CircleF
3196 6190 CircleF
2285 6483 CircleF
2445 6422 CircleF
5626 4074 CircleF
4818 3424 CircleF
4423 3293 CircleF
4544 3007 CircleF
6208 7819 CircleF
7290 7811 CircleF
6850 7816 CircleF
5380 3717 CircleF
4266 3339 CircleF
7210 7812 CircleF
5485 3710 CircleF
4307 3090 CircleF
5431 3531 CircleF
4175 3052 CircleF
3730 4209 CircleF
9599 7802 CircleF
3279 5995 CircleF
2818 6218 CircleF
8978 7813 CircleF
5348 3637 CircleF
4518 3108 CircleF
4139 3301 CircleF
9103 7804 CircleF
7719 7814 CircleF
5757 4601 CircleF
7255 7821 CircleF
4693 3257 CircleF
2085 4209 CircleF
9562 7806 CircleF
2708 6292 CircleF
7320 7803 CircleF
7746 7818 CircleF
4887 3366 CircleF
4423 3524 CircleF
6260 7822 CircleF
2386 6511 CircleF
5475 3712 CircleF
7190 7823 CircleF
2077 4141 CircleF
6362 7820 CircleF
4957 3307 CircleF
7093 7814 CircleF
3591 5447 CircleF
5721 4380 CircleF
5264 3427 CircleF
6525 7803 CircleF
3332 5993 CircleF
4116 3183 CircleF
8219 7823 CircleF
4781 3140 CircleF
3954 3425 CircleF
4474 3268 CircleF
2736 6194 CircleF
2198 5115 CircleF
8224 7820 CircleF
3207 6023 CircleF
7969 7813 CircleF
3680 5040 CircleF
7847 7811 CircleF
7513 7809 CircleF
2556 6382 CircleF
9371 7810 CircleF
7639 7827 CircleF
6160 7813 CircleF
2256 6426 CircleF
4919 3217 CircleF
3302 5963 CircleF
2488 6386 CircleF
7700 7815 CircleF
8836 7810 CircleF
7490 7825 CircleF
3639 5106 CircleF
5218 3453 CircleF
3593 5444 CircleF
5024 3254 CircleF
7195 7816 CircleF
7350 7814 CircleF
5496 3812 CircleF
6542 7817 CircleF
4789 3397 CircleF
9692 7797 CircleF
6884 7809 CircleF
5064 3577 CircleF
8690 7817 CircleF
5335 3430 CircleF
6834 7815 CircleF
5286 3460 CircleF
3328 5975 CircleF
8614 7823 CircleF
4365 3233 CircleF
3341 5923 CircleF
9539 7818 CircleF
5686 4273 CircleF
7582 7817 CircleF
2892 6263 CircleF
7637 7803 CircleF
9713 7810 CircleF
6319 7811 CircleF
3321 5986 CircleF
8216 7818 CircleF
6648 7815 CircleF
6409 7821 CircleF
7634 7813 CircleF
6580 7807 CircleF
3869 3094 CircleF
7707 7812 CircleF
7582 7823 CircleF
7065 7809 CircleF
2261 6397 CircleF
2209 5406 CircleF
6270 7816 CircleF
3668 5005 CircleF
4459 3166 CircleF
2732 6254 CircleF
6052 7811 CircleF
3064 6198 CircleF
8171 7806 CircleF
4055 3201 CircleF
4053 3052 CircleF
8573 7815 CircleF
9828 7818 CircleF
7494 7818 CircleF
4919 3280 CircleF
3035 6195 CircleF
6276 7815 CircleF
6907 7820 CircleF
8084 7820 CircleF
5442 3817 CircleF
4430 3438 CircleF
9402 7834 CircleF
9116 7811 CircleF
2135 4492 CircleF
3611 5160 CircleF
2441 6413 CircleF
2114 4401 CircleF
3848 3280 CircleF
9421 7808 CircleF
6352 7819 CircleF
2587 6353 CircleF
9745 7823 CircleF
3917 3195 CircleF
8586 7819 CircleF
2905 6377 CircleF
2877 6102 CircleF
5946 6877 CircleF
4517 3024 CircleF
6913 7806 CircleF
3976 3074 CircleF
7485 7825 CircleF
5833 4957 CircleF
8874 7828 CircleF
2388 6312 CircleF
6626 7817 CircleF
8521 7813 CircleF
7565 7810 CircleF
4395 3127 CircleF
9574 7807 CircleF
5292 3600 CircleF
2539 6411 CircleF
5869 5301 CircleF
2245 6043 CircleF
7212 7827 CircleF
9372 7822 CircleF
8524 7818 CircleF
4940 3242 CircleF
6510 7811 CircleF
2353 6165 CircleF
2149 4427 CircleF
7283 7819 CircleF
7696 7804 CircleF
6804 7812 CircleF
9763 7816 CircleF
3477 5559 CircleF
7832 7806 CircleF
4369 3096 CircleF
7295 7827 CircleF
6072 7813 CircleF
5046 3616 CircleF
8377 7818 CircleF
7485 7821 CircleF
8791 7808 CircleF
5050 3573 CircleF
5842 5109 CircleF
5105 3333 CircleF
9658 7822 CircleF
6526 7814 CircleF
3792 3400 CircleF
5225 3669 CircleF
7810 7807 CircleF
4828 3444 CircleF
7156 7819 CircleF
2263 6288 CircleF
2796 6194 CircleF
3854 2757 CircleF
7521 7809 CircleF
2404 6295 CircleF
4965 3375 CircleF
3803 2906 CircleF
8949 7822 CircleF
9497 7818 CircleF
9799 7806 CircleF
6131 7817 CircleF
2741 6349 CircleF
2397 6497 CircleF
9783 7809 CircleF
7802 7820 CircleF
5132 3525 CircleF
2944 6369 CircleF
4315 3075 CircleF
7020 7824 CircleF
6459 7810 CircleF
5266 3363 CircleF
4143 3172 CircleF
8813 7822 CircleF
7944 7813 CircleF
7625 7804 CircleF
4026 3004 CircleF
4925 3262 CircleF
7581 7810 CircleF
5417 3636 CircleF
9317 7815 CircleF
4018 3195 CircleF
6583 7809 CircleF
4381 3139 CircleF
4386 3320 CircleF
2646 6306 CircleF
3406 5861 CircleF
2911 6132 CircleF
4658 3272 CircleF
7863 7817 CircleF
5350 3462 CircleF
2994 6300 CircleF
4517 3243 CircleF
2590 6348 CircleF
3060 6109 CircleF
9597 7809 CircleF
2316 6436 CircleF
6596 7821 CircleF
8251 7818 CircleF
2610 6439 CircleF
7819 7814 CircleF
6686 7806 CircleF
8317 7815 CircleF
2357 6397 CircleF
6293 7810 CircleF
4649 3238 CircleF
8019 7815 CircleF
6778 7829 CircleF
5342 3596 CircleF
4231 3047 CircleF
9076 7813 CircleF
7830 7826 CircleF
7020 7811 CircleF
4571 3257 CircleF
8016 7813 CircleF
3611 5088 CircleF
6096 7816 CircleF
2658 6373 CircleF
9251 7825 CircleF
3093 6248 CircleF
5263 3626 CircleF
7181 7805 CircleF
8684 7817 CircleF
4461 3433 CircleF
5737 4468 CircleF
5341 3656 CircleF
6055 7813 CircleF
5661 4064 CircleF
9368 7822 CircleF
4640 3136 CircleF
3570 5192 CircleF
4304 3251 CircleF
7517 7810 CircleF
5509 3762 CircleF
4267 3421 CircleF
6059 7819 CircleF
5989 7809 CircleF
3436 5948 CircleF
4495 3274 CircleF
6882 7807 CircleF
7911 7809 CircleF
7884 7808 CircleF
8750 7824 CircleF
7187 7814 CircleF
3275 6067 CircleF
8015 7823 CircleF
8572 7820 CircleF
8670 7817 CircleF
8259 7818 CircleF
2374 6347 CircleF
2119 4406 CircleF
6870 7804 CircleF
6301 7821 CircleF
2734 6292 CircleF
8291 7808 CircleF
4683 3507 CircleF
7496 7814 CircleF
9622 7820 CircleF
5880 5553 CircleF
7244 7822 CircleF
6771 7790 CircleF
4905 3419 CircleF
6344 7816 CircleF
7731 7806 CircleF
4010 3304 CircleF
4380 3176 CircleF
4747 3400 CircleF
8987 7810 CircleF
6386 7815 CircleF
5630 4021 CircleF
6356 7805 CircleF
5077 3350 CircleF
6941 7812 CircleF
9173 7805 CircleF
7719 7817 CircleF
3982 2989 CircleF
3306 6102 CircleF
8845 7805 CircleF
6744 7814 CircleF
7751 7818 CircleF
7850 7811 CircleF
5241 3601 CircleF
4620 3340 CircleF
9265 7794 CircleF
2145 4513 CircleF
7902 7814 CircleF
7385 7808 CircleF
4518 3220 CircleF
8991 7814 CircleF
6517 7810 CircleF
2473 6334 CircleF
5805 4809 CircleF
6129 7814 CircleF
8991 7814 CircleF
2819 6186 CircleF
4937 3407 CircleF
3700 4817 CircleF
2106 4323 CircleF
8598 7811 CircleF
8477 7812 CircleF
4605 3295 CircleF
4807 3419 CircleF
6460 7812 CircleF
6694 7818 CircleF
2389 6387 CircleF
7510 7817 CircleF
5950 7016 CircleF
8546 7815 CircleF
2220 5489 CircleF
8600 7825 CircleF
5277 3389 CircleF
4577 2985 CircleF
8790 7804 CircleF
8782 7812 CircleF
6501 7813 CircleF
7178 7814 CircleF
7772 7807 CircleF
7007 7823 CircleF
4849 3506 CircleF
7423 7820 CircleF
3897 3067 CircleF
6738 7811 CircleF
9611 7833 CircleF
8087 7813 CircleF
4540 3389 CircleF
2755 6249 CircleF
9044 7826 CircleF
7508 7813 CircleF
7229 7825 CircleF
4230 3189 CircleF
8025 7809 CircleF
5039 3429 CircleF
4766 3419 CircleF
7417 7807 CircleF
7183 7820 CircleF
6488 7813 CircleF
6405 7833 CircleF
8020 7816 CircleF
6421 7812 CircleF
3618 5224 CircleF
6947 7810 CircleF
3505 5676 CircleF
5269 3555 CircleF
7685 7811 CircleF
3717 4762 CircleF
6873 7822 CircleF
9406 7821 CircleF
2581 6436 CircleF
4946 3336 CircleF
4654 3077 CircleF
5483 3790 CircleF
7533 7821 CircleF
3065 6161 CircleF
6476 7813 CircleF
3034 6174 CircleF
5921 6194 CircleF
9348 7822 CircleF
6359 7817 CircleF
9367 7811 CircleF
9730 7809 CircleF
6572 7816 CircleF
5305 3637 CircleF
3443 5801 CircleF
7947 7823 CircleF
8884 7804 CircleF
5304 3663 CircleF
4165 2917 CircleF
6547 7817 CircleF
5382 3583 CircleF
6921 7817 CircleF
6492 7813 CircleF
4178 2921 CircleF
6481 7825 CircleF
9149 7807 CircleF
9802 7814 CircleF
5783 4659 CircleF
3132 6199 CircleF
4761 3178 CircleF
2100 4320 CircleF
6284 7822 CircleF
8792 7821 CircleF
8768 7817 CircleF
5505 3736 CircleF
9081 7811 CircleF
3015 6091 CircleF
7651 7790 CircleF
3373 5857 CircleF
2563 6197 CircleF
2317 6434 CircleF
3646 5013 CircleF
6804 7816 CircleF
2144 4502 CircleF
6716 7810 CircleF
4635 3403 CircleF
9020 7820 CircleF
4342 3419 CircleF
4432 3369 CircleF
3094 6108 CircleF
8718 7824 CircleF
3360 5815 CircleF
6785 7820 CircleF
8325 7816 CircleF
5558 4072 CircleF
5087 3403 CircleF
9110 7818 CircleF
4205 3250 CircleF
7768 7816 CircleF
5669 4344 CircleF
5806 4838 CircleF
7924 7805 CircleF
8628 7827 CircleF
2372 6371 CircleF
7378 7821 CircleF
3535 5460 CircleF
4939 3231 CircleF
5437 3759 CircleF
3373 5708 CircleF
5977 7816 CircleF
8769 7799 CircleF
6779 7817 CircleF
3568 5507 CircleF
2223 5568 CircleF
6557 7814 CircleF
6763 7809 CircleF
2972 6255 CircleF
8886 7814 CircleF
8006 7814 CircleF
7801 7816 CircleF
8561 7807 CircleF
5436 3643 CircleF
8255 7822 CircleF
3401 5981 CircleF
7897 7810 CircleF
6568 7815 CircleF
3935 3390 CircleF
6005 7815 CircleF
2787 6117 CircleF
2780 6411 CircleF
4825 3271 CircleF
6805 7809 CircleF
6660 7813 CircleF
7887 7819 CircleF
3712 4674 CircleF
8782 7811 CircleF
2459 6375 CircleF
5315 3624 CircleF
5221 3389 CircleF
6474 7811 CircleF
7502 7819 CircleF
9154 7821 CircleF
8983 7814 CircleF
7021 7829 CircleF
8466 7813 CircleF
7542 7818 CircleF
4577 3447 CircleF
3146 6011 CircleF
7033 7816 CircleF
8973 7810 CircleF
9252 7813 CircleF
7043 7806 CircleF
9248 7815 CircleF
3130 6099 CircleF
5315 3620 CircleF
6661 7811 CircleF
3315 5996 CircleF
4275 3194 CircleF
5015 3508 CircleF
9383 7822 CircleF
3789 2981 CircleF
4887 3321 CircleF
8584 7815 CircleF
7779 7817 CircleF
5408 3615 CircleF
5784 4741 CircleF
8186 7815 CircleF
5381 3728 CircleF
2765 6261 CircleF
8815 7806 CircleF
8263 7820 CircleF
5959 7376 CircleF
9599 7819 CircleF
9147 7809 CircleF
5179 3456 CircleF
4511 3146 CircleF
6514 7820 CircleF
2087 4184 CircleF
2208 5276 CircleF
8910 7815 CircleF
6126 7823 CircleF
5102 3548 CircleF
7884 7819 CircleF
4503 3315 CircleF
8897 7818 CircleF
2651 6285 CircleF
7893 7815 CircleF
8872 7813 CircleF
3526 5506 CircleF
3604 5370 CircleF
8327 7815 CircleF
8982 7812 CircleF
4048 3285 CircleF
9123 7806 CircleF
4490 3288 CircleF
5939 6634 CircleF
4595 3055 CircleF
9465 7815 CircleF
4939 3258 CircleF
2940 6196 CircleF
6554 7826 CircleF
8880 7815 CircleF
9312 7810 CircleF
9705 7811 CircleF
4819 3280 CircleF
2401 6439 CircleF
6727 7815 CircleF
3037 6256 CircleF
6164 7815 CircleF
6520 7803 CircleF
5730 4410 CircleF
7773 7820 CircleF
7314 7819 CircleF
2485 6321 CircleF
4913 3305 CircleF
7503 7820 CircleF
4406 3187 CircleF
2774 6311 CircleF
3417 5800 CircleF
7312 7802 CircleF
8565 7823 CircleF
6315 7805 CircleF
7356 7804 CircleF
6503 7814 CircleF
7877 7821 CircleF
3423 5811 CircleF
8498 7818 CircleF
4734 3299 CircleF
9144 7814 CircleF
3410 5842 CircleF
3763 3499 CircleF
7628 7824 CircleF
3357 5893 CircleF
2122 4397 CircleF
2850 6200 CircleF
8891 7824 CircleF
9386 7819 CircleF
2861 6199 CircleF
7323 7821 CircleF
4407 3264 CircleF
8291 7817 CircleF
6842 7833 CircleF
3752 3826 CircleF
6733 7815 CircleF
2139 4591 CircleF
4166 3037 CircleF
8305 7810 CircleF
4933 3278 CircleF
5141 3503 CircleF
4978 3395 CircleF
8161 7809 CircleF
9106 7814 CircleF
4487 3252 CircleF
2897 6378 CircleF
2399 6330 CircleF
8278 7814 CircleF
9428 7824 CircleF
6813 7822 CircleF
6671 7807 CircleF
6642 7819 CircleF
3731 4023 CircleF
8971 7817 CircleF
6902 7812 CircleF
7261 7804 CircleF
6074 7818 CircleF
8684 7831 CircleF
8154 7807 CircleF
8509 7802 CircleF
8710 7809 CircleF
6686 7807 CircleF
6712 7806 CircleF
2498 6290 CircleF
7976 7816 CircleF
5398 3865 CircleF
8197 7813 CircleF
4963 3423 CircleF
8863 7807 CircleF
4079 3201 CircleF
4019 3041 CircleF
8111 7813 CircleF
4762 3335 CircleF
4823 3179 CircleF
3598 5271 CircleF
8595 7812 CircleF
2494 6249 CircleF
6972 7810 CircleF
3684 4628 CircleF
6361 7815 CircleF
4302 3100 CircleF
2110 4351 CircleF
7402 7802 CircleF
5469 3857 CircleF
4876 3256 CircleF
6528 7812 CircleF
8654 7811 CircleF
4653 3232 CircleF
9024 7807 CircleF
4764 3233 CircleF
5015 3477 CircleF
2766 6476 CircleF
7397 7805 CircleF
2320 6391 CircleF
5852 5202 CircleF
3319 5971 CircleF
8093 7823 CircleF
5393 3762 CircleF
7726 7814 CircleF
7589 7814 CircleF
8682 7817 CircleF
6963 7813 CircleF
9764 7820 CircleF
6658 7815 CircleF
4754 3466 CircleF
2902 6287 CircleF
2260 6463 CircleF
3173 6077 CircleF
7993 7821 CircleF
4251 3178 CircleF
2728 6370 CircleF
7358 7811 CircleF
6904 7803 CircleF
7945 7814 CircleF
7507 7804 CircleF
5699 4230 CircleF
7339 7814 CircleF
4643 3369 CircleF
5509 3732 CircleF
4944 3371 CircleF
5723 4394 CircleF
7008 7804 CircleF
7213 7811 CircleF
3349 6093 CircleF
8870 7810 CircleF
3835 3090 CircleF
3202 6110 CircleF
2145 4542 CircleF
5507 3834 CircleF
7131 7831 CircleF
2760 6178 CircleF
7548 7807 CircleF
5894 5738 CircleF
8952 7804 CircleF
5719 4258 CircleF
8460 7806 CircleF
9133 7823 CircleF
6188 7818 CircleF
8181 7820 CircleF
3854 3216 CircleF
8931 7818 CircleF
8133 7816 CircleF
2212 5319 CircleF
6971 7814 CircleF
6117 7820 CircleF
5534 3856 CircleF
5730 4363 CircleF
6965 7814 CircleF
4328 2989 CircleF
7398 7808 CircleF
2653 6258 CircleF
7841 7816 CircleF
5433 3687 CircleF
6585 7816 CircleF
7601 7814 CircleF
9297 7810 CircleF
5398 3594 CircleF
6913 7795 CircleF
3424 5809 CircleF
6954 7820 CircleF
4511 3388 CircleF
5306 3462 CircleF
2084 4071 CircleF
8434 7809 CircleF
6310 7807 CircleF
6923 7812 CircleF
9264 7817 CircleF
9295 7811 CircleF
3814 3182 CircleF
9724 7810 CircleF
4018 3214 CircleF
3238 6110 CircleF
6335 7820 CircleF
3950 3133 CircleF
9506 7814 CircleF
6534 7815 CircleF
4363 3245 CircleF
4219 3124 CircleF
3799 3097 CircleF
5774 4651 CircleF
2475 6276 CircleF
9675 7811 CircleF
8997 7806 CircleF
4926 3432 CircleF
7247 7817 CircleF
5547 3938 CircleF
9821 7800 CircleF
2744 6345 CircleF
6151 7814 CircleF
6026 7809 CircleF
9716 7805 CircleF
4248 3068 CircleF
3833 3216 CircleF
7291 7819 CircleF
6260 7811 CircleF
7097 7821 CircleF
2165 4739 CircleF
6059 7816 CircleF
7122 7810 CircleF
5946 6876 CircleF
3162 6318 CircleF
2197 5039 CircleF
6215 7819 CircleF
7016 7807 CircleF
2326 6397 CircleF
9324 7818 CircleF
3657 5125 CircleF
4667 3373 CircleF
8348 7809 CircleF
7144 7812 CircleF
7172 7817 CircleF
8851 7825 CircleF
2341 6479 CircleF
7261 7820 CircleF
9733 7827 CircleF
7675 7816 CircleF
2591 6371 CircleF
2438 6492 CircleF
7879 7808 CircleF
9599 7820 CircleF
7928 7823 CircleF
8666 7816 CircleF
5864 5349 CircleF
2151 4566 CircleF
4591 3035 CircleF
6961 7810 CircleF
6982 7814 CircleF
9181 7823 CircleF
8436 7826 CircleF
6633 7821 CircleF
6064 7810 CircleF
6988 7819 CircleF
5751 4554 CircleF
4372 2802 CircleF
3669 4978 CircleF
2151 4672 CircleF
9464 7812 CircleF
6069 7812 CircleF
5452 3844 CircleF
4764 3234 CircleF
6540 7818 CircleF
5299 3492 CircleF
8952 7824 CircleF
3248 5983 CircleF
8549 7817 CircleF
% End plot #1
1.000 UP
0.500 UL
LTb
grestore % colour palette end
stroke
grestore
end
showpage
%%Trailer
%%DocumentFonts: URWPalladioL-Roma Helvetica
