%!PS-Adobe-2.0 EPSF-2.0
%%Title: ../figs/vj2.eps
%%Creator: gnuplot 4.6 patchlevel 0
%%CreationDate: Thu Aug 23 16:12:33 2012
%%DocumentFonts: (atend)
%%BoundingBox: 50 50 626 482
%%EndComments
%%BeginProlog
/gnudict 256 dict def
gnudict begin
%
% The following true/false flags may be edited by hand if desired.
% The unit line width and grayscale image gamma correction may also be changed.
%
/Color false def
/Blacktext false def
/Solid false def
/Dashlength 1 def
/Landscape false def
/Level1 false def
/Rounded false def
/ClipToBoundingBox false def
/SuppressPDFMark false def
/TransparentPatterns false def
/gnulinewidth 5.000 def
/userlinewidth gnulinewidth def
/Gamma 1.0 def
/BackgroundColor {-1.000 -1.000 -1.000} def
%
/vshift -160 def
/dl1 {
  10.0 Dashlength mul mul
  Rounded { currentlinewidth 0.75 mul sub dup 0 le { pop 0.01 } if } if
} def
/dl2 {
  10.0 Dashlength mul mul
  Rounded { currentlinewidth 0.75 mul add } if
} def
/hpt_ 31.5 def
/vpt_ 31.5 def
/hpt hpt_ def
/vpt vpt_ def
/doclip {
  ClipToBoundingBox {
    newpath 50 50 moveto 626 50 lineto 626 482 lineto 50 482 lineto closepath
    clip
  } if
} def
%
% Gnuplot Prolog Version 4.4 (August 2010)
%
%/SuppressPDFMark true def
%
/M {moveto} bind def
/L {lineto} bind def
/R {rmoveto} bind def
/V {rlineto} bind def
/N {newpath moveto} bind def
/Z {closepath} bind def
/C {setrgbcolor} bind def
/f {rlineto fill} bind def
/g {setgray} bind def
/Gshow {show} def   % May be redefined later in the file to support UTF-8
/vpt2 vpt 2 mul def
/hpt2 hpt 2 mul def
/Lshow {currentpoint stroke M 0 vshift R 
	Blacktext {gsave 0 setgray show grestore} {show} ifelse} def
/Rshow {currentpoint stroke M dup stringwidth pop neg vshift R
	Blacktext {gsave 0 setgray show grestore} {show} ifelse} def
/Cshow {currentpoint stroke M dup stringwidth pop -2 div vshift R 
	Blacktext {gsave 0 setgray show grestore} {show} ifelse} def
/UP {dup vpt_ mul /vpt exch def hpt_ mul /hpt exch def
  /hpt2 hpt 2 mul def /vpt2 vpt 2 mul def} def
/DL {Color {setrgbcolor Solid {pop []} if 0 setdash}
 {pop pop pop 0 setgray Solid {pop []} if 0 setdash} ifelse} def
/BL {stroke userlinewidth 2 mul setlinewidth
	Rounded {1 setlinejoin 1 setlinecap} if} def
/AL {stroke userlinewidth 2 div setlinewidth
	Rounded {1 setlinejoin 1 setlinecap} if} def
/UL {dup gnulinewidth mul /userlinewidth exch def
	dup 1 lt {pop 1} if 10 mul /udl exch def} def
/PL {stroke userlinewidth setlinewidth
	Rounded {1 setlinejoin 1 setlinecap} if} def
3.8 setmiterlimit
% Default Line colors
/LCw {1 1 1} def
/LCb {0 0 0} def
/LCa {0 0 0} def
/LC0 {1 0 0} def
/LC1 {0 1 0} def
/LC2 {0 0 1} def
/LC3 {1 0 1} def
/LC4 {0 1 1} def
/LC5 {1 1 0} def
/LC6 {0 0 0} def
/LC7 {1 0.3 0} def
/LC8 {0.5 0.5 0.5} def
% Default Line Types
/LTw {PL [] 1 setgray} def
/LTb {BL [] LCb DL} def
/LTa {AL [1 udl mul 2 udl mul] 0 setdash LCa setrgbcolor} def
/LT0 {PL [] LC0 DL} def
/LT1 {PL [4 dl1 2 dl2] LC1 DL} def
/LT2 {PL [2 dl1 3 dl2] LC2 DL} def
/LT3 {PL [1 dl1 1.5 dl2] LC3 DL} def
/LT4 {PL [6 dl1 2 dl2 1 dl1 2 dl2] LC4 DL} def
/LT5 {PL [3 dl1 3 dl2 1 dl1 3 dl2] LC5 DL} def
/LT6 {PL [2 dl1 2 dl2 2 dl1 6 dl2] LC6 DL} def
/LT7 {PL [1 dl1 2 dl2 6 dl1 2 dl2 1 dl1 2 dl2] LC7 DL} def
/LT8 {PL [2 dl1 2 dl2 2 dl1 2 dl2 2 dl1 2 dl2 2 dl1 4 dl2] LC8 DL} def
/Pnt {stroke [] 0 setdash gsave 1 setlinecap M 0 0 V stroke grestore} def
/Dia {stroke [] 0 setdash 2 copy vpt add M
  hpt neg vpt neg V hpt vpt neg V
  hpt vpt V hpt neg vpt V closepath stroke
  Pnt} def
/Pls {stroke [] 0 setdash vpt sub M 0 vpt2 V
  currentpoint stroke M
  hpt neg vpt neg R hpt2 0 V stroke
 } def
/Box {stroke [] 0 setdash 2 copy exch hpt sub exch vpt add M
  0 vpt2 neg V hpt2 0 V 0 vpt2 V
  hpt2 neg 0 V closepath stroke
  Pnt} def
/Crs {stroke [] 0 setdash exch hpt sub exch vpt add M
  hpt2 vpt2 neg V currentpoint stroke M
  hpt2 neg 0 R hpt2 vpt2 V stroke} def
/TriU {stroke [] 0 setdash 2 copy vpt 1.12 mul add M
  hpt neg vpt -1.62 mul V
  hpt 2 mul 0 V
  hpt neg vpt 1.62 mul V closepath stroke
  Pnt} def
/Star {2 copy Pls Crs} def
/BoxF {stroke [] 0 setdash exch hpt sub exch vpt add M
  0 vpt2 neg V hpt2 0 V 0 vpt2 V
  hpt2 neg 0 V closepath fill} def
/TriUF {stroke [] 0 setdash vpt 1.12 mul add M
  hpt neg vpt -1.62 mul V
  hpt 2 mul 0 V
  hpt neg vpt 1.62 mul V closepath fill} def
/TriD {stroke [] 0 setdash 2 copy vpt 1.12 mul sub M
  hpt neg vpt 1.62 mul V
  hpt 2 mul 0 V
  hpt neg vpt -1.62 mul V closepath stroke
  Pnt} def
/TriDF {stroke [] 0 setdash vpt 1.12 mul sub M
  hpt neg vpt 1.62 mul V
  hpt 2 mul 0 V
  hpt neg vpt -1.62 mul V closepath fill} def
/DiaF {stroke [] 0 setdash vpt add M
  hpt neg vpt neg V hpt vpt neg V
  hpt vpt V hpt neg vpt V closepath fill} def
/Pent {stroke [] 0 setdash 2 copy gsave
  translate 0 hpt M 4 {72 rotate 0 hpt L} repeat
  closepath stroke grestore Pnt} def
/PentF {stroke [] 0 setdash gsave
  translate 0 hpt M 4 {72 rotate 0 hpt L} repeat
  closepath fill grestore} def
/Circle {stroke [] 0 setdash 2 copy
  hpt 0 360 arc stroke Pnt} def
/CircleF {stroke [] 0 setdash hpt 0 360 arc fill} def
/C0 {BL [] 0 setdash 2 copy moveto vpt 90 450 arc} bind def
/C1 {BL [] 0 setdash 2 copy moveto
	2 copy vpt 0 90 arc closepath fill
	vpt 0 360 arc closepath} bind def
/C2 {BL [] 0 setdash 2 copy moveto
	2 copy vpt 90 180 arc closepath fill
	vpt 0 360 arc closepath} bind def
/C3 {BL [] 0 setdash 2 copy moveto
	2 copy vpt 0 180 arc closepath fill
	vpt 0 360 arc closepath} bind def
/C4 {BL [] 0 setdash 2 copy moveto
	2 copy vpt 180 270 arc closepath fill
	vpt 0 360 arc closepath} bind def
/C5 {BL [] 0 setdash 2 copy moveto
	2 copy vpt 0 90 arc
	2 copy moveto
	2 copy vpt 180 270 arc closepath fill
	vpt 0 360 arc} bind def
/C6 {BL [] 0 setdash 2 copy moveto
	2 copy vpt 90 270 arc closepath fill
	vpt 0 360 arc closepath} bind def
/C7 {BL [] 0 setdash 2 copy moveto
	2 copy vpt 0 270 arc closepath fill
	vpt 0 360 arc closepath} bind def
/C8 {BL [] 0 setdash 2 copy moveto
	2 copy vpt 270 360 arc closepath fill
	vpt 0 360 arc closepath} bind def
/C9 {BL [] 0 setdash 2 copy moveto
	2 copy vpt 270 450 arc closepath fill
	vpt 0 360 arc closepath} bind def
/C10 {BL [] 0 setdash 2 copy 2 copy moveto vpt 270 360 arc closepath fill
	2 copy moveto
	2 copy vpt 90 180 arc closepath fill
	vpt 0 360 arc closepath} bind def
/C11 {BL [] 0 setdash 2 copy moveto
	2 copy vpt 0 180 arc closepath fill
	2 copy moveto
	2 copy vpt 270 360 arc closepath fill
	vpt 0 360 arc closepath} bind def
/C12 {BL [] 0 setdash 2 copy moveto
	2 copy vpt 180 360 arc closepath fill
	vpt 0 360 arc closepath} bind def
/C13 {BL [] 0 setdash 2 copy moveto
	2 copy vpt 0 90 arc closepath fill
	2 copy moveto
	2 copy vpt 180 360 arc closepath fill
	vpt 0 360 arc closepath} bind def
/C14 {BL [] 0 setdash 2 copy moveto
	2 copy vpt 90 360 arc closepath fill
	vpt 0 360 arc} bind def
/C15 {BL [] 0 setdash 2 copy vpt 0 360 arc closepath fill
	vpt 0 360 arc closepath} bind def
/Rec {newpath 4 2 roll moveto 1 index 0 rlineto 0 exch rlineto
	neg 0 rlineto closepath} bind def
/Square {dup Rec} bind def
/Bsquare {vpt sub exch vpt sub exch vpt2 Square} bind def
/S0 {BL [] 0 setdash 2 copy moveto 0 vpt rlineto BL Bsquare} bind def
/S1 {BL [] 0 setdash 2 copy vpt Square fill Bsquare} bind def
/S2 {BL [] 0 setdash 2 copy exch vpt sub exch vpt Square fill Bsquare} bind def
/S3 {BL [] 0 setdash 2 copy exch vpt sub exch vpt2 vpt Rec fill Bsquare} bind def
/S4 {BL [] 0 setdash 2 copy exch vpt sub exch vpt sub vpt Square fill Bsquare} bind def
/S5 {BL [] 0 setdash 2 copy 2 copy vpt Square fill
	exch vpt sub exch vpt sub vpt Square fill Bsquare} bind def
/S6 {BL [] 0 setdash 2 copy exch vpt sub exch vpt sub vpt vpt2 Rec fill Bsquare} bind def
/S7 {BL [] 0 setdash 2 copy exch vpt sub exch vpt sub vpt vpt2 Rec fill
	2 copy vpt Square fill Bsquare} bind def
/S8 {BL [] 0 setdash 2 copy vpt sub vpt Square fill Bsquare} bind def
/S9 {BL [] 0 setdash 2 copy vpt sub vpt vpt2 Rec fill Bsquare} bind def
/S10 {BL [] 0 setdash 2 copy vpt sub vpt Square fill 2 copy exch vpt sub exch vpt Square fill
	Bsquare} bind def
/S11 {BL [] 0 setdash 2 copy vpt sub vpt Square fill 2 copy exch vpt sub exch vpt2 vpt Rec fill
	Bsquare} bind def
/S12 {BL [] 0 setdash 2 copy exch vpt sub exch vpt sub vpt2 vpt Rec fill Bsquare} bind def
/S13 {BL [] 0 setdash 2 copy exch vpt sub exch vpt sub vpt2 vpt Rec fill
	2 copy vpt Square fill Bsquare} bind def
/S14 {BL [] 0 setdash 2 copy exch vpt sub exch vpt sub vpt2 vpt Rec fill
	2 copy exch vpt sub exch vpt Square fill Bsquare} bind def
/S15 {BL [] 0 setdash 2 copy Bsquare fill Bsquare} bind def
/D0 {gsave translate 45 rotate 0 0 S0 stroke grestore} bind def
/D1 {gsave translate 45 rotate 0 0 S1 stroke grestore} bind def
/D2 {gsave translate 45 rotate 0 0 S2 stroke grestore} bind def
/D3 {gsave translate 45 rotate 0 0 S3 stroke grestore} bind def
/D4 {gsave translate 45 rotate 0 0 S4 stroke grestore} bind def
/D5 {gsave translate 45 rotate 0 0 S5 stroke grestore} bind def
/D6 {gsave translate 45 rotate 0 0 S6 stroke grestore} bind def
/D7 {gsave translate 45 rotate 0 0 S7 stroke grestore} bind def
/D8 {gsave translate 45 rotate 0 0 S8 stroke grestore} bind def
/D9 {gsave translate 45 rotate 0 0 S9 stroke grestore} bind def
/D10 {gsave translate 45 rotate 0 0 S10 stroke grestore} bind def
/D11 {gsave translate 45 rotate 0 0 S11 stroke grestore} bind def
/D12 {gsave translate 45 rotate 0 0 S12 stroke grestore} bind def
/D13 {gsave translate 45 rotate 0 0 S13 stroke grestore} bind def
/D14 {gsave translate 45 rotate 0 0 S14 stroke grestore} bind def
/D15 {gsave translate 45 rotate 0 0 S15 stroke grestore} bind def
/DiaE {stroke [] 0 setdash vpt add M
  hpt neg vpt neg V hpt vpt neg V
  hpt vpt V hpt neg vpt V closepath stroke} def
/BoxE {stroke [] 0 setdash exch hpt sub exch vpt add M
  0 vpt2 neg V hpt2 0 V 0 vpt2 V
  hpt2 neg 0 V closepath stroke} def
/TriUE {stroke [] 0 setdash vpt 1.12 mul add M
  hpt neg vpt -1.62 mul V
  hpt 2 mul 0 V
  hpt neg vpt 1.62 mul V closepath stroke} def
/TriDE {stroke [] 0 setdash vpt 1.12 mul sub M
  hpt neg vpt 1.62 mul V
  hpt 2 mul 0 V
  hpt neg vpt -1.62 mul V closepath stroke} def
/PentE {stroke [] 0 setdash gsave
  translate 0 hpt M 4 {72 rotate 0 hpt L} repeat
  closepath stroke grestore} def
/CircE {stroke [] 0 setdash 
  hpt 0 360 arc stroke} def
/Opaque {gsave closepath 1 setgray fill grestore 0 setgray closepath} def
/DiaW {stroke [] 0 setdash vpt add M
  hpt neg vpt neg V hpt vpt neg V
  hpt vpt V hpt neg vpt V Opaque stroke} def
/BoxW {stroke [] 0 setdash exch hpt sub exch vpt add M
  0 vpt2 neg V hpt2 0 V 0 vpt2 V
  hpt2 neg 0 V Opaque stroke} def
/TriUW {stroke [] 0 setdash vpt 1.12 mul add M
  hpt neg vpt -1.62 mul V
  hpt 2 mul 0 V
  hpt neg vpt 1.62 mul V Opaque stroke} def
/TriDW {stroke [] 0 setdash vpt 1.12 mul sub M
  hpt neg vpt 1.62 mul V
  hpt 2 mul 0 V
  hpt neg vpt -1.62 mul V Opaque stroke} def
/PentW {stroke [] 0 setdash gsave
  translate 0 hpt M 4 {72 rotate 0 hpt L} repeat
  Opaque stroke grestore} def
/CircW {stroke [] 0 setdash 
  hpt 0 360 arc Opaque stroke} def
/BoxFill {gsave Rec 1 setgray fill grestore} def
/Density {
  /Fillden exch def
  currentrgbcolor
  /ColB exch def /ColG exch def /ColR exch def
  /ColR ColR Fillden mul Fillden sub 1 add def
  /ColG ColG Fillden mul Fillden sub 1 add def
  /ColB ColB Fillden mul Fillden sub 1 add def
  ColR ColG ColB setrgbcolor} def
/BoxColFill {gsave Rec PolyFill} def
/PolyFill {gsave Density fill grestore grestore} def
/h {rlineto rlineto rlineto gsave closepath fill grestore} bind def
%
% PostScript Level 1 Pattern Fill routine for rectangles
% Usage: x y w h s a XX PatternFill
%	x,y = lower left corner of box to be filled
%	w,h = width and height of box
%	  a = angle in degrees between lines and x-axis
%	 XX = 0/1 for no/yes cross-hatch
%
/PatternFill {gsave /PFa [ 9 2 roll ] def
  PFa 0 get PFa 2 get 2 div add PFa 1 get PFa 3 get 2 div add translate
  PFa 2 get -2 div PFa 3 get -2 div PFa 2 get PFa 3 get Rec
  gsave 1 setgray fill grestore clip
  currentlinewidth 0.5 mul setlinewidth
  /PFs PFa 2 get dup mul PFa 3 get dup mul add sqrt def
  0 0 M PFa 5 get rotate PFs -2 div dup translate
  0 1 PFs PFa 4 get div 1 add floor cvi
	{PFa 4 get mul 0 M 0 PFs V} for
  0 PFa 6 get ne {
	0 1 PFs PFa 4 get div 1 add floor cvi
	{PFa 4 get mul 0 2 1 roll M PFs 0 V} for
 } if
  stroke grestore} def
%
/languagelevel where
 {pop languagelevel} {1} ifelse
 2 lt
	{/InterpretLevel1 true def}
	{/InterpretLevel1 Level1 def}
 ifelse
%
% PostScript level 2 pattern fill definitions
%
/Level2PatternFill {
/Tile8x8 {/PaintType 2 /PatternType 1 /TilingType 1 /BBox [0 0 8 8] /XStep 8 /YStep 8}
	bind def
/KeepColor {currentrgbcolor [/Pattern /DeviceRGB] setcolorspace} bind def
<< Tile8x8
 /PaintProc {0.5 setlinewidth pop 0 0 M 8 8 L 0 8 M 8 0 L stroke} 
>> matrix makepattern
/Pat1 exch def
<< Tile8x8
 /PaintProc {0.5 setlinewidth pop 0 0 M 8 8 L 0 8 M 8 0 L stroke
	0 4 M 4 8 L 8 4 L 4 0 L 0 4 L stroke}
>> matrix makepattern
/Pat2 exch def
<< Tile8x8
 /PaintProc {0.5 setlinewidth pop 0 0 M 0 8 L
	8 8 L 8 0 L 0 0 L fill}
>> matrix makepattern
/Pat3 exch def
<< Tile8x8
 /PaintProc {0.5 setlinewidth pop -4 8 M 8 -4 L
	0 12 M 12 0 L stroke}
>> matrix makepattern
/Pat4 exch def
<< Tile8x8
 /PaintProc {0.5 setlinewidth pop -4 0 M 8 12 L
	0 -4 M 12 8 L stroke}
>> matrix makepattern
/Pat5 exch def
<< Tile8x8
 /PaintProc {0.5 setlinewidth pop -2 8 M 4 -4 L
	0 12 M 8 -4 L 4 12 M 10 0 L stroke}
>> matrix makepattern
/Pat6 exch def
<< Tile8x8
 /PaintProc {0.5 setlinewidth pop -2 0 M 4 12 L
	0 -4 M 8 12 L 4 -4 M 10 8 L stroke}
>> matrix makepattern
/Pat7 exch def
<< Tile8x8
 /PaintProc {0.5 setlinewidth pop 8 -2 M -4 4 L
	12 0 M -4 8 L 12 4 M 0 10 L stroke}
>> matrix makepattern
/Pat8 exch def
<< Tile8x8
 /PaintProc {0.5 setlinewidth pop 0 -2 M 12 4 L
	-4 0 M 12 8 L -4 4 M 8 10 L stroke}
>> matrix makepattern
/Pat9 exch def
/Pattern1 {PatternBgnd KeepColor Pat1 setpattern} bind def
/Pattern2 {PatternBgnd KeepColor Pat2 setpattern} bind def
/Pattern3 {PatternBgnd KeepColor Pat3 setpattern} bind def
/Pattern4 {PatternBgnd KeepColor Landscape {Pat5} {Pat4} ifelse setpattern} bind def
/Pattern5 {PatternBgnd KeepColor Landscape {Pat4} {Pat5} ifelse setpattern} bind def
/Pattern6 {PatternBgnd KeepColor Landscape {Pat9} {Pat6} ifelse setpattern} bind def
/Pattern7 {PatternBgnd KeepColor Landscape {Pat8} {Pat7} ifelse setpattern} bind def
} def
%
%
%End of PostScript Level 2 code
%
/PatternBgnd {
  TransparentPatterns {} {gsave 1 setgray fill grestore} ifelse
} def
%
% Substitute for Level 2 pattern fill codes with
% grayscale if Level 2 support is not selected.
%
/Level1PatternFill {
/Pattern1 {0.250 Density} bind def
/Pattern2 {0.500 Density} bind def
/Pattern3 {0.750 Density} bind def
/Pattern4 {0.125 Density} bind def
/Pattern5 {0.375 Density} bind def
/Pattern6 {0.625 Density} bind def
/Pattern7 {0.875 Density} bind def
} def
%
% Now test for support of Level 2 code
%
Level1 {Level1PatternFill} {Level2PatternFill} ifelse
%
/Symbol-Oblique /Symbol findfont [1 0 .167 1 0 0] makefont
dup length dict begin {1 index /FID eq {pop pop} {def} ifelse} forall
currentdict end definefont pop
/MFshow {
   { dup 5 get 3 ge
     { 5 get 3 eq {gsave} {grestore} ifelse }
     {dup dup 0 get findfont exch 1 get scalefont setfont
     [ currentpoint ] exch dup 2 get 0 exch R dup 5 get 2 ne {dup dup 6
     get exch 4 get {Gshow} {stringwidth pop 0 R} ifelse }if dup 5 get 0 eq
     {dup 3 get {2 get neg 0 exch R pop} {pop aload pop M} ifelse} {dup 5
     get 1 eq {dup 2 get exch dup 3 get exch 6 get stringwidth pop -2 div
     dup 0 R} {dup 6 get stringwidth pop -2 div 0 R 6 get
     show 2 index {aload pop M neg 3 -1 roll neg R pop pop} {pop pop pop
     pop aload pop M} ifelse }ifelse }ifelse }
     ifelse }
   forall} def
/Gswidth {dup type /stringtype eq {stringwidth} {pop (n) stringwidth} ifelse} def
/MFwidth {0 exch { dup 5 get 3 ge { 5 get 3 eq { 0 } { pop } ifelse }
 {dup 3 get{dup dup 0 get findfont exch 1 get scalefont setfont
     6 get Gswidth pop add} {pop} ifelse} ifelse} forall} def
/MLshow { currentpoint stroke M
  0 exch R
  Blacktext {gsave 0 setgray MFshow grestore} {MFshow} ifelse } bind def
/MRshow { currentpoint stroke M
  exch dup MFwidth neg 3 -1 roll R
  Blacktext {gsave 0 setgray MFshow grestore} {MFshow} ifelse } bind def
/MCshow { currentpoint stroke M
  exch dup MFwidth -2 div 3 -1 roll R
  Blacktext {gsave 0 setgray MFshow grestore} {MFshow} ifelse } bind def
/XYsave    { [( ) 1 2 true false 3 ()] } bind def
/XYrestore { [( ) 1 2 true false 4 ()] } bind def
Level1 SuppressPDFMark or 
{} {
/SDict 10 dict def
systemdict /pdfmark known not {
  userdict /pdfmark systemdict /cleartomark get put
} if
SDict begin [
  /Title (../figs/vj2.eps)
  /Subject (gnuplot plot)
  /Creator (gnuplot 4.6 patchlevel 0)
  /Author (paul)
%  /Producer (gnuplot)
%  /Keywords ()
  /CreationDate (Thu Aug 23 16:12:33 2012)
  /DOCINFO pdfmark
end
} ifelse
end
%%EndProlog
%%Page: 1 1
gnudict begin
gsave
doclip
50 50 translate
0.050 0.050 scale
0 setgray
newpath
(Helvetica) findfont 480 scalefont setfont
BackgroundColor 0 lt 3 1 roll 0 lt exch 0 lt or or not {BackgroundColor C 1.000 0 0 11520.00 8640.00 BoxColFill} if
gsave % colour palette begin
/maxcolors 64 def
/HSV2RGB {  exch dup 0.0 eq {pop exch pop dup dup} % achromatic gray
  { /HSVs exch def /HSVv exch def 6.0 mul dup floor dup 3 1 roll sub
     /HSVf exch def /HSVi exch cvi def /HSVp HSVv 1.0 HSVs sub mul def
	 /HSVq HSVv 1.0 HSVs HSVf mul sub mul def 
	 /HSVt HSVv 1.0 HSVs 1.0 HSVf sub mul sub mul def
	 /HSVi HSVi 6 mod def 0 HSVi eq {HSVv HSVt HSVp}
	 {1 HSVi eq {HSVq HSVv HSVp}{2 HSVi eq {HSVp HSVv HSVt}
	 {3 HSVi eq {HSVp HSVq HSVv}{4 HSVi eq {HSVt HSVp HSVv}
	 {HSVv HSVp HSVq} ifelse} ifelse} ifelse} ifelse} ifelse
  } ifelse} def
/Constrain {
  dup 0 lt {0 exch pop}{dup 1 gt {1 exch pop} if} ifelse} def
/YIQ2RGB {
  3 copy -1.702 mul exch -1.105 mul add add Constrain 4 1 roll
  3 copy -0.647 mul exch -0.272 mul add add Constrain 5 1 roll
  0.621 mul exch -0.956 mul add add Constrain 3 1 roll } def
/CMY2RGB {  1 exch sub exch 1 exch sub 3 2 roll 1 exch sub 3 1 roll exch } def
/XYZ2RGB {  3 copy -0.9017 mul exch -0.1187 mul add exch 0.0585 mul exch add
  Constrain 4 1 roll 3 copy -0.0279 mul exch 1.999 mul add exch
  -0.9844 mul add Constrain 5 1 roll -0.2891 mul exch -0.5338 mul add
  exch 1.91 mul exch add Constrain 3 1 roll} def
/SelectSpace {ColorSpace (HSV) eq {HSV2RGB}{ColorSpace (XYZ) eq {
  XYZ2RGB}{ColorSpace (CMY) eq {CMY2RGB}{ColorSpace (YIQ) eq {YIQ2RGB}
  if} ifelse} ifelse} ifelse} def
/InterpolatedColor true def
/grayindex {/gidx 0 def
  {GrayA gidx get grayv ge {exit} if /gidx gidx 1 add def} loop} def
/dgdx {grayv GrayA gidx get sub GrayA gidx 1 sub get
  GrayA gidx get sub div} def 
/redvalue {RedA gidx get RedA gidx 1 sub get
  RedA gidx get sub dgdxval mul add} def
/greenvalue {GreenA gidx get GreenA gidx 1 sub get
  GreenA gidx get sub dgdxval mul add} def
/bluevalue {BlueA gidx get BlueA gidx 1 sub get
  BlueA gidx get sub dgdxval mul add} def
/interpolate {
  grayindex grayv GrayA gidx get sub abs 1e-5 le
    {RedA gidx get GreenA gidx get BlueA gidx get}
    {/dgdxval dgdx def redvalue greenvalue bluevalue} ifelse} def
/GrayA [0 .0159 .0317 .0476 .0635 .0794 .0952 .1111 .127 .1429 .1587 .1746 
  .1905 .2063 .2222 .2381 .254 .2698 .2857 .3016 .3175 .3333 .3492 .3651 
  .381 .3968 .4127 .4286 .4444 .4603 .4762 .4921 .5079 .5238 .5397 .5556 
  .5714 .5873 .6032 .619 .6349 .6508 .6667 .6825 .6984 .7143 .7302 .746 
  .7619 .7778 .7937 .8095 .8254 .8413 .8571 .873 .8889 .9048 .9206 .9365 
  .9524 .9683 .9841 1 ] def
/RedA [0 0 0 0 0 0 0 0 0 0 0 0 0 0 0 0 0 0 0 0 0 0 0 0 .0238 .0873 .1508 
  .2143 .2778 .3413 .4048 .4683 .5317 .5952 .6587 .7222 .7857 .8492 .9127 
  .9762 1 1 1 1 1 1 1 1 1 1 1 1 1 1 1 1 .9444 .881 .8175 .754 .6905 .627 
  .5635 .5 ] def
/GreenA [0 0 0 0 0 0 0 0 .0079 .0714 .1349 .1984 .2619 .3254 .3889 .4524 
  .5159 .5794 .6429 .7063 .7698 .8333 .8968 .9603 1 1 1 1 1 1 1 1 1 1 1 1 1 
  1 1 1 .9603 .8968 .8333 .7698 .7063 .6429 .5794 .5159 .4524 .3889 .3254 
  .2619 .1984 .1349 .0714 .0079 0 0 0 0 0 0 0 0 ] def
/BlueA [.5 .5635 .627 .6905 .754 .8175 .881 .9444 1 1 1 1 1 1 1 1 1 1 1 1 1 
  1 1 1 .9762 .9127 .8492 .7857 .7222 .6587 .5952 .5317 .4683 .4048 .3413 
  .2778 .2143 .1508 .0873 .0238 0 0 0 0 0 0 0 0 0 0 0 0 0 0 0 0 0 0 0 0 0 0 
  0 0 ] def
/pm3dround {maxcolors 0 gt {dup 1 ge
	{pop 1} {maxcolors mul floor maxcolors 1 sub div} ifelse} if} def
/pm3dGamma 1.0 1.5 Gamma mul div def
/ColorSpace (RGB) def
Color InterpolatedColor or { % COLOUR vs. GRAY map
  InterpolatedColor { %% Interpolation vs. RGB-Formula
    /g {stroke pm3dround /grayv exch def interpolate
        SelectSpace setrgbcolor} bind def
  }{
  /g {stroke pm3dround dup cF7 Constrain exch dup cF5 Constrain exch cF15 Constrain 
       SelectSpace setrgbcolor} bind def
  } ifelse
}{
  /g {stroke pm3dround pm3dGamma exp setgray} bind def
} ifelse
0.500 UL
LTb
2064 1536 M
88 0 V
8503 0 R
-88 0 V
stroke
0.00 0.00 0.00 C 1776 1536 M
[ [(URWPalladioL-Roma) 480.0 0.0 true true 0 (-40)]
] -160.0 MRshow
0.500 UL
LTb
2064 2352 M
88 0 V
8503 0 R
-88 0 V
stroke
0.00 0.00 0.00 C 1776 2352 M
[ [(URWPalladioL-Roma) 480.0 0.0 true true 0 (-35)]
] -160.0 MRshow
0.500 UL
LTb
2064 3168 M
88 0 V
8503 0 R
-88 0 V
stroke
0.00 0.00 0.00 C 1776 3168 M
[ [(URWPalladioL-Roma) 480.0 0.0 true true 0 (-30)]
] -160.0 MRshow
0.500 UL
LTb
2064 3984 M
88 0 V
8503 0 R
-88 0 V
stroke
0.00 0.00 0.00 C 1776 3984 M
[ [(URWPalladioL-Roma) 480.0 0.0 true true 0 (-25)]
] -160.0 MRshow
0.500 UL
LTb
2064 4800 M
88 0 V
8503 0 R
-88 0 V
stroke
0.00 0.00 0.00 C 1776 4800 M
[ [(URWPalladioL-Roma) 480.0 0.0 true true 0 (-20)]
] -160.0 MRshow
0.500 UL
LTb
2064 5615 M
88 0 V
8503 0 R
-88 0 V
stroke
0.00 0.00 0.00 C 1776 5615 M
[ [(URWPalladioL-Roma) 480.0 0.0 true true 0 (-15)]
] -160.0 MRshow
0.500 UL
LTb
2064 6431 M
88 0 V
8503 0 R
-88 0 V
stroke
0.00 0.00 0.00 C 1776 6431 M
[ [(URWPalladioL-Roma) 480.0 0.0 true true 0 (-10)]
] -160.0 MRshow
0.500 UL
LTb
2064 7247 M
88 0 V
8503 0 R
-88 0 V
stroke
0.00 0.00 0.00 C 1776 7247 M
[ [(URWPalladioL-Roma) 480.0 0.0 true true 0 (-5)]
] -160.0 MRshow
0.500 UL
LTb
2064 8063 M
88 0 V
8503 0 R
-88 0 V
stroke
0.00 0.00 0.00 C 1776 8063 M
[ [(URWPalladioL-Roma) 480.0 0.0 true true 0 (0)]
] -160.0 MRshow
0.500 UL
LTb
2064 1536 M
0 88 V
0 6439 R
0 -88 V
stroke
0.00 0.00 0.00 C 2064 1056 M
[ [(URWPalladioL-Roma) 480.0 0.0 true true 0 (0)]
] -160.0 MCshow
0.500 UL
LTb
3496 1536 M
0 88 V
0 6439 R
0 -88 V
stroke
0.00 0.00 0.00 C 3496 1056 M
[ [(URWPalladioL-Roma) 480.0 0.0 true true 0 (2000)]
] -160.0 MCshow
0.500 UL
LTb
4928 1536 M
0 88 V
0 6439 R
0 -88 V
stroke
0.00 0.00 0.00 C 4928 1056 M
[ [(URWPalladioL-Roma) 480.0 0.0 true true 0 (4000)]
] -160.0 MCshow
0.500 UL
LTb
6360 1536 M
0 88 V
0 6439 R
0 -88 V
stroke
0.00 0.00 0.00 C 6360 1056 M
[ [(URWPalladioL-Roma) 480.0 0.0 true true 0 (6000)]
] -160.0 MCshow
0.500 UL
LTb
7791 1536 M
0 88 V
0 6439 R
0 -88 V
stroke
0.00 0.00 0.00 C 7791 1056 M
[ [(URWPalladioL-Roma) 480.0 0.0 true true 0 (8000)]
] -160.0 MCshow
0.500 UL
LTb
9223 1536 M
0 88 V
0 6439 R
0 -88 V
stroke
0.00 0.00 0.00 C 9223 1056 M
[ [(URWPalladioL-Roma) 480.0 0.0 true true 0 (10000)]
] -160.0 MCshow
0.500 UL
LTb
10655 1536 M
0 88 V
0 6439 R
0 -88 V
stroke
0.00 0.00 0.00 C 10655 1056 M
[ [(URWPalladioL-Roma) 480.0 0.0 true true 0 (12000)]
] -160.0 MCshow
0.500 UL
LTb
0.500 UL
LTb
2064 8063 N
0 -6527 V
8591 0 V
0 6527 V
-8591 0 V
Z stroke
0.00 0.00 0.00 C 384 4799 M
currentpoint gsave translate 90 rotate 0 0 moveto
[ [(URWPalladioL-Roma) 480.0 0.0 true true 0 (Value)]
] -160.0 MCshow
grestore
LTb
0.00 0.00 0.00 C 6359 336 M
[ [(URWPalladioL-Roma) 480.0 0.0 true true 0 (Cumulative spending \(x\))]
] -160.0 MCshow
LTb
1.000 UP
0.500 UL
LTb
% Begin plot #1
1.333 UP
8.000 UL
LT0
0.00 0.00 1.00 C 8226 7539 CircleF
7996 7510 CircleF
2956 5822 CircleF
3962 2134 CircleF
6757 7894 CircleF
8593 7650 CircleF
3177 5402 CircleF
5768 4235 CircleF
2970 5677 CircleF
4913 2000 CircleF
9218 7337 CircleF
7309 7607 CircleF
6034 6929 CircleF
4139 2107 CircleF
8933 7561 CircleF
4397 2020 CircleF
4060 2260 CircleF
3702 3691 CircleF
4113 2042 CircleF
7988 7481 CircleF
5172 2307 CircleF
6890 7918 CircleF
2328 5618 CircleF
7552 7574 CircleF
7305 7776 CircleF
8156 7687 CircleF
2344 5823 CircleF
5160 2219 CircleF
8730 7640 CircleF
7477 7517 CircleF
4208 2034 CircleF
2148 3925 CircleF
6161 7116 CircleF
6292 7341 CircleF
5125 2092 CircleF
8389 7596 CircleF
2078 3323 CircleF
5672 3850 CircleF
3389 4869 CircleF
9655 7296 CircleF
7549 7700 CircleF
7431 7453 CircleF
4817 1960 CircleF
4776 1890 CircleF
8000 7401 CircleF
9652 6936 CircleF
6200 7310 CircleF
4108 2297 CircleF
6117 7103 CircleF
8579 7586 CircleF
3731 3468 CircleF
9774 6909 CircleF
3170 5502 CircleF
8999 7403 CircleF
8421 7386 CircleF
4890 1882 CircleF
3490 4708 CircleF
9573 7306 CircleF
5250 2502 CircleF
5373 2681 CircleF
3098 5619 CircleF
6964 7693 CircleF
3150 5565 CircleF
9070 7339 CircleF
3378 4987 CircleF
6929 7875 CircleF
7384 7657 CircleF
9640 7329 CircleF
7691 7582 CircleF
8213 7402 CircleF
5774 4147 CircleF
7363 7656 CircleF
6386 7574 CircleF
3346 5098 CircleF
7454 7390 CircleF
5154 2147 CircleF
4528 1839 CircleF
2175 4191 CircleF
8430 7639 CircleF
5290 2600 CircleF
9407 6946 CircleF
2490 5982 CircleF
6088 7024 CircleF
6956 7884 CircleF
3043 5684 CircleF
3477 4872 CircleF
6483 7656 CircleF
7766 7569 CircleF
6369 7571 CircleF
3238 5235 CircleF
5050 1978 CircleF
9113 7225 CircleF
9288 7333 CircleF
5710 3822 CircleF
5631 3621 CircleF
9218 7338 CircleF
7092 7577 CircleF
2673 6081 CircleF
2790 5962 CircleF
9013 7430 CircleF
8111 7449 CircleF
3436 4482 CircleF
5463 2873 CircleF
7475 7573 CircleF
2734 6116 CircleF
2891 5762 CircleF
9023 7439 CircleF
9466 7326 CircleF
8384 7550 CircleF
5745 4208 CircleF
9346 7333 CircleF
4242 1970 CircleF
4178 1987 CircleF
4439 1686 CircleF
5286 2507 CircleF
9213 7330 CircleF
2705 5914 CircleF
5790 4510 CircleF
9803 6849 CircleF
3394 4906 CircleF
5676 3858 CircleF
6364 7596 CircleF
3015 5837 CircleF
9823 6857 CircleF
3505 4718 CircleF
8816 7632 CircleF
5770 4360 CircleF
5529 3224 CircleF
7863 7511 CircleF
4126 2044 CircleF
8749 7601 CircleF
8164 7526 CircleF
6231 7302 CircleF
6664 7822 CircleF
9001 7503 CircleF
4953 1880 CircleF
8547 7562 CircleF
4585 1807 CircleF
5109 2201 CircleF
2526 6083 CircleF
7417 7643 CircleF
5154 2254 CircleF
7529 7585 CircleF
8927 7223 CircleF
3707 3526 CircleF
9752 7057 CircleF
4519 1639 CircleF
5432 2940 CircleF
3270 5361 CircleF
4171 2042 CircleF
3681 3816 CircleF
9093 7346 CircleF
4651 1784 CircleF
7337 7625 CircleF
9372 7318 CircleF
3509 4594 CircleF
9452 7204 CircleF
5254 2342 CircleF
6516 7683 CircleF
7322 7726 CircleF
6261 7412 CircleF
6480 7681 CircleF
2811 6034 CircleF
7975 7541 CircleF
6635 7784 CircleF
5270 2654 CircleF
9331 7351 CircleF
8018 7502 CircleF
6676 7844 CircleF
4856 1935 CircleF
4203 1879 CircleF
7934 7511 CircleF
8923 7605 CircleF
6600 7768 CircleF
9318 7205 CircleF
5288 2595 CircleF
5705 3947 CircleF
9777 6951 CircleF
8567 7562 CircleF
5969 6802 CircleF
2713 6006 CircleF
6364 7596 CircleF
7386 7652 CircleF
7328 7635 CircleF
4784 1618 CircleF
2561 6019 CircleF
7818 7540 CircleF
6764 7907 CircleF
6683 7717 CircleF
8632 7487 CircleF
8846 7440 CircleF
3274 5242 CircleF
8172 7485 CircleF
9218 7146 CircleF
9573 7370 CircleF
5976 6845 CircleF
4396 1910 CircleF
7740 7554 CircleF
4303 2018 CircleF
4390 1955 CircleF
8986 7387 CircleF
6106 7140 CircleF
7069 7874 CircleF
7995 7543 CircleF
8058 7534 CircleF
2455 5923 CircleF
2428 5848 CircleF
6818 7885 CircleF
4260 1923 CircleF
8436 7668 CircleF
7491 7512 CircleF
2339 5789 CircleF
3534 4540 CircleF
3903 2500 CircleF
4404 1917 CircleF
9693 7113 CircleF
6777 7806 CircleF
6393 7637 CircleF
2290 5568 CircleF
3334 5205 CircleF
4385 1729 CircleF
5017 2039 CircleF
6340 7550 CircleF
2125 3701 CircleF
7977 7588 CircleF
5532 3075 CircleF
6361 7376 CircleF
9840 6712 CircleF
8885 7571 CircleF
5258 2501 CircleF
9196 7332 CircleF
5441 2976 CircleF
2536 6101 CircleF
8936 7377 CircleF
4459 1982 CircleF
6133 7207 CircleF
4324 2029 CircleF
2586 6159 CircleF
8459 7642 CircleF
2790 6028 CircleF
5317 2751 CircleF
4088 2242 CircleF
5407 2865 CircleF
2935 5878 CircleF
7844 7632 CircleF
5000 1877 CircleF
9160 7399 CircleF
8616 7733 CircleF
7458 7489 CircleF
9050 7201 CircleF
7705 7493 CircleF
6657 7861 CircleF
8958 7390 CircleF
4113 2025 CircleF
7417 7710 CircleF
7537 7705 CircleF
4082 2295 CircleF
9134 7223 CircleF
6652 7725 CircleF
4453 1762 CircleF
3899 2380 CircleF
7328 7780 CircleF
6761 7833 CircleF
8913 7550 CircleF
5764 4298 CircleF
8927 7482 CircleF
8818 7682 CircleF
5816 4637 CircleF
4908 1920 CircleF
8970 7519 CircleF
5344 2674 CircleF
8627 7631 CircleF
7912 7537 CircleF
6147 7229 CircleF
5713 3992 CircleF
5195 2417 CircleF
8813 7586 CircleF
3033 5704 CircleF
9475 7343 CircleF
3555 4411 CircleF
6697 7809 CircleF
2315 5574 CircleF
5569 3310 CircleF
5888 5276 CircleF
9689 7204 CircleF
3812 2348 CircleF
7989 7420 CircleF
6838 7644 CircleF
4928 1968 CircleF
6473 7689 CircleF
2157 3969 CircleF
9559 7335 CircleF
6887 7888 CircleF
6662 7787 CircleF
5100 2121 CircleF
2132 3823 CircleF
7076 7814 CircleF
3448 4841 CircleF
7374 7622 CircleF
4018 2307 CircleF
6165 7216 CircleF
8506 7655 CircleF
3951 2398 CircleF
6426 7375 CircleF
7461 7711 CircleF
7726 7529 CircleF
3697 3720 CircleF
6759 7849 CircleF
3245 5252 CircleF
2200 4402 CircleF
8498 7570 CircleF
6086 7115 CircleF
6829 7884 CircleF
5356 2602 CircleF
3997 2271 CircleF
4612 1923 CircleF
4131 2204 CircleF
3766 2865 CircleF
5821 4591 CircleF
4377 1863 CircleF
6922 7815 CircleF
5159 2248 CircleF
2096 3307 CircleF
6624 7841 CircleF
3946 2151 CircleF
4782 1795 CircleF
9537 7451 CircleF
7709 7618 CircleF
9843 6771 CircleF
3806 2550 CircleF
5991 6890 CircleF
5711 4036 CircleF
9536 7276 CircleF
3262 5315 CircleF
6779 7845 CircleF
8806 7668 CircleF
9338 7289 CircleF
7190 7765 CircleF
5544 3278 CircleF
9572 7250 CircleF
8560 7615 CircleF
7791 7587 CircleF
7632 7677 CircleF
5501 3208 CircleF
4057 2325 CircleF
7464 7705 CircleF
5383 2840 CircleF
3905 2542 CircleF
9687 7223 CircleF
6124 6890 CircleF
5014 1901 CircleF
7598 7525 CircleF
5934 5896 CircleF
7268 7629 CircleF
6130 7182 CircleF
9148 7363 CircleF
9452 7314 CircleF
2771 5890 CircleF
9467 7293 CircleF
6342 7555 CircleF
4625 1684 CircleF
4444 1737 CircleF
5062 2086 CircleF
3100 5619 CircleF
7256 7755 CircleF
9174 7356 CircleF
4322 2027 CircleF
4239 2061 CircleF
6659 7823 CircleF
4806 1805 CircleF
5642 3694 CircleF
5874 5116 CircleF
4534 1931 CircleF
8300 7743 CircleF
8483 7569 CircleF
9769 6982 CircleF
2430 6013 CircleF
6497 7729 CircleF
7931 7509 CircleF
9733 7029 CircleF
2958 5801 CircleF
6767 7577 CircleF
7886 7535 CircleF
9192 7270 CircleF
7839 7445 CircleF
8848 7443 CircleF
5330 2639 CircleF
7083 7849 CircleF
9481 6894 CircleF
2980 5773 CircleF
7855 7596 CircleF
7346 7633 CircleF
4618 1751 CircleF
7227 7691 CircleF
4616 1733 CircleF
7195 7775 CircleF
5534 3254 CircleF
6623 7830 CircleF
4389 1936 CircleF
6732 7848 CircleF
8919 7464 CircleF
6733 7904 CircleF
6441 7552 CircleF
6536 7696 CircleF
3835 2465 CircleF
7118 7829 CircleF
9796 6897 CircleF
2422 5999 CircleF
6252 7363 CircleF
6979 7838 CircleF
7533 7594 CircleF
7734 7363 CircleF
7324 7432 CircleF
5170 2300 CircleF
4478 1760 CircleF
9368 7325 CircleF
6074 7025 CircleF
2461 5899 CircleF
4169 2058 CircleF
5298 2508 CircleF
4485 1842 CircleF
9143 7326 CircleF
5178 2236 CircleF
4891 2009 CircleF
4984 1916 CircleF
2275 5647 CircleF
7119 7861 CircleF
4031 2178 CircleF
2854 5976 CircleF
7980 7526 CircleF
9564 7479 CircleF
4784 1621 CircleF
6981 7841 CircleF
6075 7091 CircleF
4748 1637 CircleF
4228 1999 CircleF
3368 4976 CircleF
8404 7610 CircleF
7747 7488 CircleF
4655 1853 CircleF
6272 7352 CircleF
7296 7599 CircleF
2286 5630 CircleF
9022 7449 CircleF
3790 2592 CircleF
7656 7567 CircleF
6871 7843 CircleF
3603 4269 CircleF
6617 7802 CircleF
6044 7021 CircleF
2140 3826 CircleF
7094 7850 CircleF
6232 7329 CircleF
8009 7412 CircleF
3788 2687 CircleF
5127 2263 CircleF
8572 7417 CircleF
2764 6098 CircleF
7802 7637 CircleF
6691 7813 CircleF
6719 7765 CircleF
4364 1970 CircleF
8134 7536 CircleF
5139 2195 CircleF
5835 4694 CircleF
2931 5935 CircleF
4145 2186 CircleF
4621 1632 CircleF
3771 2567 CircleF
8323 7602 CircleF
6220 7308 CircleF
7680 7510 CircleF
4034 2241 CircleF
2615 6036 CircleF
9228 7270 CircleF
7865 7409 CircleF
8831 7446 CircleF
5477 3084 CircleF
5843 4801 CircleF
6128 7202 CircleF
8952 7318 CircleF
5730 4104 CircleF
4755 1574 CircleF
2112 3568 CircleF
3964 2314 CircleF
4257 2033 CircleF
3335 5058 CircleF
6791 7818 CircleF
4272 1693 CircleF
4029 2325 CircleF
9080 7229 CircleF
7550 7513 CircleF
4085 2329 CircleF
5322 2604 CircleF
8349 7650 CircleF
2931 5792 CircleF
2514 6102 CircleF
8237 7603 CircleF
5346 2616 CircleF
5376 2794 CircleF
4118 2184 CircleF
9747 6954 CircleF
7756 7383 CircleF
7710 7560 CircleF
9304 7417 CircleF
4170 2040 CircleF
2845 5975 CircleF
2144 3899 CircleF
9247 7322 CircleF
3163 5510 CircleF
6958 7836 CircleF
3962 2411 CircleF
5963 6705 CircleF
3350 5087 CircleF
5573 3384 CircleF
5965 6577 CircleF
2113 3449 CircleF
4061 2210 CircleF
2617 6164 CircleF
7860 7520 CircleF
5634 3542 CircleF
8632 7695 CircleF
7948 7653 CircleF
4740 1795 CircleF
8586 7658 CircleF
4172 2129 CircleF
5349 2540 CircleF
7011 7836 CircleF
7538 7661 CircleF
7138 7686 CircleF
3847 2451 CircleF
5688 3805 CircleF
3123 5541 CircleF
5552 3363 CircleF
4966 1965 CircleF
4348 1981 CircleF
9175 7301 CircleF
3517 4628 CircleF
6117 7175 CircleF
3378 5052 CircleF
2572 6056 CircleF
5354 2756 CircleF
6637 7724 CircleF
8871 7556 CircleF
6763 7822 CircleF
2812 5896 CircleF
9810 6839 CircleF
2772 6034 CircleF
9527 7430 CircleF
8988 7561 CircleF
4001 2290 CircleF
7563 7449 CircleF
4476 1870 CircleF
2538 6119 CircleF
5684 3904 CircleF
3103 5634 CircleF
3294 5178 CircleF
5524 3216 CircleF
8166 7600 CircleF
5907 5535 CircleF
8100 7591 CircleF
9491 7394 CircleF
7166 7855 CircleF
7147 7849 CircleF
2912 5585 CircleF
7173 7791 CircleF
2586 6070 CircleF
7474 7668 CircleF
2093 3243 CircleF
8162 7690 CircleF
2110 3613 CircleF
9401 7306 CircleF
6450 7599 CircleF
9407 7318 CircleF
2876 5942 CircleF
4063 2163 CircleF
8677 7634 CircleF
5131 2171 CircleF
5906 5390 CircleF
6965 7774 CircleF
4370 1843 CircleF
2410 5650 CircleF
4096 1997 CircleF
6417 7456 CircleF
7868 7584 CircleF
3882 2487 CircleF
7315 7421 CircleF
5685 3866 CircleF
6416 7546 CircleF
2673 5989 CircleF
8150 7647 CircleF
9116 7323 CircleF
9756 7012 CircleF
9466 7195 CircleF
5286 2514 CircleF
5123 2261 CircleF
9659 7187 CircleF
4713 1748 CircleF
8260 7638 CircleF
2932 5812 CircleF
5537 3338 CircleF
9553 7172 CircleF
3908 2430 CircleF
6520 7760 CircleF
6607 7769 CircleF
5639 3737 CircleF
6364 7601 CircleF
8254 7574 CircleF
8776 7725 CircleF
4052 2027 CircleF
5209 2403 CircleF
8627 7458 CircleF
6762 7900 CircleF
7379 7671 CircleF
7327 7730 CircleF
5840 4757 CircleF
8749 7442 CircleF
5561 3438 CircleF
8037 7535 CircleF
3887 2494 CircleF
9142 7395 CircleF
4153 2239 CircleF
8183 7482 CircleF
8382 7658 CircleF
5424 3033 CircleF
9783 6850 CircleF
4201 2097 CircleF
6149 7123 CircleF
8448 7628 CircleF
7458 7537 CircleF
3346 5207 CircleF
8652 7567 CircleF
2921 5835 CircleF
5550 3229 CircleF
5008 1992 CircleF
7685 7541 CircleF
2469 6038 CircleF
2092 3431 CircleF
2232 5017 CircleF
3506 4748 CircleF
2853 5825 CircleF
5132 2253 CircleF
9322 6766 CircleF
2386 5771 CircleF
7483 7497 CircleF
8366 7386 CircleF
7404 7505 CircleF
8169 7502 CircleF
7858 7582 CircleF
5142 2242 CircleF
8084 7622 CircleF
8485 7505 CircleF
3909 2455 CircleF
4494 1775 CircleF
3360 5027 CircleF
6670 7639 CircleF
2656 6091 CircleF
8453 7592 CircleF
9320 7189 CircleF
8340 7511 CircleF
3348 5065 CircleF
9456 7200 CircleF
8394 7605 CircleF
4010 2341 CircleF
5208 2332 CircleF
2768 5869 CircleF
2249 5469 CircleF
7994 7641 CircleF
7631 7516 CircleF
9278 7466 CircleF
6179 7289 CircleF
7149 7651 CircleF
9201 7315 CircleF
5620 3530 CircleF
3474 4681 CircleF
8855 7513 CircleF
5580 3427 CircleF
6384 7594 CircleF
9824 6905 CircleF
3426 4891 CircleF
8229 7415 CircleF
7780 7401 CircleF
2321 5612 CircleF
3646 4027 CircleF
7530 7654 CircleF
8630 7569 CircleF
5785 4307 CircleF
6740 7825 CircleF
5056 2048 CircleF
9731 7001 CircleF
7080 7835 CircleF
5539 3304 CircleF
4203 2025 CircleF
3709 3724 CircleF
8217 7431 CircleF
2438 5974 CircleF
4225 1878 CircleF
4305 1936 CircleF
3066 5498 CircleF
4306 1854 CircleF
7512 7703 CircleF
3708 3717 CircleF
9147 7381 CircleF
9549 7253 CircleF
4754 1826 CircleF
9090 7494 CircleF
8630 7632 CircleF
7774 7403 CircleF
3978 2244 CircleF
7850 7667 CircleF
2580 6115 CircleF
2909 5775 CircleF
9672 7058 CircleF
2842 5856 CircleF
8881 7451 CircleF
7697 7591 CircleF
8132 7570 CircleF
4887 2023 CircleF
6953 7817 CircleF
8088 7583 CircleF
3020 5200 CircleF
8773 7535 CircleF
8317 7517 CircleF
6291 7458 CircleF
3735 3346 CircleF
9663 7268 CircleF
3255 5281 CircleF
6334 7310 CircleF
9450 7500 CircleF
3143 5542 CircleF
9640 7174 CircleF
8684 7615 CircleF
6060 7039 CircleF
2752 5872 CircleF
4698 1789 CircleF
5816 4601 CircleF
6470 7673 CircleF
8284 7470 CircleF
5159 2293 CircleF
3338 5226 CircleF
3446 4967 CircleF
8506 7725 CircleF
5432 2917 CircleF
4157 1968 CircleF
7907 7555 CircleF
5801 4530 CircleF
9356 7407 CircleF
4452 1812 CircleF
5023 1950 CircleF
3060 5612 CircleF
5255 2522 CircleF
3759 3003 CircleF
9543 7257 CircleF
5687 3901 CircleF
5091 2029 CircleF
4826 1913 CircleF
5829 4679 CircleF
7662 7661 CircleF
7801 7501 CircleF
8139 7628 CircleF
9772 7056 CircleF
7641 7603 CircleF
7108 7825 CircleF
6019 6977 CircleF
3854 2330 CircleF
4397 1839 CircleF
9530 7314 CircleF
8035 7622 CircleF
7903 7610 CircleF
2231 5003 CircleF
7187 7687 CircleF
3364 5123 CircleF
7639 7482 CircleF
9747 6974 CircleF
8351 7496 CircleF
4468 1810 CircleF
8956 7457 CircleF
5721 4070 CircleF
4764 1748 CircleF
9321 7320 CircleF
2452 6020 CircleF
7306 7681 CircleF
2666 6066 CircleF
8568 7660 CircleF
2461 5737 CircleF
3455 4630 CircleF
2212 4675 CircleF
8228 7430 CircleF
4183 2088 CircleF
8955 7485 CircleF
7528 7534 CircleF
3409 4880 CircleF
8192 7609 CircleF
3977 2359 CircleF
9252 7237 CircleF
7834 7645 CircleF
8891 7508 CircleF
3418 4774 CircleF
5696 3933 CircleF
7276 7663 CircleF
7300 7746 CircleF
4779 1878 CircleF
9818 6434 CircleF
2241 5125 CircleF
2335 5799 CircleF
7887 7537 CircleF
6086 7043 CircleF
3022 5649 CircleF
2973 5805 CircleF
4260 2039 CircleF
3763 3021 CircleF
9229 7360 CircleF
5500 3130 CircleF
4147 2220 CircleF
7268 7657 CircleF
2137 3737 CircleF
9174 7334 CircleF
4740 1825 CircleF
2115 3638 CircleF
3580 4315 CircleF
8557 7594 CircleF
6277 7409 CircleF
6326 7517 CircleF
8108 7465 CircleF
9073 7472 CircleF
6548 7757 CircleF
7246 7752 CircleF
3977 2310 CircleF
9496 7181 CircleF
8271 7476 CircleF
9172 7424 CircleF
5996 6911 CircleF
5293 2538 CircleF
8275 7640 CircleF
7106 7861 CircleF
8037 7466 CircleF
9107 7257 CircleF
3001 5663 CircleF
6967 7914 CircleF
4165 2098 CircleF
3404 4870 CircleF
2311 5780 CircleF
3104 5313 CircleF
5019 1848 CircleF
7515 7591 CircleF
5102 2170 CircleF
9180 7376 CircleF
3702 3699 CircleF
5683 3698 CircleF
6441 7675 CircleF
3372 5112 CircleF
3905 2461 CircleF
5026 2051 CircleF
7265 7748 CircleF
9012 7317 CircleF
5863 5008 CircleF
8409 7621 CircleF
5004 2050 CircleF
8351 7752 CircleF
4660 1842 CircleF
2127 3688 CircleF
4255 1978 CircleF
7907 7489 CircleF
6608 7714 CircleF
6684 7793 CircleF
2284 5682 CircleF
9419 7253 CircleF
7440 7631 CircleF
4142 2027 CircleF
9278 7237 CircleF
9719 7165 CircleF
7938 7554 CircleF
8048 7439 CircleF
9271 7258 CircleF
9481 7416 CircleF
6933 7886 CircleF
3130 5557 CircleF
3515 4683 CircleF
4925 1928 CircleF
9006 7436 CircleF
6289 7354 CircleF
9198 7262 CircleF
2707 6034 CircleF
5926 5750 CircleF
9330 7097 CircleF
6286 7380 CircleF
8289 7653 CircleF
7881 7528 CircleF
6898 7848 CircleF
5221 2309 CircleF
5365 2619 CircleF
4766 1848 CircleF
7395 7689 CircleF
5338 2612 CircleF
7861 7595 CircleF
7192 7618 CircleF
8238 7596 CircleF
7273 7580 CircleF
5834 4730 CircleF
7753 7618 CircleF
5128 2202 CircleF
8750 7710 CircleF
9695 7026 CircleF
6901 7871 CircleF
7487 7616 CircleF
2127 3771 CircleF
7126 7755 CircleF
7771 7284 CircleF
6579 7760 CircleF
4898 2067 CircleF
9105 7373 CircleF
6174 7244 CircleF
7608 7553 CircleF
6860 7852 CircleF
6726 7665 CircleF
6723 7849 CircleF
7410 7693 CircleF
2688 6003 CircleF
5500 3059 CircleF
7214 7744 CircleF
3624 4141 CircleF
9647 7136 CircleF
3875 2526 CircleF
5651 3709 CircleF
2609 6128 CircleF
5912 5597 CircleF
9011 7184 CircleF
6597 7708 CircleF
6651 7658 CircleF
3748 3176 CircleF
6815 7874 CircleF
5426 2969 CircleF
3528 4616 CircleF
4984 1820 CircleF
8814 7649 CircleF
4564 1739 CircleF
2552 6101 CircleF
6788 7873 CircleF
4351 2048 CircleF
7877 7561 CircleF
5529 3260 CircleF
8649 7462 CircleF
3500 4666 CircleF
5613 3474 CircleF
7839 7415 CircleF
9261 7400 CircleF
3955 2307 CircleF
8743 7617 CircleF
4242 2097 CircleF
4186 2182 CircleF
7349 7753 CircleF
7357 7736 CircleF
4405 1862 CircleF
9386 7186 CircleF
7737 7508 CircleF
8618 7460 CircleF
8526 7685 CircleF
2286 5700 CircleF
6388 7625 CircleF
2995 5746 CircleF
2097 3259 CircleF
2180 4319 CircleF
3091 5611 CircleF
8812 7510 CircleF
5810 4624 CircleF
7343 7643 CircleF
6225 7379 CircleF
4328 1963 CircleF
4587 1724 CircleF
8092 7619 CircleF
7920 7547 CircleF
6604 7792 CircleF
6188 7291 CircleF
3794 2671 CircleF
8424 7588 CircleF
2911 5967 CircleF
3759 3047 CircleF
9084 7472 CircleF
3647 4088 CircleF
9604 7254 CircleF
9824 6745 CircleF
5199 2234 CircleF
5256 2574 CircleF
8724 7518 CircleF
5980 6890 CircleF
3528 4478 CircleF
2183 4312 CircleF
6734 7717 CircleF
7955 7652 CircleF
4225 2057 CircleF
8542 7760 CircleF
2129 3740 CircleF
4360 1857 CircleF
6396 7631 CircleF
6803 7877 CircleF
4646 1867 CircleF
7187 7745 CircleF
4286 1998 CircleF
3056 5678 CircleF
9494 7219 CircleF
% End plot #1
1.000 UP
0.500 UL
LTb
grestore % colour palette end
stroke
grestore
end
showpage
%%Trailer
%%DocumentFonts: URWPalladioL-Roma Helvetica
